# vtk DataFile Version 3.0
vtk output
ASCII
DATASET POLYDATA
POINTS 1000 float
0 0 0 0.25641 0 0 0.512821 0 0 
0.769231 0 0 1.02564 0 0 1.28205 0 0 
1.53846 0 0 1.79487 0 0 2.05128 0 0 
2.30769 0 0 2.5641 0 0 2.82051 0 0 
3.07692 0 0 3.33333 0 0 3.58974 0 0 
3.84615 0 0 4.10256 0 0 4.35897 0 0 
4.61538 0 0 4.87179 0 0 5.12821 0 0 
5.38462 0 0 5.64103 0 0 5.89744 0 0 
6.15385 0 0 6.41026 0 0 6.66667 0 0 
6.92308 0 0 7.17949 0 0 7.4359 0 0 
7.69231 0 0 7.94872 0 0 8.20513 0 0 
8.46154 0 0 8.71795 0 0 8.97436 0 0 
9.23077 0 0 9.48718 0 0 9.74359 0 0 
10 0 0 0 0.25 0 0.25641 0.25 0 
0.512821 0.25 0 0.769231 0.25 0 1.02564 0.25 0 
1.28205 0.25 0 1.53846 0.25 0 1.79487 0.25 0 
2.05128 0.25 0 2.30769 0.25 0 2.5641 0.25 0 
2.82051 0.25 0 3.07692 0.25 0 3.33333 0.25 0 
3.58974 0.25 0 3.84615 0.25 0 4.10256 0.25 0 
4.35897 0.25 0 4.61538 0.25 0 4.87179 0.25 0 
5.12821 0.25 0 5.38462 0.25 0 5.64103 0.25 0 
5.89744 0.25 0 6.15385 0.25 0 6.41026 0.25 0 
6.66667 0.25 0 6.92308 0.25 0 7.17949 0.25 0 
7.4359 0.25 0 7.69231 0.25 0 7.94872 0.25 0 
8.20513 0.25 0 8.46154 0.25 0 8.71795 0.25 0 
8.97436 0.25 0 9.23077 0.25 0 9.48718 0.25 0 
9.74359 0.25 0 10 0.25 0 0 0.5 0 
0.25641 0.5 0 0.512821 0.5 0 0.769231 0.5 0 
1.02564 0.5 0 1.28205 0.5 0 1.53846 0.5 0 
1.79487 0.5 0 2.05128 0.5 0 2.30769 0.5 0 
2.5641 0.5 0 2.82051 0.5 0 3.07692 0.5 0 
3.33333 0.5 0 3.58974 0.5 0 3.84615 0.5 0 
4.10256 0.5 0 4.35897 0.5 0 4.61538 0.5 0 
4.87179 0.5 0 5.12821 0.5 0 5.38462 0.5 0 
5.64103 0.5 0 5.89744 0.5 0 6.15385 0.5 0 
6.41026 0.5 0 6.66667 0.5 0 6.92308 0.5 0 
7.17949 0.5 0 7.4359 0.5 0 7.69231 0.5 0 
7.94872 0.5 0 8.20513 0.5 0 8.46154 0.5 0 
8.71795 0.5 0 8.97436 0.5 0 9.23077 0.5 0 
9.48718 0.5 0 9.74359 0.5 0 10 0.5 0 
0 0.75 0 0.25641 0.75 0 0.512821 0.75 0 
0.769231 0.75 0 1.02564 0.75 0 1.28205 0.75 0 
1.53846 0.75 0 1.79487 0.75 0 2.05128 0.75 0 
2.30769 0.75 0 2.5641 0.75 0 2.82051 0.75 0 
3.07692 0.75 0 3.33333 0.75 0 3.58974 0.75 0 
3.84615 0.75 0 4.10256 0.75 0 4.35897 0.75 0 
4.61538 0.75 0 4.87179 0.75 0 5.12821 0.75 0 
5.38462 0.75 0 5.64103 0.75 0 5.89744 0.75 0 
6.15385 0.75 0 6.41026 0.75 0 6.66667 0.75 0 
6.92308 0.75 0 7.17949 0.75 0 7.4359 0.75 0 
7.69231 0.75 0 7.94872 0.75 0 8.20513 0.75 0 
8.46154 0.75 0 8.71795 0.75 0 8.97436 0.75 0 
9.23077 0.75 0 9.48718 0.75 0 9.74359 0.75 0 
10 0.75 0 0 1 0 0.25641 1 0 
0.512821 1 0 0.769231 1 0 1.02564 1 0 
1.28205 1 0 1.53846 1 0 1.79487 1 0 
2.05128 1 0 2.30769 1 0 2.5641 1 0 
2.82051 1 0 3.07692 1 0 3.33333 1 0 
3.58974 1 0 3.84615 1 0 4.10256 1 0 
4.35897 1 0 4.61538 1 0 4.87179 1 0 
5.12821 1 0 5.38462 1 0 5.64103 1 0 
5.89744 1 0 6.15385 1 0 6.41026 1 0 
6.66667 1 0 6.92308 1 0 7.17949 1 0 
7.4359 1 0 7.69231 1 0 7.94872 1 0 
8.20513 1 0 8.46154 1 0 8.71795 1 0 
8.97436 1 0 9.23077 1 0 9.48718 1 0 
9.74359 1 0 10 1 0 0 0 0.25 
0.25641 0 0.25 0.512821 0 0.25 0.769231 0 0.25 
1.02564 0 0.25 1.28205 0 0.25 1.53846 0 0.25 
1.79487 0 0.25 2.05128 0 0.25 2.30769 0 0.25 
2.5641 0 0.25 2.82051 0 0.25 3.07692 0 0.25 
3.33333 0 0.25 3.58974 0 0.25 3.84615 0 0.25 
4.10256 0 0.25 4.35897 0 0.25 4.61538 0 0.25 
4.87179 0 0.25 5.12821 0 0.25 5.38462 0 0.25 
5.64103 0 0.25 5.89744 0 0.25 6.15385 0 0.25 
6.41026 0 0.25 6.66667 0 0.25 6.92308 0 0.25 
7.17949 0 0.25 7.4359 0 0.25 7.69231 0 0.25 
7.94872 0 0.25 8.20513 0 0.25 8.46154 0 0.25 
8.71795 0 0.25 8.97436 0 0.25 9.23077 0 0.25 
9.48718 0 0.25 9.74359 0 0.25 10 0 0.25 
0 0.25 0.25 0.25641 0.25 0.25 0.512821 0.25 0.25 
0.769231 0.25 0.25 1.02564 0.25 0.25 1.28205 0.25 0.25 
1.53846 0.25 0.25 1.79487 0.25 0.25 2.05128 0.25 0.25 
2.30769 0.25 0.25 2.5641 0.25 0.25 2.82051 0.25 0.25 
3.07692 0.25 0.25 3.33333 0.25 0.25 3.58974 0.25 0.25 
3.84615 0.25 0.25 4.10256 0.25 0.25 4.35897 0.25 0.25 
4.61538 0.25 0.25 4.87179 0.25 0.25 5.12821 0.25 0.25 
5.38462 0.25 0.25 5.64103 0.25 0.25 5.89744 0.25 0.25 
6.15385 0.25 0.25 6.41026 0.25 0.25 6.66667 0.25 0.25 
6.92308 0.25 0.25 7.17949 0.25 0.25 7.4359 0.25 0.25 
7.69231 0.25 0.25 7.94872 0.25 0.25 8.20513 0.25 0.25 
8.46154 0.25 0.25 8.71795 0.25 0.25 8.97436 0.25 0.25 
9.23077 0.25 0.25 9.48718 0.25 0.25 9.74359 0.25 0.25 
10 0.25 0.25 0 0.5 0.25 0.25641 0.5 0.25 
0.512821 0.5 0.25 0.769231 0.5 0.25 1.02564 0.5 0.25 
1.28205 0.5 0.25 1.53846 0.5 0.25 1.79487 0.5 0.25 
2.05128 0.5 0.25 2.30769 0.5 0.25 2.5641 0.5 0.25 
2.82051 0.5 0.25 3.07692 0.5 0.25 3.33333 0.5 0.25 
3.58974 0.5 0.25 3.84615 0.5 0.25 4.10256 0.5 0.25 
4.35897 0.5 0.25 4.61538 0.5 0.25 4.87179 0.5 0.25 
5.12821 0.5 0.25 5.38462 0.5 0.25 5.64103 0.5 0.25 
5.89744 0.5 0.25 6.15385 0.5 0.25 6.41026 0.5 0.25 
6.66667 0.5 0.25 6.92308 0.5 0.25 7.17949 0.5 0.25 
7.4359 0.5 0.25 7.69231 0.5 0.25 7.94872 0.5 0.25 
8.20513 0.5 0.25 8.46154 0.5 0.25 8.71795 0.5 0.25 
8.97436 0.5 0.25 9.23077 0.5 0.25 9.48718 0.5 0.25 
9.74359 0.5 0.25 10 0.5 0.25 0 0.75 0.25 
0.25641 0.75 0.25 0.512821 0.75 0.25 0.769231 0.75 0.25 
1.02564 0.75 0.25 1.28205 0.75 0.25 1.53846 0.75 0.25 
1.79487 0.75 0.25 2.05128 0.75 0.25 2.30769 0.75 0.25 
2.5641 0.75 0.25 2.82051 0.75 0.25 3.07692 0.75 0.25 
3.33333 0.75 0.25 3.58974 0.75 0.25 3.84615 0.75 0.25 
4.10256 0.75 0.25 4.35897 0.75 0.25 4.61538 0.75 0.25 
4.87179 0.75 0.25 5.12821 0.75 0.25 5.38462 0.75 0.25 
5.64103 0.75 0.25 5.89744 0.75 0.25 6.15385 0.75 0.25 
6.41026 0.75 0.25 6.66667 0.75 0.25 6.92308 0.75 0.25 
7.17949 0.75 0.25 7.4359 0.75 0.25 7.69231 0.75 0.25 
7.94872 0.75 0.25 8.20513 0.75 0.25 8.46154 0.75 0.25 
8.71795 0.75 0.25 8.97436 0.75 0.25 9.23077 0.75 0.25 
9.48718 0.75 0.25 9.74359 0.75 0.25 10 0.75 0.25 
0 1 0.25 0.25641 1 0.25 0.512821 1 0.25 
0.769231 1 0.25 1.02564 1 0.25 1.28205 1 0.25 
1.53846 1 0.25 1.79487 1 0.25 2.05128 1 0.25 
2.30769 1 0.25 2.5641 1 0.25 2.82051 1 0.25 
3.07692 1 0.25 3.33333 1 0.25 3.58974 1 0.25 
3.84615 1 0.25 4.10256 1 0.25 4.35897 1 0.25 
4.61538 1 0.25 4.87179 1 0.25 5.12821 1 0.25 
5.38462 1 0.25 5.64103 1 0.25 5.89744 1 0.25 
6.15385 1 0.25 6.41026 1 0.25 6.66667 1 0.25 
6.92308 1 0.25 7.17949 1 0.25 7.4359 1 0.25 
7.69231 1 0.25 7.94872 1 0.25 8.20513 1 0.25 
8.46154 1 0.25 8.71795 1 0.25 8.97436 1 0.25 
9.23077 1 0.25 9.48718 1 0.25 9.74359 1 0.25 
10 1 0.25 0 0 0.5 0.25641 0 0.5 
0.512821 0 0.5 0.769231 0 0.5 1.02564 0 0.5 
1.28205 0 0.5 1.53846 0 0.5 1.79487 0 0.5 
2.05128 0 0.5 2.30769 0 0.5 2.5641 0 0.5 
2.82051 0 0.5 3.07692 0 0.5 3.33333 0 0.5 
3.58974 0 0.5 3.84615 0 0.5 4.10256 0 0.5 
4.35897 0 0.5 4.61538 0 0.5 4.87179 0 0.5 
5.12821 0 0.5 5.38462 0 0.5 5.64103 0 0.5 
5.89744 0 0.5 6.15385 0 0.5 6.41026 0 0.5 
6.66667 0 0.5 6.92308 0 0.5 7.17949 0 0.5 
7.4359 0 0.5 7.69231 0 0.5 7.94872 0 0.5 
8.20513 0 0.5 8.46154 0 0.5 8.71795 0 0.5 
8.97436 0 0.5 9.23077 0 0.5 9.48718 0 0.5 
9.74359 0 0.5 10 0 0.5 0 0.25 0.5 
0.25641 0.25 0.5 0.512821 0.25 0.5 0.769231 0.25 0.5 
1.02564 0.25 0.5 1.28205 0.25 0.5 1.53846 0.25 0.5 
1.79487 0.25 0.5 2.05128 0.25 0.5 2.30769 0.25 0.5 
2.5641 0.25 0.5 2.82051 0.25 0.5 3.07692 0.25 0.5 
3.33333 0.25 0.5 3.58974 0.25 0.5 3.84615 0.25 0.5 
4.10256 0.25 0.5 4.35897 0.25 0.5 4.61538 0.25 0.5 
4.87179 0.25 0.5 5.12821 0.25 0.5 5.38462 0.25 0.5 
5.64103 0.25 0.5 5.89744 0.25 0.5 6.15385 0.25 0.5 
6.41026 0.25 0.5 6.66667 0.25 0.5 6.92308 0.25 0.5 
7.17949 0.25 0.5 7.4359 0.25 0.5 7.69231 0.25 0.5 
7.94872 0.25 0.5 8.20513 0.25 0.5 8.46154 0.25 0.5 
8.71795 0.25 0.5 8.97436 0.25 0.5 9.23077 0.25 0.5 
9.48718 0.25 0.5 9.74359 0.25 0.5 10 0.25 0.5 
0 0.5 0.5 0.25641 0.5 0.5 0.512821 0.5 0.5 
0.769231 0.5 0.5 1.02564 0.5 0.5 1.28205 0.5 0.5 
1.53846 0.5 0.5 1.79487 0.5 0.5 2.05128 0.5 0.5 
2.30769 0.5 0.5 2.5641 0.5 0.5 2.82051 0.5 0.5 
3.07692 0.5 0.5 3.33333 0.5 0.5 3.58974 0.5 0.5 
3.84615 0.5 0.5 4.10256 0.5 0.5 4.35897 0.5 0.5 
4.61538 0.5 0.5 4.87179 0.5 0.5 5.12821 0.5 0.5 
5.38462 0.5 0.5 5.64103 0.5 0.5 5.89744 0.5 0.5 
6.15385 0.5 0.5 6.41026 0.5 0.5 6.66667 0.5 0.5 
6.92308 0.5 0.5 7.17949 0.5 0.5 7.4359 0.5 0.5 
7.69231 0.5 0.5 7.94872 0.5 0.5 8.20513 0.5 0.5 
8.46154 0.5 0.5 8.71795 0.5 0.5 8.97436 0.5 0.5 
9.23077 0.5 0.5 9.48718 0.5 0.5 9.74359 0.5 0.5 
10 0.5 0.5 0 0.75 0.5 0.25641 0.75 0.5 
0.512821 0.75 0.5 0.769231 0.75 0.5 1.02564 0.75 0.5 
1.28205 0.75 0.5 1.53846 0.75 0.5 1.79487 0.75 0.5 
2.05128 0.75 0.5 2.30769 0.75 0.5 2.5641 0.75 0.5 
2.82051 0.75 0.5 3.07692 0.75 0.5 3.33333 0.75 0.5 
3.58974 0.75 0.5 3.84615 0.75 0.5 4.10256 0.75 0.5 
4.35897 0.75 0.5 4.61538 0.75 0.5 4.87179 0.75 0.5 
5.12821 0.75 0.5 5.38462 0.75 0.5 5.64103 0.75 0.5 
5.89744 0.75 0.5 6.15385 0.75 0.5 6.41026 0.75 0.5 
6.66667 0.75 0.5 6.92308 0.75 0.5 7.17949 0.75 0.5 
7.4359 0.75 0.5 7.69231 0.75 0.5 7.94872 0.75 0.5 
8.20513 0.75 0.5 8.46154 0.75 0.5 8.71795 0.75 0.5 
8.97436 0.75 0.5 9.23077 0.75 0.5 9.48718 0.75 0.5 
9.74359 0.75 0.5 10 0.75 0.5 0 1 0.5 
0.25641 1 0.5 0.512821 1 0.5 0.769231 1 0.5 
1.02564 1 0.5 1.28205 1 0.5 1.53846 1 0.5 
1.79487 1 0.5 2.05128 1 0.5 2.30769 1 0.5 
2.5641 1 0.5 2.82051 1 0.5 3.07692 1 0.5 
3.33333 1 0.5 3.58974 1 0.5 3.84615 1 0.5 
4.10256 1 0.5 4.35897 1 0.5 4.61538 1 0.5 
4.87179 1 0.5 5.12821 1 0.5 5.38462 1 0.5 
5.64103 1 0.5 5.89744 1 0.5 6.15385 1 0.5 
6.41026 1 0.5 6.66667 1 0.5 6.92308 1 0.5 
7.17949 1 0.5 7.4359 1 0.5 7.69231 1 0.5 
7.94872 1 0.5 8.20513 1 0.5 8.46154 1 0.5 
8.71795 1 0.5 8.97436 1 0.5 9.23077 1 0.5 
9.48718 1 0.5 9.74359 1 0.5 10 1 0.5 
0 0 0.75 0.25641 0 0.75 0.512821 0 0.75 
0.769231 0 0.75 1.02564 0 0.75 1.28205 0 0.75 
1.53846 0 0.75 1.79487 0 0.75 2.05128 0 0.75 
2.30769 0 0.75 2.5641 0 0.75 2.82051 0 0.75 
3.07692 0 0.75 3.33333 0 0.75 3.58974 0 0.75 
3.84615 0 0.75 4.10256 0 0.75 4.35897 0 0.75 
4.61538 0 0.75 4.87179 0 0.75 5.12821 0 0.75 
5.38462 0 0.75 5.64103 0 0.75 5.89744 0 0.75 
6.15385 0 0.75 6.41026 0 0.75 6.66667 0 0.75 
6.92308 0 0.75 7.17949 0 0.75 7.4359 0 0.75 
7.69231 0 0.75 7.94872 0 0.75 8.20513 0 0.75 
8.46154 0 0.75 8.71795 0 0.75 8.97436 0 0.75 
9.23077 0 0.75 9.48718 0 0.75 9.74359 0 0.75 
10 0 0.75 0 0.25 0.75 0.25641 0.25 0.75 
0.512821 0.25 0.75 0.769231 0.25 0.75 1.02564 0.25 0.75 
1.28205 0.25 0.75 1.53846 0.25 0.75 1.79487 0.25 0.75 
2.05128 0.25 0.75 2.30769 0.25 0.75 2.5641 0.25 0.75 
2.82051 0.25 0.75 3.07692 0.25 0.75 3.33333 0.25 0.75 
3.58974 0.25 0.75 3.84615 0.25 0.75 4.10256 0.25 0.75 
4.35897 0.25 0.75 4.61538 0.25 0.75 4.87179 0.25 0.75 
5.12821 0.25 0.75 5.38462 0.25 0.75 5.64103 0.25 0.75 
5.89744 0.25 0.75 6.15385 0.25 0.75 6.41026 0.25 0.75 
6.66667 0.25 0.75 6.92308 0.25 0.75 7.17949 0.25 0.75 
7.4359 0.25 0.75 7.69231 0.25 0.75 7.94872 0.25 0.75 
8.20513 0.25 0.75 8.46154 0.25 0.75 8.71795 0.25 0.75 
8.97436 0.25 0.75 9.23077 0.25 0.75 9.48718 0.25 0.75 
9.74359 0.25 0.75 10 0.25 0.75 0 0.5 0.75 
0.25641 0.5 0.75 0.512821 0.5 0.75 0.769231 0.5 0.75 
1.02564 0.5 0.75 1.28205 0.5 0.75 1.53846 0.5 0.75 
1.79487 0.5 0.75 2.05128 0.5 0.75 2.30769 0.5 0.75 
2.5641 0.5 0.75 2.82051 0.5 0.75 3.07692 0.5 0.75 
3.33333 0.5 0.75 3.58974 0.5 0.75 3.84615 0.5 0.75 
4.10256 0.5 0.75 4.35897 0.5 0.75 4.61538 0.5 0.75 
4.87179 0.5 0.75 5.12821 0.5 0.75 5.38462 0.5 0.75 
5.64103 0.5 0.75 5.89744 0.5 0.75 6.15385 0.5 0.75 
6.41026 0.5 0.75 6.66667 0.5 0.75 6.92308 0.5 0.75 
7.17949 0.5 0.75 7.4359 0.5 0.75 7.69231 0.5 0.75 
7.94872 0.5 0.75 8.20513 0.5 0.75 8.46154 0.5 0.75 
8.71795 0.5 0.75 8.97436 0.5 0.75 9.23077 0.5 0.75 
9.48718 0.5 0.75 9.74359 0.5 0.75 10 0.5 0.75 
0 0.75 0.75 0.25641 0.75 0.75 0.512821 0.75 0.75 
0.769231 0.75 0.75 1.02564 0.75 0.75 1.28205 0.75 0.75 
1.53846 0.75 0.75 1.79487 0.75 0.75 2.05128 0.75 0.75 
2.30769 0.75 0.75 2.5641 0.75 0.75 2.82051 0.75 0.75 
3.07692 0.75 0.75 3.33333 0.75 0.75 3.58974 0.75 0.75 
3.84615 0.75 0.75 4.10256 0.75 0.75 4.35897 0.75 0.75 
4.61538 0.75 0.75 4.87179 0.75 0.75 5.12821 0.75 0.75 
5.38462 0.75 0.75 5.64103 0.75 0.75 5.89744 0.75 0.75 
6.15385 0.75 0.75 6.41026 0.75 0.75 6.66667 0.75 0.75 
6.92308 0.75 0.75 7.17949 0.75 0.75 7.4359 0.75 0.75 
7.69231 0.75 0.75 7.94872 0.75 0.75 8.20513 0.75 0.75 
8.46154 0.75 0.75 8.71795 0.75 0.75 8.97436 0.75 0.75 
9.23077 0.75 0.75 9.48718 0.75 0.75 9.74359 0.75 0.75 
10 0.75 0.75 0 1 0.75 0.25641 1 0.75 
0.512821 1 0.75 0.769231 1 0.75 1.02564 1 0.75 
1.28205 1 0.75 1.53846 1 0.75 1.79487 1 0.75 
2.05128 1 0.75 2.30769 1 0.75 2.5641 1 0.75 
2.82051 1 0.75 3.07692 1 0.75 3.33333 1 0.75 
3.58974 1 0.75 3.84615 1 0.75 4.10256 1 0.75 
4.35897 1 0.75 4.61538 1 0.75 4.87179 1 0.75 
5.12821 1 0.75 5.38462 1 0.75 5.64103 1 0.75 
5.89744 1 0.75 6.15385 1 0.75 6.41026 1 0.75 
6.66667 1 0.75 6.92308 1 0.75 7.17949 1 0.75 
7.4359 1 0.75 7.69231 1 0.75 7.94872 1 0.75 
8.20513 1 0.75 8.46154 1 0.75 8.71795 1 0.75 
8.97436 1 0.75 9.23077 1 0.75 9.48718 1 0.75 
9.74359 1 0.75 10 1 0.75 0 0 1 
0.25641 0 1 0.512821 0 1 0.769231 0 1 
1.02564 0 1 1.28205 0 1 1.53846 0 1 
1.79487 0 1 2.05128 0 1 2.30769 0 1 
2.5641 0 1 2.82051 0 1 3.07692 0 1 
3.33333 0 1 3.58974 0 1 3.84615 0 1 
4.10256 0 1 4.35897 0 1 4.61538 0 1 
4.87179 0 1 5.12821 0 1 5.38462 0 1 
5.64103 0 1 5.89744 0 1 6.15385 0 1 
6.41026 0 1 6.66667 0 1 6.92308 0 1 
7.17949 0 1 7.4359 0 1 7.69231 0 1 
7.94872 0 1 8.20513 0 1 8.46154 0 1 
8.71795 0 1 8.97436 0 1 9.23077 0 1 
9.48718 0 1 9.74359 0 1 10 0 1 
0 0.25 1 0.25641 0.25 1 0.512821 0.25 1 
0.769231 0.25 1 1.02564 0.25 1 1.28205 0.25 1 
1.53846 0.25 1 1.79487 0.25 1 2.05128 0.25 1 
2.30769 0.25 1 2.5641 0.25 1 2.82051 0.25 1 
3.07692 0.25 1 3.33333 0.25 1 3.58974 0.25 1 
3.84615 0.25 1 4.10256 0.25 1 4.35897 0.25 1 
4.61538 0.25 1 4.87179 0.25 1 5.12821 0.25 1 
5.38462 0.25 1 5.64103 0.25 1 5.89744 0.25 1 
6.15385 0.25 1 6.41026 0.25 1 6.66667 0.25 1 
6.92308 0.25 1 7.17949 0.25 1 7.4359 0.25 1 
7.69231 0.25 1 7.94872 0.25 1 8.20513 0.25 1 
8.46154 0.25 1 8.71795 0.25 1 8.97436 0.25 1 
9.23077 0.25 1 9.48718 0.25 1 9.74359 0.25 1 
10 0.25 1 0 0.5 1 0.25641 0.5 1 
0.512821 0.5 1 0.769231 0.5 1 1.02564 0.5 1 
1.28205 0.5 1 1.53846 0.5 1 1.79487 0.5 1 
2.05128 0.5 1 2.30769 0.5 1 2.5641 0.5 1 
2.82051 0.5 1 3.07692 0.5 1 3.33333 0.5 1 
3.58974 0.5 1 3.84615 0.5 1 4.10256 0.5 1 
4.35897 0.5 1 4.61538 0.5 1 4.87179 0.5 1 
5.12821 0.5 1 5.38462 0.5 1 5.64103 0.5 1 
5.89744 0.5 1 6.15385 0.5 1 6.41026 0.5 1 
6.66667 0.5 1 6.92308 0.5 1 7.17949 0.5 1 
7.4359 0.5 1 7.69231 0.5 1 7.94872 0.5 1 
8.20513 0.5 1 8.46154 0.5 1 8.71795 0.5 1 
8.97436 0.5 1 9.23077 0.5 1 9.48718 0.5 1 
9.74359 0.5 1 10 0.5 1 0 0.75 1 
0.25641 0.75 1 0.512821 0.75 1 0.769231 0.75 1 
1.02564 0.75 1 1.28205 0.75 1 1.53846 0.75 1 
1.79487 0.75 1 2.05128 0.75 1 2.30769 0.75 1 
2.5641 0.75 1 2.82051 0.75 1 3.07692 0.75 1 
3.33333 0.75 1 3.58974 0.75 1 3.84615 0.75 1 
4.10256 0.75 1 4.35897 0.75 1 4.61538 0.75 1 
4.87179 0.75 1 5.12821 0.75 1 5.38462 0.75 1 
5.64103 0.75 1 5.89744 0.75 1 6.15385 0.75 1 
6.41026 0.75 1 6.66667 0.75 1 6.92308 0.75 1 
7.17949 0.75 1 7.4359 0.75 1 7.69231 0.75 1 
7.94872 0.75 1 8.20513 0.75 1 8.46154 0.75 1 
8.71795 0.75 1 8.97436 0.75 1 9.23077 0.75 1 
9.48718 0.75 1 9.74359 0.75 1 10 0.75 1 
0 1 1 0.25641 1 1 0.512821 1 1 
0.769231 1 1 1.02564 1 1 1.28205 1 1 
1.53846 1 1 1.79487 1 1 2.05128 1 1 
2.30769 1 1 2.5641 1 1 2.82051 1 1 
3.07692 1 1 3.33333 1 1 3.58974 1 1 
3.84615 1 1 4.10256 1 1 4.35897 1 1 
4.61538 1 1 4.87179 1 1 5.12821 1 1 
5.38462 1 1 5.64103 1 1 5.89744 1 1 
6.15385 1 1 6.41026 1 1 6.66667 1 1 
6.92308 1 1 7.17949 1 1 7.4359 1 1 
7.69231 1 1 7.94872 1 1 8.20513 1 1 
8.46154 1 1 8.71795 1 1 8.97436 1 1 
9.23077 1 1 9.48718 1 1 9.74359 1 1 
10 1 1 
POLYGONS 656 3280
4 0 40 41 1 
4 800 840 841 801 
4 1 41 42 2 
4 801 841 842 802 
4 2 42 43 3 
4 802 842 843 803 
4 3 43 44 4 
4 803 843 844 804 
4 4 44 45 5 
4 804 844 845 805 
4 5 45 46 6 
4 805 845 846 806 
4 6 46 47 7 
4 806 846 847 807 
4 7 47 48 8 
4 807 847 848 808 
4 8 48 49 9 
4 808 848 849 809 
4 9 49 50 10 
4 809 849 850 810 
4 10 50 51 11 
4 810 850 851 811 
4 11 51 52 12 
4 811 851 852 812 
4 12 52 53 13 
4 812 852 853 813 
4 13 53 54 14 
4 813 853 854 814 
4 14 54 55 15 
4 814 854 855 815 
4 15 55 56 16 
4 815 855 856 816 
4 16 56 57 17 
4 816 856 857 817 
4 17 57 58 18 
4 817 857 858 818 
4 18 58 59 19 
4 818 858 859 819 
4 19 59 60 20 
4 819 859 860 820 
4 20 60 61 21 
4 820 860 861 821 
4 21 61 62 22 
4 821 861 862 822 
4 22 62 63 23 
4 822 862 863 823 
4 23 63 64 24 
4 823 863 864 824 
4 24 64 65 25 
4 824 864 865 825 
4 25 65 66 26 
4 825 865 866 826 
4 26 66 67 27 
4 826 866 867 827 
4 27 67 68 28 
4 827 867 868 828 
4 28 68 69 29 
4 828 868 869 829 
4 29 69 70 30 
4 829 869 870 830 
4 30 70 71 31 
4 830 870 871 831 
4 31 71 72 32 
4 831 871 872 832 
4 32 72 73 33 
4 832 872 873 833 
4 33 73 74 34 
4 833 873 874 834 
4 34 74 75 35 
4 834 874 875 835 
4 35 75 76 36 
4 835 875 876 836 
4 36 76 77 37 
4 836 876 877 837 
4 37 77 78 38 
4 837 877 878 838 
4 38 78 79 39 
4 838 878 879 839 
4 40 80 81 41 
4 840 880 881 841 
4 41 81 82 42 
4 841 881 882 842 
4 42 82 83 43 
4 842 882 883 843 
4 43 83 84 44 
4 843 883 884 844 
4 44 84 85 45 
4 844 884 885 845 
4 45 85 86 46 
4 845 885 886 846 
4 46 86 87 47 
4 846 886 887 847 
4 47 87 88 48 
4 847 887 888 848 
4 48 88 89 49 
4 848 888 889 849 
4 49 89 90 50 
4 849 889 890 850 
4 50 90 91 51 
4 850 890 891 851 
4 51 91 92 52 
4 851 891 892 852 
4 52 92 93 53 
4 852 892 893 853 
4 53 93 94 54 
4 853 893 894 854 
4 54 94 95 55 
4 854 894 895 855 
4 55 95 96 56 
4 855 895 896 856 
4 56 96 97 57 
4 856 896 897 857 
4 57 97 98 58 
4 857 897 898 858 
4 58 98 99 59 
4 858 898 899 859 
4 59 99 100 60 
4 859 899 900 860 
4 60 100 101 61 
4 860 900 901 861 
4 61 101 102 62 
4 861 901 902 862 
4 62 102 103 63 
4 862 902 903 863 
4 63 103 104 64 
4 863 903 904 864 
4 64 104 105 65 
4 864 904 905 865 
4 65 105 106 66 
4 865 905 906 866 
4 66 106 107 67 
4 866 906 907 867 
4 67 107 108 68 
4 867 907 908 868 
4 68 108 109 69 
4 868 908 909 869 
4 69 109 110 70 
4 869 909 910 870 
4 70 110 111 71 
4 870 910 911 871 
4 71 111 112 72 
4 871 911 912 872 
4 72 112 113 73 
4 872 912 913 873 
4 73 113 114 74 
4 873 913 914 874 
4 74 114 115 75 
4 874 914 915 875 
4 75 115 116 76 
4 875 915 916 876 
4 76 116 117 77 
4 876 916 917 877 
4 77 117 118 78 
4 877 917 918 878 
4 78 118 119 79 
4 878 918 919 879 
4 80 120 121 81 
4 880 920 921 881 
4 81 121 122 82 
4 881 921 922 882 
4 82 122 123 83 
4 882 922 923 883 
4 83 123 124 84 
4 883 923 924 884 
4 84 124 125 85 
4 884 924 925 885 
4 85 125 126 86 
4 885 925 926 886 
4 86 126 127 87 
4 886 926 927 887 
4 87 127 128 88 
4 887 927 928 888 
4 88 128 129 89 
4 888 928 929 889 
4 89 129 130 90 
4 889 929 930 890 
4 90 130 131 91 
4 890 930 931 891 
4 91 131 132 92 
4 891 931 932 892 
4 92 132 133 93 
4 892 932 933 893 
4 93 133 134 94 
4 893 933 934 894 
4 94 134 135 95 
4 894 934 935 895 
4 95 135 136 96 
4 895 935 936 896 
4 96 136 137 97 
4 896 936 937 897 
4 97 137 138 98 
4 897 937 938 898 
4 98 138 139 99 
4 898 938 939 899 
4 99 139 140 100 
4 899 939 940 900 
4 100 140 141 101 
4 900 940 941 901 
4 101 141 142 102 
4 901 941 942 902 
4 102 142 143 103 
4 902 942 943 903 
4 103 143 144 104 
4 903 943 944 904 
4 104 144 145 105 
4 904 944 945 905 
4 105 145 146 106 
4 905 945 946 906 
4 106 146 147 107 
4 906 946 947 907 
4 107 147 148 108 
4 907 947 948 908 
4 108 148 149 109 
4 908 948 949 909 
4 109 149 150 110 
4 909 949 950 910 
4 110 150 151 111 
4 910 950 951 911 
4 111 151 152 112 
4 911 951 952 912 
4 112 152 153 113 
4 912 952 953 913 
4 113 153 154 114 
4 913 953 954 914 
4 114 154 155 115 
4 914 954 955 915 
4 115 155 156 116 
4 915 955 956 916 
4 116 156 157 117 
4 916 956 957 917 
4 117 157 158 118 
4 917 957 958 918 
4 118 158 159 119 
4 918 958 959 919 
4 120 160 161 121 
4 920 960 961 921 
4 121 161 162 122 
4 921 961 962 922 
4 122 162 163 123 
4 922 962 963 923 
4 123 163 164 124 
4 923 963 964 924 
4 124 164 165 125 
4 924 964 965 925 
4 125 165 166 126 
4 925 965 966 926 
4 126 166 167 127 
4 926 966 967 927 
4 127 167 168 128 
4 927 967 968 928 
4 128 168 169 129 
4 928 968 969 929 
4 129 169 170 130 
4 929 969 970 930 
4 130 170 171 131 
4 930 970 971 931 
4 131 171 172 132 
4 931 971 972 932 
4 132 172 173 133 
4 932 972 973 933 
4 133 173 174 134 
4 933 973 974 934 
4 134 174 175 135 
4 934 974 975 935 
4 135 175 176 136 
4 935 975 976 936 
4 136 176 177 137 
4 936 976 977 937 
4 137 177 178 138 
4 937 977 978 938 
4 138 178 179 139 
4 938 978 979 939 
4 139 179 180 140 
4 939 979 980 940 
4 140 180 181 141 
4 940 980 981 941 
4 141 181 182 142 
4 941 981 982 942 
4 142 182 183 143 
4 942 982 983 943 
4 143 183 184 144 
4 943 983 984 944 
4 144 184 185 145 
4 944 984 985 945 
4 145 185 186 146 
4 945 985 986 946 
4 146 186 187 147 
4 946 986 987 947 
4 147 187 188 148 
4 947 987 988 948 
4 148 188 189 149 
4 948 988 989 949 
4 149 189 190 150 
4 949 989 990 950 
4 150 190 191 151 
4 950 990 991 951 
4 151 191 192 152 
4 951 991 992 952 
4 152 192 193 153 
4 952 992 993 953 
4 153 193 194 154 
4 953 993 994 954 
4 154 194 195 155 
4 954 994 995 955 
4 155 195 196 156 
4 955 995 996 956 
4 156 196 197 157 
4 956 996 997 957 
4 157 197 198 158 
4 957 997 998 958 
4 158 198 199 159 
4 958 998 999 959 
4 0 200 240 40 
4 39 239 279 79 
4 40 240 280 80 
4 79 279 319 119 
4 80 280 320 120 
4 119 319 359 159 
4 120 320 360 160 
4 159 359 399 199 
4 200 400 440 240 
4 239 439 479 279 
4 240 440 480 280 
4 279 479 519 319 
4 280 480 520 320 
4 319 519 559 359 
4 320 520 560 360 
4 359 559 599 399 
4 400 600 640 440 
4 439 639 679 479 
4 440 640 680 480 
4 479 679 719 519 
4 480 680 720 520 
4 519 719 759 559 
4 520 720 760 560 
4 559 759 799 599 
4 600 800 840 640 
4 639 839 879 679 
4 640 840 880 680 
4 679 879 919 719 
4 680 880 920 720 
4 719 919 959 759 
4 720 920 960 760 
4 759 959 999 799 
4 0 200 201 1 
4 160 360 361 161 
4 1 201 202 2 
4 161 361 362 162 
4 2 202 203 3 
4 162 362 363 163 
4 3 203 204 4 
4 163 363 364 164 
4 4 204 205 5 
4 164 364 365 165 
4 5 205 206 6 
4 165 365 366 166 
4 6 206 207 7 
4 166 366 367 167 
4 7 207 208 8 
4 167 367 368 168 
4 8 208 209 9 
4 168 368 369 169 
4 9 209 210 10 
4 169 369 370 170 
4 10 210 211 11 
4 170 370 371 171 
4 11 211 212 12 
4 171 371 372 172 
4 12 212 213 13 
4 172 372 373 173 
4 13 213 214 14 
4 173 373 374 174 
4 14 214 215 15 
4 174 374 375 175 
4 15 215 216 16 
4 175 375 376 176 
4 16 216 217 17 
4 176 376 377 177 
4 17 217 218 18 
4 177 377 378 178 
4 18 218 219 19 
4 178 378 379 179 
4 19 219 220 20 
4 179 379 380 180 
4 20 220 221 21 
4 180 380 381 181 
4 21 221 222 22 
4 181 381 382 182 
4 22 222 223 23 
4 182 382 383 183 
4 23 223 224 24 
4 183 383 384 184 
4 24 224 225 25 
4 184 384 385 185 
4 25 225 226 26 
4 185 385 386 186 
4 26 226 227 27 
4 186 386 387 187 
4 27 227 228 28 
4 187 387 388 188 
4 28 228 229 29 
4 188 388 389 189 
4 29 229 230 30 
4 189 389 390 190 
4 30 230 231 31 
4 190 390 391 191 
4 31 231 232 32 
4 191 391 392 192 
4 32 232 233 33 
4 192 392 393 193 
4 33 233 234 34 
4 193 393 394 194 
4 34 234 235 35 
4 194 394 395 195 
4 35 235 236 36 
4 195 395 396 196 
4 36 236 237 37 
4 196 396 397 197 
4 37 237 238 38 
4 197 397 398 198 
4 38 238 239 39 
4 198 398 399 199 
4 200 400 401 201 
4 360 560 561 361 
4 201 401 402 202 
4 361 561 562 362 
4 202 402 403 203 
4 362 562 563 363 
4 203 403 404 204 
4 363 563 564 364 
4 204 404 405 205 
4 364 564 565 365 
4 205 405 406 206 
4 365 565 566 366 
4 206 406 407 207 
4 366 566 567 367 
4 207 407 408 208 
4 367 567 568 368 
4 208 408 409 209 
4 368 568 569 369 
4 209 409 410 210 
4 369 569 570 370 
4 210 410 411 211 
4 370 570 571 371 
4 211 411 412 212 
4 371 571 572 372 
4 212 412 413 213 
4 372 572 573 373 
4 213 413 414 214 
4 373 573 574 374 
4 214 414 415 215 
4 374 574 575 375 
4 215 415 416 216 
4 375 575 576 376 
4 216 416 417 217 
4 376 576 577 377 
4 217 417 418 218 
4 377 577 578 378 
4 218 418 419 219 
4 378 578 579 379 
4 219 419 420 220 
4 379 579 580 380 
4 220 420 421 221 
4 380 580 581 381 
4 221 421 422 222 
4 381 581 582 382 
4 222 422 423 223 
4 382 582 583 383 
4 223 423 424 224 
4 383 583 584 384 
4 224 424 425 225 
4 384 584 585 385 
4 225 425 426 226 
4 385 585 586 386 
4 226 426 427 227 
4 386 586 587 387 
4 227 427 428 228 
4 387 587 588 388 
4 228 428 429 229 
4 388 588 589 389 
4 229 429 430 230 
4 389 589 590 390 
4 230 430 431 231 
4 390 590 591 391 
4 231 431 432 232 
4 391 591 592 392 
4 232 432 433 233 
4 392 592 593 393 
4 233 433 434 234 
4 393 593 594 394 
4 234 434 435 235 
4 394 594 595 395 
4 235 435 436 236 
4 395 595 596 396 
4 236 436 437 237 
4 396 596 597 397 
4 237 437 438 238 
4 397 597 598 398 
4 238 438 439 239 
4 398 598 599 399 
4 400 600 601 401 
4 560 760 761 561 
4 401 601 602 402 
4 561 761 762 562 
4 402 602 603 403 
4 562 762 763 563 
4 403 603 604 404 
4 563 763 764 564 
4 404 604 605 405 
4 564 764 765 565 
4 405 605 606 406 
4 565 765 766 566 
4 406 606 607 407 
4 566 766 767 567 
4 407 607 608 408 
4 567 767 768 568 
4 408 608 609 409 
4 568 768 769 569 
4 409 609 610 410 
4 569 769 770 570 
4 410 610 611 411 
4 570 770 771 571 
4 411 611 612 412 
4 571 771 772 572 
4 412 612 613 413 
4 572 772 773 573 
4 413 613 614 414 
4 573 773 774 574 
4 414 614 615 415 
4 574 774 775 575 
4 415 615 616 416 
4 575 775 776 576 
4 416 616 617 417 
4 576 776 777 577 
4 417 617 618 418 
4 577 777 778 578 
4 418 618 619 419 
4 578 778 779 579 
4 419 619 620 420 
4 579 779 780 580 
4 420 620 621 421 
4 580 780 781 581 
4 421 621 622 422 
4 581 781 782 582 
4 422 622 623 423 
4 582 782 783 583 
4 423 623 624 424 
4 583 783 784 584 
4 424 624 625 425 
4 584 784 785 585 
4 425 625 626 426 
4 585 785 786 586 
4 426 626 627 427 
4 586 786 787 587 
4 427 627 628 428 
4 587 787 788 588 
4 428 628 629 429 
4 588 788 789 589 
4 429 629 630 430 
4 589 789 790 590 
4 430 630 631 431 
4 590 790 791 591 
4 431 631 632 432 
4 591 791 792 592 
4 432 632 633 433 
4 592 792 793 593 
4 433 633 634 434 
4 593 793 794 594 
4 434 634 635 435 
4 594 794 795 595 
4 435 635 636 436 
4 595 795 796 596 
4 436 636 637 437 
4 596 796 797 597 
4 437 637 638 438 
4 597 797 798 598 
4 438 638 639 439 
4 598 798 799 599 
4 600 800 801 601 
4 760 960 961 761 
4 601 801 802 602 
4 761 961 962 762 
4 602 802 803 603 
4 762 962 963 763 
4 603 803 804 604 
4 763 963 964 764 
4 604 804 805 605 
4 764 964 965 765 
4 605 805 806 606 
4 765 965 966 766 
4 606 806 807 607 
4 766 966 967 767 
4 607 807 808 608 
4 767 967 968 768 
4 608 808 809 609 
4 768 968 969 769 
4 609 809 810 610 
4 769 969 970 770 
4 610 810 811 611 
4 770 970 971 771 
4 611 811 812 612 
4 771 971 972 772 
4 612 812 813 613 
4 772 972 973 773 
4 613 813 814 614 
4 773 973 974 774 
4 614 814 815 615 
4 774 974 975 775 
4 615 815 816 616 
4 775 975 976 776 
4 616 816 817 617 
4 776 976 977 777 
4 617 817 818 618 
4 777 977 978 778 
4 618 818 819 619 
4 778 978 979 779 
4 619 819 820 620 
4 779 979 980 780 
4 620 820 821 621 
4 780 980 981 781 
4 621 821 822 622 
4 781 981 982 782 
4 622 822 823 623 
4 782 982 983 783 
4 623 823 824 624 
4 783 983 984 784 
4 624 824 825 625 
4 784 984 985 785 
4 625 825 826 626 
4 785 985 986 786 
4 626 826 827 627 
4 786 986 987 787 
4 627 827 828 628 
4 787 987 988 788 
4 628 828 829 629 
4 788 988 989 789 
4 629 829 830 630 
4 789 989 990 790 
4 630 830 831 631 
4 790 990 991 791 
4 631 831 832 632 
4 791 991 992 792 
4 632 832 833 633 
4 792 992 993 793 
4 633 833 834 634 
4 793 993 994 794 
4 634 834 835 635 
4 794 994 995 795 
4 635 835 836 636 
4 795 995 996 796 
4 636 836 837 637 
4 796 996 997 797 
4 637 837 838 638 
4 797 997 998 798 
4 638 838 839 639 
4 798 998 999 799 

CELL_DATA 656
SCALARS cell_mark int
LOOKUP_TABLE default
1 2 1 2 1 2 1 2 1 
2 1 2 1 2 1 2 1 2 
1 2 1 2 1 2 1 2 1 
2 1 2 1 2 1 2 1 2 
1 2 1 2 1 2 1 2 1 
2 1 2 1 2 1 2 1 2 
1 2 1 2 1 2 1 2 1 
2 1 2 1 2 1 2 1 2 
1 2 1 2 1 2 1 2 1 
2 1 2 1 2 1 2 1 2 
1 2 1 2 1 2 1 2 1 
2 1 2 1 2 1 2 1 2 
1 2 1 2 1 2 1 2 1 
2 1 2 1 2 1 2 1 2 
1 2 1 2 1 2 1 2 1 
2 1 2 1 2 1 2 1 2 
1 2 1 2 1 2 1 2 1 
2 1 2 1 2 1 2 1 2 
1 2 1 2 1 2 1 2 1 
2 1 2 1 2 1 2 1 2 
1 2 1 2 1 2 1 2 1 
2 1 2 1 2 1 2 1 2 
1 2 1 2 1 2 1 2 1 
2 1 2 1 2 1 2 1 2 
1 2 1 2 1 2 1 2 1 
2 1 2 1 2 1 2 1 2 
1 2 1 2 1 2 1 2 1 
2 1 2 1 2 1 2 1 2 
1 2 1 2 1 2 1 2 1 
2 1 2 1 2 1 2 1 2 
1 2 1 2 1 2 1 2 1 
2 1 2 1 2 1 2 1 2 
1 2 1 2 1 2 1 2 1 
2 1 2 1 2 1 2 1 2 
1 2 1 2 1 2 6 4 6 
4 6 4 6 4 6 4 6 4 
6 4 6 4 6 4 6 4 6 
4 6 4 6 4 6 4 6 4 
6 4 3 5 3 5 3 5 3 
5 3 5 3 5 3 5 3 5 
3 5 3 5 3 5 3 5 3 
5 3 5 3 5 3 5 3 5 
3 5 3 5 3 5 3 5 3 
5 3 5 3 5 3 5 3 5 
3 5 3 5 3 5 3 5 3 
5 3 5 3 5 3 5 3 5 
3 5 3 5 3 5 3 5 3 
5 3 5 3 5 3 5 3 5 
3 5 3 5 3 5 3 5 3 
5 3 5 3 5 3 5 3 5 
3 5 3 5 3 5 3 5 3 
5 3 5 3 5 3 5 3 5 
3 5 3 5 3 5 3 5 3 
5 3 5 3 5 3 5 3 5 
3 5 3 5 3 5 3 5 3 
5 3 5 3 5 3 5 3 5 
3 5 3 5 3 5 3 5 3 
5 3 5 3 5 3 5 3 5 
3 5 3 5 3 5 3 5 3 
5 3 5 3 5 3 5 3 5 
3 5 3 5 3 5 3 5 3 
5 3 5 3 5 3 5 3 5 
3 5 3 5 3 5 3 5 3 
5 3 5 3 5 3 5 3 5 
3 5 3 5 3 5 3 5 3 
5 3 5 3 5 3 5 3 5 
3 5 3 5 3 5 3 5 3 
5 3 5 3 5 3 5 3 5 
3 5 3 5 3 5 3 5 3 
5 3 5 3 5 3 5 3 5 
3 5 3 5 3 5 3 5 3 
5 3 5 3 5 3 5 3 5 
3 5 3 5 3 5 3 5 
