# vtk DataFile Version 3.0
vtk output
ASCII
DATASET UNSTRUCTURED_GRID
POINTS 637 float
0.00000000e+00 0.00000000e+00 0.00000000e+00
0.00000000e+00 0.00000000e+00 1.66670000e-01
0.00000000e+00 0.00000000e+00 3.33330000e-01
0.00000000e+00 0.00000000e+00 5.00000000e-01
0.00000000e+00 0.00000000e+00 6.66670000e-01
0.00000000e+00 0.00000000e+00 8.33330000e-01
0.00000000e+00 0.00000000e+00 1.00000000e+00
0.00000000e+00 1.66670000e-01 0.00000000e+00
0.00000000e+00 1.66670000e-01 1.66670000e-01
0.00000000e+00 1.66670000e-01 3.33330000e-01
0.00000000e+00 1.66670000e-01 5.00000000e-01
0.00000000e+00 1.66670000e-01 6.66670000e-01
0.00000000e+00 1.66670000e-01 8.33330000e-01
0.00000000e+00 1.66670000e-01 1.00000000e+00
0.00000000e+00 3.33330000e-01 0.00000000e+00
0.00000000e+00 3.33330000e-01 1.66670000e-01
0.00000000e+00 3.33330000e-01 5.00000000e-01
0.00000000e+00 3.33330000e-01 6.66670000e-01
0.00000000e+00 3.33330000e-01 3.33330000e-01
0.00000000e+00 3.33330000e-01 8.33330000e-01
0.00000000e+00 3.33330000e-01 1.00000000e+00
0.00000000e+00 5.00000000e-01 0.00000000e+00
0.00000000e+00 5.00000000e-01 1.66670000e-01
0.00000000e+00 5.00000000e-01 5.00000000e-01
0.00000000e+00 5.00000000e-01 6.66670000e-01
0.00000000e+00 5.00000000e-01 3.33330000e-01
0.00000000e+00 5.00000000e-01 8.33330000e-01
0.00000000e+00 5.00000000e-01 1.00000000e+00
0.00000000e+00 6.66670000e-01 0.00000000e+00
0.00000000e+00 6.66670000e-01 1.66670000e-01
0.00000000e+00 6.66670000e-01 3.33330000e-01
0.00000000e+00 6.66670000e-01 5.00000000e-01
0.00000000e+00 6.66670000e-01 6.66670000e-01
0.00000000e+00 6.66670000e-01 8.33330000e-01
0.00000000e+00 6.66670000e-01 1.00000000e+00
0.00000000e+00 8.33330000e-01 0.00000000e+00
0.00000000e+00 8.33330000e-01 1.66670000e-01
0.00000000e+00 8.33330000e-01 3.33330000e-01
0.00000000e+00 8.33330000e-01 5.00000000e-01
0.00000000e+00 8.33330000e-01 6.66670000e-01
0.00000000e+00 8.33330000e-01 8.33330000e-01
0.00000000e+00 8.33330000e-01 1.00000000e+00
0.00000000e+00 1.00000000e+00 0.00000000e+00
0.00000000e+00 1.00000000e+00 1.66670000e-01
0.00000000e+00 1.00000000e+00 5.00000000e-01
0.00000000e+00 1.00000000e+00 6.66670000e-01
0.00000000e+00 1.00000000e+00 3.33330000e-01
0.00000000e+00 1.00000000e+00 8.33330000e-01
0.00000000e+00 1.00000000e+00 1.00000000e+00
8.79842900e-01 1.55088800e-02 5.40907500e-02
8.63000200e-01 9.73845200e-03 2.14569300e-01
8.31335400e-01 -1.86896100e-03 5.41275800e-01
8.15431700e-01 -7.72064500e-03 7.07752100e-01
8.78797100e-01 1.76474500e-01 5.86884500e-02
8.62015000e-01 1.72855800e-01 2.18988100e-01
8.30994300e-01 1.65350300e-01 5.45718400e-01
8.15444000e-01 1.61575500e-01 7.12178700e-01
8.78402300e-01 5.00000000e-01 6.21311900e-02
8.61507800e-01 5.00000000e-01 2.21984800e-01
8.30741300e-01 5.00000000e-01 5.48679700e-01
8.15348600e-01 5.00000000e-01 7.15288900e-01
8.78493000e-01 6.61907100e-01 6.12387600e-02
8.61615000e-01 6.63653100e-01 2.21281700e-01
8.30801100e-01 6.67363100e-01 5.47991200e-01
8.15379000e-01 6.69218900e-01 7.14543600e-01
8.47010000e-01 3.96619400e-03 3.76947400e-01
7.98741000e-01 -1.33602400e-02 8.76556300e-01
8.46330400e-01 1.69140500e-01 3.81349800e-01
7.99101600e-01 1.57914900e-01 8.80925400e-01
8.78493000e-01 3.38092900e-01 6.12387700e-02
8.61615000e-01 3.36346900e-01 2.21281700e-01
8.30801100e-01 3.32636900e-01 5.47991200e-01
8.15379000e-01 3.30781100e-01 7.14543600e-01
8.46011000e-01 3.34514700e-01 3.83579700e-01
7.99105000e-01 3.28976200e-01 8.83450700e-01
8.45919400e-01 5.00000000e-01 3.84246300e-01
7.99076900e-01 5.00000000e-01 8.84288200e-01
8.46011000e-01 6.65485300e-01 3.83579700e-01
7.99105000e-01 6.71023800e-01 8.83450700e-01
8.78797100e-01 8.23525500e-01 5.86884400e-02
8.62015000e-01 8.27144200e-01 2.18988100e-01
8.46330400e-01 8.30859500e-01 3.81349800e-01
8.30994300e-01 8.34649800e-01 5.45718400e-01
8.15444000e-01 8.38424500e-01 7.12178600e-01
7.99101600e-01 8.42085200e-01 8.80925400e-01
7.80821300e-01 -1.86742600e-02 1.04775000e+00
7.81239800e-01 1.54352900e-01 1.05218400e+00
7.81077800e-01 3.27144500e-01 1.05496900e+00
7.80993300e-01 5.00000000e-01 1.05598800e+00
7.81077800e-01 6.72855500e-01 1.05496900e+00
7.81239800e-01 8.45647100e-01 1.05218400e+00
8.79842800e-01 9.84491100e-01 5.40907300e-02
8.63000200e-01 9.90261500e-01 2.14569200e-01
8.31335400e-01 1.00186900e+00 5.41275800e-01
8.15431600e-01 1.00772100e+00 7.07752100e-01
8.47010000e-01 9.96033800e-01 3.76947300e-01
7.98741000e-01 1.01336000e+00 8.76556300e-01
7.80821300e-01 1.01867400e+00 1.04775000e+00
1.74224700e+00 1.12556100e-02 1.80975200e-01
1.71289300e+00 7.10052300e-03 3.41616500e-01
1.68409300e+00 2.87188800e-03 5.03291300e-01
1.65541700e+00 -1.32001500e-03 6.66311400e-01
1.62648100e+00 -5.42472800e-03 8.30783000e-01
1.59691500e+00 -9.44049700e-03 9.96588300e-01
1.74226800e+00 1.74346700e-01 1.84500900e-01
1.71285300e+00 1.71492300e-01 3.45134400e-01
1.65462900e+00 1.65703500e-01 6.69719800e-01
1.62527200e+00 1.62898700e-01 8.34110400e-01
1.68370100e+00 1.68589500e-01 5.06765200e-01
1.59529300e+00 1.60136200e-01 9.99907200e-01
1.74190000e+00 3.37214700e-01 1.86642800e-01
1.71261700e+00 3.35753400e-01 3.47225900e-01
1.65419900e+00 3.32813900e-01 6.71756900e-01
1.62470400e+00 3.31393800e-01 8.36170200e-01
1.74175800e+00 5.00000000e-01 1.87372200e-01
1.71251300e+00 5.00000000e-01 3.47914200e-01
1.68329000e+00 5.00000000e-01 5.09477500e-01
1.65406100e+00 5.00000000e-01 6.72430600e-01
1.62453300e+00 5.00000000e-01 8.36864500e-01
1.59444300e+00 5.00000000e-01 1.00275200e+00
1.74190000e+00 6.62785300e-01 1.86642800e-01
1.71261700e+00 6.64246600e-01 3.47225900e-01
1.65419900e+00 6.67186100e-01 6.71756900e-01
1.62470400e+00 6.68606200e-01 8.36170200e-01
1.68339900e+00 6.65720800e-01 5.08809700e-01
1.59462800e+00 6.70007200e-01 1.00202500e+00
1.74226800e+00 8.25653300e-01 1.84500800e-01
1.71285300e+00 8.28507700e-01 3.45134300e-01
1.65462900e+00 8.34296500e-01 6.69719800e-01
1.62527200e+00 8.37101300e-01 8.34110400e-01
1.56624200e+00 -1.35652000e-02 1.16357100e+00
1.56449900e+00 1.57265500e-01 1.16698500e+00
1.68339900e+00 3.34279200e-01 5.08809700e-01
1.59462800e+00 3.29992900e-01 1.00202500e+00
1.56379200e+00 5.00000000e-01 1.16999000e+00
1.56394700e+00 6.71479100e-01 1.16920500e+00
1.68370100e+00 8.31410500e-01 5.06765100e-01
1.59529300e+00 8.39863900e-01 9.99907200e-01
1.74224700e+00 9.88744400e-01 1.80975200e-01
1.71289300e+00 9.92899500e-01 3.41616500e-01
1.65541700e+00 1.00132000e+00 6.66311400e-01
1.62648100e+00 1.00542500e+00 8.30783000e-01
1.56394700e+00 3.28520900e-01 1.16920500e+00
1.56449900e+00 8.42734600e-01 1.16698500e+00
1.68409300e+00 9.97128100e-01 5.03291300e-01
1.59691500e+00 1.00944100e+00 9.96588200e-01
1.56624200e+00 1.01356500e+00 1.16357000e+00
2.58958900e+00 7.93229600e-03 3.72594400e-01
2.54823500e+00 4.87258800e-03 5.31271500e-01
2.50768700e+00 1.93084400e-03 6.91287400e-01
2.46727400e+00 -8.99314900e-04 8.52330500e-01
2.42659600e+00 -3.60107300e-03 1.01428700e+00
2.38522600e+00 -6.23262400e-03 1.17721900e+00
2.58881400e+00 1.71622900e-01 3.74970600e-01
2.54747900e+00 1.69732300e-01 5.33642300e-01
2.50705800e+00 1.67860900e-01 6.93608600e-01
2.46677800e+00 1.66074400e-01 8.54567100e-01
2.42624500e+00 1.64376000e-01 1.01644700e+00
2.38502900e+00 1.62714700e-01 1.17927600e+00
2.58861000e+00 3.35724800e-01 3.76227700e-01
2.54721300e+00 3.34831700e-01 5.34954800e-01
2.46641500e+00 3.33019600e-01 8.55921000e-01
2.42583700e+00 3.32188100e-01 1.01777300e+00
2.58853100e+00 5.00000000e-01 3.76616800e-01
2.54712800e+00 5.00000000e-01 5.35372100e-01
2.46628900e+00 5.00000000e-01 8.56378600e-01
2.42569200e+00 5.00000000e-01 1.01823000e+00
2.50664600e+00 5.00000000e-01 6.95406400e-01
2.38446800e+00 5.00000100e-01 1.18098000e+00
2.58861000e+00 6.64275200e-01 3.76227700e-01
2.54721300e+00 6.65168300e-01 5.34954800e-01
2.50674800e+00 6.66096900e-01 6.94961500e-01
2.46641500e+00 6.66980500e-01 8.55921000e-01
2.42583700e+00 6.67812000e-01 1.01777300e+00
2.38461500e+00 6.68629400e-01 1.18054000e+00
2.58881400e+00 8.28377100e-01 3.74970600e-01
2.54747900e+00 8.30267700e-01 5.33642300e-01
2.46677800e+00 8.33925700e-01 8.54567100e-01
2.42624500e+00 8.35624100e-01 1.01644700e+00
2.34247100e+00 -8.74735000e-03 1.34127000e+00
2.34236800e+00 1.61057300e-01 1.34324800e+00
2.50674800e+00 3.33903100e-01 6.94961500e-01
2.38461500e+00 3.31370700e-01 1.18054000e+00
2.34195700e+00 3.30523100e-01 1.34446300e+00
2.34182000e+00 5.00000100e-01 1.34487600e+00
2.34195700e+00 6.69477000e-01 1.34446300e+00
2.50705800e+00 8.32139100e-01 6.93608500e-01
2.38502900e+00 8.37285500e-01 1.17927600e+00
2.34236800e+00 8.38942900e-01 1.34324800e+00
2.58958900e+00 9.92067700e-01 3.72594400e-01
2.54823400e+00 9.95127400e-01 5.31271400e-01
2.46727400e+00 1.00089900e+00 8.52330500e-01
2.42659600e+00 1.00360100e+00 1.01428700e+00
2.50768700e+00 9.98069200e-01 6.91287300e-01
2.38522600e+00 1.00623300e+00 1.17721900e+00
2.34247100e+00 1.00874700e+00 1.34127000e+00
3.41541900e+00 5.96552800e-03 6.14554000e-01
3.36546300e+00 3.76266200e-03 7.71518400e-01
3.26653100e+00 -7.07833000e-04 1.08788900e+00
3.21683200e+00 -2.84208700e-03 1.24725500e+00
3.41502900e+00 1.70610600e-01 6.16294200e-01
3.36504200e+00 1.69156300e-01 7.73298200e-01
3.26593100e+00 1.66165800e-01 1.08961100e+00
3.21615300e+00 1.64743500e-01 1.24891100e+00
3.41462700e+00 5.00000000e-01 6.17584600e-01
3.36465100e+00 5.00000000e-01 7.74656700e-01
3.26547500e+00 5.00000100e-01 1.09099300e+00
3.21566500e+00 5.00000100e-01 1.25028000e+00
3.41471700e+00 6.64740900e-01 6.17282600e-01
3.36474700e+00 6.65450300e-01 7.74325900e-01
3.26558900e+00 6.66934300e-01 1.09064700e+00
3.21578800e+00 6.67636000e-01 1.24993300e+00
3.31595900e+00 1.51188900e-03 9.29279600e-01
3.16652900e+00 -4.90456400e-03 1.40724500e+00
3.31544200e+00 1.67651300e-01 9.31047200e-01
3.16577800e+00 1.63371000e-01 1.40884600e+00
3.41471700e+00 3.35259100e-01 6.17282600e-01
3.36474700e+00 3.34549800e-01 7.74325900e-01
3.26558900e+00 3.33065800e-01 1.09064700e+00
3.21578800e+00 3.32364100e-01 1.24993300e+00
3.31512800e+00 3.33802500e-01 9.32084400e-01
3.16540300e+00 3.31687500e-01 1.40983900e+00
3.31502400e+00 5.00000000e-01 9.32425400e-01
3.16527800e+00 5.00000100e-01 1.41017300e+00
3.31512800e+00 6.66197600e-01 9.32084400e-01
3.16540300e+00 6.68312700e-01 1.40983900e+00
3.41502900e+00 8.29389500e-01 6.16294200e-01
3.36504200e+00 8.30843700e-01 7.73298200e-01
3.31544200e+00 8.32348800e-01 9.31047200e-01
3.26593100e+00 8.33834300e-01 1.08961100e+00
3.21615300e+00 8.35256700e-01 1.24891100e+00
3.16577800e+00 8.36629200e-01 1.40884600e+00
3.11531800e+00 -6.93938800e-03 1.56775000e+00
3.11454800e+00 1.62018600e-01 1.56930900e+00
3.11420700e+00 3.31023600e-01 1.57025900e+00
3.11409800e+00 5.00000100e-01 1.57056100e+00
3.11420700e+00 6.68976600e-01 1.57025900e+00
3.11454800e+00 8.37981600e-01 1.56930900e+00
3.41541900e+00 9.94034500e-01 6.14553900e-01
3.36546300e+00 9.96237400e-01 7.71518400e-01
3.26653100e+00 1.00070800e+00 1.08788900e+00
3.21683200e+00 1.00284200e+00 1.24725500e+00
3.31595900e+00 9.98488200e-01 9.29279500e-01
3.16652900e+00 1.00490500e+00 1.40724500e+00
3.11531800e+00 1.00694000e+00 1.56775000e+00
4.22327700e+00 5.00669600e-03 8.95097900e-01
4.16634300e+00 3.17839400e-03 1.05001000e+00
4.05337600e+00 -4.42510300e-04 1.36208500e+00
3.99668000e+00 -2.19811000e-03 1.51906100e+00
4.22282300e+00 1.69960300e-01 8.96531600e-01
4.16587500e+00 1.68762900e-01 1.05144700e+00
4.05282700e+00 1.66361600e-01 1.36346300e+00
3.99609400e+00 1.65201400e-01 1.52040100e+00
4.22245300e+00 5.00000000e-01 8.97616700e-01
4.16550700e+00 5.00000000e-01 1.05255100e+00
4.05239300e+00 5.00000100e-01 1.36456900e+00
3.99562100e+00 5.00000100e-01 1.52149800e+00
4.22254900e+00 6.65039600e-01 8.97351900e-01
4.16560200e+00 6.65629600e-01 1.05228000e+00
4.05250100e+00 6.66832600e-01 1.36429200e+00
3.99573700e+00 6.67411200e-01 1.52122000e+00
4.10983100e+00 1.35562900e-03 1.20570300e+00
3.93945600e+00 -3.92383900e-03 1.67652700e+00
3.88135000e+00 -5.63534000e-03 1.83441500e+00
4.10932400e+00 1.67553700e-01 1.20711800e+00
3.93884100e+00 1.64061000e-01 1.67783300e+00
3.88073600e+00 1.62916700e-01 1.83570700e+00
4.22254900e+00 3.34960500e-01 8.97351900e-01
4.16560200e+00 3.34370500e-01 1.05228000e+00
4.05250100e+00 3.33167600e-01 1.36429200e+00
3.99573700e+00 3.32589000e-01 1.52122000e+00
4.10902900e+00 3.33764700e-01 1.20795200e+00
3.93846700e+00 3.32020400e-01 1.67863900e+00
4.10893100e+00 5.00000100e-01 1.20822700e+00
3.93834800e+00 5.00000100e-01 1.67891400e+00
3.88025600e+00 5.00000100e-01 1.83677300e+00
4.10902900e+00 6.66235500e-01 1.20795200e+00
3.93846700e+00 6.67979900e-01 1.67863900e+00
3.88037100e+00 6.68555600e-01 1.83650500e+00
4.22282300e+00 8.30039700e-01 8.96531500e-01
4.16587500e+00 8.31237200e-01 1.05144700e+00
4.05282700e+00 8.33638600e-01 1.36346300e+00
3.99609400e+00 8.34798800e-01 1.52040100e+00
4.10932400e+00 8.32446400e-01 1.20711800e+00
3.93884100e+00 8.35939300e-01 1.67783300e+00
4.22327700e+00 9.94993400e-01 8.95097800e-01
4.16634300e+00 9.96821700e-01 1.05001000e+00
4.05337600e+00 1.00044300e+00 1.36208500e+00
3.99668000e+00 1.00219800e+00 1.51906100e+00
3.88037100e+00 3.31444700e-01 1.83650500e+00
3.88073600e+00 8.37083600e-01 1.83570700e+00
4.10983100e+00 9.98644500e-01 1.20570300e+00
3.93945600e+00 1.00392400e+00 1.67652600e+00
3.88135000e+00 1.00563600e+00 1.83441400e+00
5.01468400e+00 4.00843700e-03 1.20368800e+00
4.95271700e+00 2.59691800e-03 1.35703500e+00
4.89108200e+00 1.17503100e-03 1.51095200e+00
4.82949900e+00 -2.40158600e-04 1.66544200e+00
4.76771000e+00 -1.64831600e-03 1.82040900e+00
4.70546900e+00 -3.04566400e-03 1.97573700e+00
5.01437000e+00 1.69382800e-01 1.20483500e+00
4.95239400e+00 1.68420700e-01 1.35816800e+00
4.89068800e+00 1.67457700e-01 1.51205700e+00
4.82903300e+00 1.66497700e-01 1.66652200e+00
4.76717100e+00 1.65546400e-01 1.82146400e+00
4.70485700e+00 1.64600500e-01 1.97678200e+00
5.01409700e+00 3.34690800e-01 1.20552500e+00
4.95215200e+00 3.34203700e-01 1.35884400e+00
4.82876400e+00 3.33241900e-01 1.66716700e+00
4.76688000e+00 3.32766700e-01 1.82210300e+00
5.01401100e+00 5.00000100e-01 1.20576000e+00
4.95207200e+00 5.00000100e-01 1.35906900e+00
4.82867400e+00 5.00000100e-01 1.66738100e+00
4.76678100e+00 5.00000100e-01 1.82231600e+00
4.89035600e+00 5.00000100e-01 1.51293200e+00
4.70444200e+00 5.00000100e-01 1.97764500e+00
5.01409700e+00 6.65309300e-01 1.20552500e+00
4.95215200e+00 6.65796500e-01 1.35884400e+00
4.89043900e+00 6.66278100e-01 1.51271500e+00
4.82876400e+00 6.66758300e-01 1.66716700e+00
4.76688000e+00 6.67233500e-01 1.82210300e+00
4.70454800e+00 6.67706400e-01 1.97742700e+00
5.01437000e+00 8.30617300e-01 1.20483500e+00
4.95239400e+00 8.31579500e-01 1.35816800e+00
4.82903300e+00 8.33502500e-01 1.66652100e+00
4.76717100e+00 8.34453900e-01 1.82146400e+00
4.64257000e+00 -4.45523600e-03 2.13129300e+00
4.64192400e+00 1.63645100e-01 2.13235000e+00
4.89043900e+00 3.33722000e-01 1.51271500e+00
4.70454800e+00 3.32293900e-01 1.97742700e+00
4.64162600e+00 3.31812700e-01 2.13301900e+00
4.64151900e+00 5.00000200e-01 2.13325000e+00
4.64162600e+00 6.68187600e-01 2.13301900e+00
4.89068800e+00 8.32542500e-01 1.51205700e+00
4.70485700e+00 8.35399800e-01 1.97678200e+00
4.64192400e+00 8.36355300e-01 2.13235000e+00
5.01468400e+00 9.95991700e-01 1.20368800e+00
4.95271700e+00 9.97403200e-01 1.35703500e+00
4.82949900e+00 1.00024000e+00 1.66544200e+00
4.76771000e+00 1.00164900e+00 1.82040900e+00
4.89108200e+00 9.98825100e-01 1.51095200e+00
4.70546900e+00 1.00304600e+00 1.97573700e+00
4.64257000e+00 1.00445600e+00 2.13129300e+00
5.79335600e+00 2.87369000e-03 1.53153700e+00
5.72777200e+00 1.84737800e-03 1.68372000e+00
5.66247800e+00 8.30903900e-04 1.83639200e+00
5.59722700e+00 -1.79538000e-04 1.98948200e+00
5.53182100e+00 -1.18809900e-03 2.14291300e+00
5.46607100e+00 -2.19656800e-03 2.29659400e+00
5.79312300e+00 1.68591700e-01 1.53237600e+00
5.72753300e+00 1.67904900e-01 1.68454600e+00
5.66219300e+00 1.67224200e-01 1.83719100e+00
5.59688700e+00 1.66547600e-01 1.99025300e+00
5.53142500e+00 1.65873800e-01 2.14366000e+00
5.46562300e+00 1.65198700e-01 2.29732300e+00
5.79294400e+00 3.34297700e-01 1.53286400e+00
5.72737400e+00 3.33951000e-01 1.68503400e+00
5.59668200e+00 3.33267000e-01 1.99071600e+00
5.53118900e+00 3.32928100e-01 2.14411400e+00
5.79287600e+00 5.00000100e-01 1.53302900e+00
5.72731600e+00 5.00000100e-01 1.68519500e+00
5.59661400e+00 5.00000100e-01 1.99087100e+00
5.53111300e+00 5.00000200e-01 2.14426700e+00
5.66195700e+00 5.00000100e-01 1.83782400e+00
5.46528600e+00 5.00000200e-01 2.29793000e+00
5.79294400e+00 6.65702500e-01 1.53286400e+00
5.72737400e+00 6.66049200e-01 1.68503400e+00
5.66201700e+00 6.66392300e-01 1.83766700e+00
5.59668200e+00 6.66733200e-01 1.99071600e+00
5.53118900e+00 6.67072200e-01 2.14411400e+00
5.46536600e+00 6.67412100e-01 2.29777500e+00
5.79312300e+00 8.31408400e-01 1.53237600e+00
5.72753300e+00 8.32095300e-01 1.68454600e+00
5.59688700e+00 8.33452700e-01 1.99025300e+00
5.53142500e+00 8.34126500e-01 2.14366000e+00
5.39972900e+00 -3.21168100e-03 2.45044400e+00
5.39927000e+00 1.64512600e-01 2.45117800e+00
5.66201700e+00 3.33607900e-01 1.83766700e+00
5.46536600e+00 3.32588300e-01 2.29777500e+00
5.39894800e+00 5.00000200e-01 2.45181300e+00
5.39902600e+00 6.67760900e-01 2.45164900e+00
5.66219300e+00 8.32776100e-01 1.83719100e+00
5.46562300e+00 8.34801700e-01 2.29732200e+00
5.79335600e+00 9.97126500e-01 1.53153700e+00
5.72777200e+00 9.98152800e-01 1.68372000e+00
5.59722700e+00 1.00018000e+00 1.98948200e+00
5.53182100e+00 1.00118800e+00 2.14291300e+00
5.39902600e+00 3.32239500e-01 2.45164900e+00
5.39927000e+00 8.35487700e-01 2.45117800e+00
5.66247800e+00 9.99169300e-01 1.83639200e+00
5.46607100e+00 1.00219700e+00 2.29659400e+00
5.39972900e+00 1.00321200e+00 2.45044300e+00
6.56241700e+00 1.67495400e-03 1.87223300e+00
6.49439000e+00 1.06441700e-03 2.02370100e+00
6.42662400e+00 4.54538900e-04 2.17551500e+00
6.35891300e+00 -1.51765900e-04 2.32762500e+00
6.29110100e+00 -7.55613400e-04 2.47995300e+00
6.22303400e+00 -1.35909300e-03 2.63241900e+00
6.56231900e+00 1.67785300e-01 1.87274600e+00
6.49428400e+00 1.67378300e-01 2.02421000e+00
6.35870000e+00 1.66567600e-01 2.32808500e+00
6.29083200e+00 1.66165700e-01 2.48038700e+00
6.42646600e+00 1.66971700e-01 2.17600100e+00
6.22271300e+00 1.65763600e-01 2.63283100e+00
6.56221700e+00 3.33886600e-01 1.87303500e+00
6.49419800e+00 3.33683300e-01 2.02450600e+00
6.35857200e+00 3.33278400e-01 2.32836400e+00
6.29067800e+00 3.33078000e-01 2.48065500e+00
6.56218100e+00 5.00000100e-01 1.87312900e+00
6.49416500e+00 5.00000100e-01 2.02460300e+00
6.42632900e+00 5.00000100e-01 2.17638700e+00
6.35852900e+00 5.00000200e-01 2.32845700e+00
6.29062700e+00 5.00000200e-01 2.48074600e+00
6.22248900e+00 5.00000200e-01 2.63318000e+00
6.56221700e+00 6.66113600e-01 1.87303500e+00
6.49419800e+00 6.66316900e-01 2.02450600e+00
6.35857200e+00 6.66722000e-01 2.32836400e+00
6.29067800e+00 6.66922400e-01 2.48065500e+00
6.42636500e+00 6.66520100e-01 2.17629100e+00
6.22254300e+00 6.67123100e-01 2.63309100e+00
6.56231900e+00 8.32214900e-01 1.87274600e+00
6.49428400e+00 8.32622000e-01 2.02421000e+00
6.35870000e+00 8.33432800e-01 2.32808500e+00
6.29083200e+00 8.33834600e-01 2.48038700e+00
6.15452100e+00 -1.96461200e-03 2.78494800e+00
6.15419000e+00 1.65358800e-01 2.78535600e+00
6.42636500e+00 3.33480100e-01 2.17629100e+00
6.22254300e+00 3.32877300e-01 2.63309100e+00
6.15398900e+00 5.00000200e-01 2.78571300e+00
6.15403700e+00 6.67325900e-01 2.78562200e+00
6.42646600e+00 8.33028600e-01 2.17600100e+00
6.22271300e+00 8.34236800e-01 2.63283100e+00
6.56241700e+00 9.98325200e-01 1.87223300e+00
6.49439000e+00 9.98935800e-01 2.02370000e+00
6.35891300e+00 1.00015200e+00 2.32762500e+00
6.29110100e+00 1.00075600e+00 2.47995200e+00
6.15403700e+00 3.32674500e-01 2.78562200e+00
6.15419000e+00 8.34641700e-01 2.78535600e+00
6.42662400e+00 9.99545700e-01 2.17551500e+00
6.22303400e+00 1.00136000e+00 2.63241900e+00
6.15452100e+00 1.00196500e+00 2.78494800e+00
7.32477300e+00 6.16061600e-04 2.22060100e+00
7.25523200e+00 3.64811400e-04 2.37171900e+00
7.11665400e+00 -1.19110700e-04 2.67452000e+00
7.04734500e+00 -3.53170000e-04 2.82611200e+00
7.32475200e+00 1.67087500e-01 2.22082500e+00
7.25520200e+00 1.66918000e-01 2.37194600e+00
7.11656100e+00 1.66590700e-01 2.67471400e+00
7.04721900e+00 1.66431900e-01 2.82628700e+00
7.32470200e+00 5.00000100e-01 2.22098300e+00
7.25515700e+00 5.00000100e-01 2.37212700e+00
7.11647700e+00 5.00000200e-01 2.67488900e+00
7.04711400e+00 5.00000200e-01 2.82644900e+00
7.32471700e+00 6.66459100e-01 2.22094600e+00
7.25517200e+00 6.66544000e-01 2.37208200e+00
7.11649900e+00 6.66710400e-01 2.67484300e+00
7.04714000e+00 6.66791200e-01 2.82640700e+00
7.18591100e+00 1.20117100e-04 2.52303700e+00
6.97787800e+00 -5.88600700e-04 2.97774100e+00
7.18585100e+00 1.66752100e-01 2.52324900e+00
6.97772300e+00 1.66271800e-01 2.97789900e+00
7.32471700e+00 3.33541200e-01 2.22094600e+00
7.25517200e+00 3.33456300e-01 2.37208200e+00
7.11649900e+00 3.33290000e-01 2.67484300e+00
7.04714000e+00 3.33209300e-01 2.82640700e+00
7.18580800e+00 3.33371900e-01 2.52338600e+00
6.97763500e+00 3.33127600e-01 2.97800900e+00
7.18579100e+00 5.00000200e-01 2.52343300e+00
6.97761000e+00 5.00000200e-01 2.97804800e+00
7.18580800e+00 6.66628400e-01 2.52338600e+00
6.97763500e+00 6.66872900e-01 2.97800800e+00
7.32475200e+00 8.32912800e-01 2.22082400e+00
7.25520200e+00 8.33082200e-01 2.37194600e+00
7.18585100e+00 8.33248200e-01 2.52324900e+00
7.11656100e+00 8.33409700e-01 2.67471300e+00
7.04721900e+00 8.33568500e-01 2.82628700e+00
6.97772300e+00 8.33728700e-01 2.97789900e+00
6.90810300e+00 -8.28432500e-04 3.12935100e+00
6.90794600e+00 1.66107600e-01 3.12950000e+00
6.90785400e+00 5.00000300e-01 3.12963700e+00
6.90787300e+00 6.66955800e-01 3.12960400e+00
7.32477300e+00 9.99384200e-01 2.22060100e+00
7.25523200e+00 9.99635500e-01 2.37171900e+00
7.11665400e+00 1.00012000e+00 2.67452000e+00
7.04734500e+00 1.00035400e+00 2.82611100e+00
6.90787300e+00 3.33044700e-01 3.12960400e+00
6.90794600e+00 8.33892900e-01 3.12950000e+00
7.18591100e+00 9.99880200e-01 2.52303700e+00
6.97787800e+00 1.00058900e+00 2.97774100e+00
6.90810300e+00 1.00082900e+00 3.12935100e+00
8.08282600e+00 2.04117800e-04 2.57281400e+00
8.01255800e+00 9.89849100e-05 2.72370400e+00
7.87234700e+00 -1.14494100e-04 3.02584600e+00
7.80223000e+00 -2.17908200e-04 3.17704200e+00
8.08282000e+00 1.66797800e-01 2.57290300e+00
8.01254800e+00 1.66731300e-01 2.72379600e+00
7.87230900e+00 1.66594100e-01 3.02592700e+00
7.80217900e+00 1.66527500e-01 3.17711600e+00
8.08280700e+00 5.00000100e-01 2.57296000e+00
8.01253600e+00 5.00000200e-01 2.72386600e+00
7.87227700e+00 5.00000200e-01 3.02599600e+00
7.80213700e+00 5.00000300e-01 3.17717700e+00
8.08281000e+00 6.66610500e-01 2.57294800e+00
8.01253900e+00 6.66641700e-01 2.72384900e+00
7.87228500e+00 6.66708200e-01 3.02597800e+00
7.80214700e+00 6.66740400e-01 3.17716100e+00
7.94243200e+00 -8.35230400e-06 2.87471800e+00
7.73200700e+00 -3.20106000e-04 3.32825800e+00
7.66159100e+00 -4.20188200e-04 3.47946200e+00
7.94240800e+00 1.66662300e-01 2.87480700e+00
7.73194500e+00 1.66461800e-01 3.32832200e+00
7.66152800e+00 1.66398700e-01 3.47952000e+00
8.08281000e+00 3.33389800e-01 2.57294800e+00
8.01253900e+00 3.33358700e-01 2.72384900e+00
7.87228500e+00 3.33292300e-01 3.02597800e+00
7.80214700e+00 3.33260100e-01 3.17716200e+00
7.94239200e+00 3.33325200e-01 2.87486100e+00
7.73191000e+00 3.33228300e-01 3.32836200e+00
7.94238700e+00 5.00000200e-01 2.87487900e+00
7.73189900e+00 5.00000300e-01 3.32837500e+00
7.66149300e+00 5.00000300e-01 3.47956400e+00
7.94239200e+00 6.66675200e-01 2.87486100e+00
7.73191000e+00 6.66772200e-01 3.32836200e+00
7.66150100e+00 6.66801700e-01 3.47955500e+00
8.08282000e+00 8.33202500e-01 2.57290300e+00
8.01254800e+00 8.33269100e-01 2.72379600e+00
7.94240800e+00 8.33338100e-01 2.87480700e+00
7.87230900e+00 8.33406400e-01 3.02592700e+00
7.80217900e+00 8.33473000e-01 3.17711500e+00
7.73194500e+00 8.33538700e-01 3.32832200e+00
8.08282600e+00 9.99796200e-01 2.57281400e+00
8.01255800e+00 9.99901400e-01 2.72370300e+00
7.87234700e+00 1.00011500e+00 3.02584600e+00
7.80223000e+00 1.00021800e+00 3.17704200e+00
7.66150100e+00 3.33198900e-01 3.47955500e+00
7.66152800e+00 8.33601900e-01 3.47952000e+00
7.94243200e+00 1.00000900e+00 2.87471800e+00
7.73200700e+00 1.00032100e+00 3.32825800e+00
7.66159100e+00 1.00042100e+00 3.47946200e+00
8.83859600e+00 -7.27714500e-05 2.92617000e+00
8.76807900e+00 -8.51485900e-05 3.07703600e+00
8.69764600e+00 -9.85565300e-05 3.22796100e+00
8.62723100e+00 -1.12125500e-04 3.37895200e+00
8.55679700e+00 -1.25549500e-04 3.52998200e+00
8.48631000e+00 -1.38755000e-04 3.68102100e+00
8.83861800e+00 1.66619700e-01 2.92619000e+00
8.76809800e+00 1.66612300e-01 3.07705600e+00
8.62722600e+00 1.66595300e-01 3.37896100e+00
8.55678100e+00 1.66586800e-01 3.52998500e+00
8.69765300e+00 1.66603800e-01 3.22797600e+00
8.48628300e+00 1.66578500e-01 3.68101900e+00
8.83862400e+00 3.33303900e-01 2.92619700e+00
8.76810500e+00 3.33300700e-01 3.07706500e+00
8.62722300e+00 3.33292700e-01 3.37896700e+00
8.55677200e+00 3.33288800e-01 3.52998900e+00
8.83862600e+00 5.00000200e-01 2.92619900e+00
8.76810600e+00 5.00000200e-01 3.07706800e+00
8.69765700e+00 5.00000200e-01 3.22798800e+00
8.62722200e+00 5.00000300e-01 3.37896900e+00
8.55676900e+00 5.00000300e-01 3.52999000e+00
8.48626800e+00 5.00000300e-01 3.68102000e+00
8.83862400e+00 6.66696400e-01 2.92619700e+00
8.76810500e+00 6.66699700e-01 3.07706500e+00
8.62722300e+00 6.66707800e-01 3.37896700e+00
8.55677200e+00 6.66711800e-01 3.52998800e+00
8.69765600e+00 6.66703800e-01 3.22798500e+00
8.48627100e+00 6.66715700e-01 3.68102000e+00
8.83861800e+00 8.33380600e-01 2.92619000e+00
8.76809800e+00 8.33388100e-01 3.07705600e+00
8.62722600e+00 8.33405200e-01 3.37896100e+00
8.55678100e+00 8.33413800e-01 3.52998500e+00
8.41571500e+00 -1.50931000e-04 3.83205200e+00
8.41568600e+00 1.66571100e-01 3.83204800e+00
8.69765600e+00 3.33296700e-01 3.22798500e+00
8.48627100e+00 3.33284900e-01 3.68102000e+00
8.41567600e+00 3.33281700e-01 3.83204800e+00
8.41567400e+00 5.00000300e-01 3.83204800e+00
8.41567600e+00 6.66719000e-01 3.83204800e+00
8.69765300e+00 8.33396600e-01 3.22797600e+00
8.48628300e+00 8.33422100e-01 3.68101900e+00
8.41568600e+00 8.33429600e-01 3.83204800e+00
8.83859600e+00 1.00007300e+00 2.92617000e+00
8.76807900e+00 1.00008600e+00 3.07703500e+00
8.69764600e+00 1.00009900e+00 3.22796100e+00
8.62723100e+00 1.00011300e+00 3.37895100e+00
8.55679700e+00 1.00012600e+00 3.52998200e+00
8.48631000e+00 1.00013900e+00 3.68102000e+00
8.41571500e+00 1.00015200e+00 3.83205200e+00
9.59360400e+00 -3.20334100e-04 3.27917300e+00
9.52310800e+00 -2.60285000e-04 3.43014800e+00
9.45260400e+00 -1.87407400e-04 3.58109600e+00
9.38210300e+00 -1.08133100e-04 3.73205900e+00
9.31159600e+00 -3.07701300e-05 3.88303700e+00
9.24108200e+00 3.88895500e-05 4.03400700e+00
9.59364600e+00 1.66473300e-01 3.27915100e+00
9.52314800e+00 1.66504800e-01 3.43011900e+00
9.38212300e+00 1.66597800e-01 3.73201500e+00
9.31160300e+00 1.66646100e-01 3.88298900e+00
9.45263600e+00 1.66548600e-01 3.58105800e+00
9.24107700e+00 1.66688000e-01 4.03396000e+00
9.59366000e+00 3.33239700e-01 3.27914400e+00
9.52316300e+00 3.33251400e-01 3.43011100e+00
9.38212900e+00 3.33294100e-01 3.73200200e+00
9.31160300e+00 3.33316500e-01 3.88297300e+00
9.59366300e+00 5.00000200e-01 3.27914500e+00
9.52316700e+00 5.00000200e-01 3.43010900e+00
9.38213000e+00 5.00000300e-01 3.73199900e+00
9.31160300e+00 5.00000300e-01 3.88297000e+00
9.45265000e+00 5.00000300e-01 3.58104500e+00
9.24107200e+00 5.00000300e-01 4.03393900e+00
9.59366000e+00 6.66760800e-01 3.27914400e+00
9.52316300e+00 6.66749100e-01 3.43011100e+00
9.38212900e+00 6.66706500e-01 3.73200200e+00
9.31160300e+00 6.66684100e-01 3.88297300e+00
9.45264800e+00 6.66729300e-01 3.58104700e+00
9.24107300e+00 6.66665200e-01 4.03394300e+00
9.59364600e+00 8.33527100e-01 3.27915100e+00
9.52314800e+00 8.33495600e-01 3.43011900e+00
9.38212300e+00 8.33402700e-01 3.73201500e+00
9.31160300e+00 8.33354500e-01 3.88298900e+00
9.17058600e+00 9.54502500e-05 4.18498400e+00
9.17057400e+00 1.66717600e-01 4.18494100e+00
9.17056700e+00 5.00000400e-01 4.18492400e+00
9.17056900e+00 6.66654500e-01 4.18492600e+00
9.59360500e+00 1.00032100e+00 3.27917300e+00
9.52310800e+00 1.00026100e+00 3.43014800e+00
9.38210300e+00 1.00010900e+00 3.73205900e+00
9.31159600e+00 1.00003100e+00 3.88303600e+00
9.45264800e+00 3.33271300e-01 3.58104700e+00
9.24107300e+00 3.33335400e-01 4.03394300e+00
9.17056900e+00 3.33346300e-01 4.18492600e+00
9.45263600e+00 8.33451900e-01 3.58105800e+00
9.24107700e+00 8.33312700e-01 4.03395900e+00
9.17057400e+00 8.33283200e-01 4.18494100e+00
9.45260400e+00 1.00018800e+00 3.58109500e+00
9.24108200e+00 9.99961800e-01 4.03400600e+00
9.17058600e+00 9.99905300e-01 4.18498400e+00
CELLS 432 3888
8	 0 49 53 7 1 50 54 8
8	 1 50 54 8 2 65 67 9
8	 2 65 67 9 3 51 55 10
8	 7 53 69 14 8 54 70 15
8	 8 54 70 15 9 67 73 18
8	 9 67 73 18 10 55 71 16
8	 14 69 57 21 15 70 58 22
8	 15 70 58 22 18 73 75 25
8	 18 73 75 25 16 71 59 23
8	 49 98 104 53 50 99 105 54
8	 50 99 105 54 65 100 108 67
8	 65 100 108 67 51 101 106 55
8	 53 104 110 69 54 105 111 70
8	 54 105 111 70 67 108 132 73
8	 67 108 132 73 55 106 112 71
8	 69 110 114 57 70 111 115 58
8	 70 111 115 58 73 132 116 75
8	 73 132 116 75 71 112 117 59
8	 98 147 153 104 99 148 154 105
8	 99 148 154 105 100 149 155 108
8	 100 149 155 108 101 150 156 106
8	 104 153 159 110 105 154 160 111
8	 105 154 160 111 108 155 181 132
8	 108 155 181 132 106 156 161 112
8	 110 159 163 114 111 160 164 115
8	 111 160 164 115 132 181 167 116
8	 132 181 167 116 112 161 165 117
8	 3 51 55 10 4 52 56 11
8	 4 52 56 11 5 66 68 12
8	 5 66 68 12 6 85 86 13
8	 10 55 71 16 11 56 72 17
8	 11 56 72 17 12 68 74 19
8	 12 68 74 19 13 86 87 20
8	 16 71 59 23 17 72 60 24
8	 17 72 60 24 19 74 76 26
8	 19 74 76 26 20 87 88 27
8	 51 101 106 55 52 102 107 56
8	 52 102 107 56 66 103 109 68
8	 66 103 109 68 85 130 131 86
8	 55 106 112 71 56 107 113 72
8	 56 107 113 72 68 109 133 74
8	 68 109 133 74 86 131 142 87
8	 71 112 117 59 72 113 118 60
8	 72 113 118 60 74 133 119 76
8	 74 133 119 76 87 142 134 88
8	 101 150 156 106 102 151 157 107
8	 102 151 157 107 103 152 158 109
8	 103 152 158 109 130 179 180 131
8	 106 156 161 112 107 157 162 113
8	 107 157 162 113 109 158 182 133
8	 109 158 182 133 131 180 183 142
8	 112 161 165 117 113 162 166 118
8	 113 162 166 118 133 182 168 119
8	 133 182 168 119 142 183 184 134
8	 21 57 61 28 22 58 62 29
8	 22 58 62 29 25 75 77 30
8	 25 75 77 30 23 59 63 31
8	 28 61 79 35 29 62 80 36
8	 29 62 80 36 30 77 81 37
8	 30 77 81 37 31 63 82 38
8	 35 79 91 42 36 80 92 43
8	 36 80 92 43 37 81 95 46
8	 37 81 95 46 38 82 93 44
8	 57 114 120 61 58 115 121 62
8	 58 115 121 62 75 116 124 77
8	 75 116 124 77 59 117 122 63
8	 61 120 126 79 62 121 127 80
8	 62 121 127 80 77 124 136 81
8	 77 124 136 81 63 122 128 82
8	 79 126 138 91 80 127 139 92
8	 80 127 139 92 81 136 144 95
8	 81 136 144 95 82 128 140 93
8	 114 163 169 120 115 164 170 121
8	 115 164 170 121 116 167 171 124
8	 116 167 171 124 117 165 172 122
8	 120 169 175 126 121 170 176 127
8	 121 170 176 127 124 171 186 136
8	 124 171 186 136 122 172 177 128
8	 126 175 189 138 127 176 190 139
8	 127 176 190 139 136 186 193 144
8	 136 186 193 144 128 177 191 140
8	 23 59 63 31 24 60 64 32
8	 24 60 64 32 26 76 78 33
8	 26 76 78 33 27 88 89 34
8	 31 63 82 38 32 64 83 39
8	 32 64 83 39 33 78 84 40
8	 33 78 84 40 34 89 90 41
8	 38 82 93 44 39 83 94 45
8	 39 83 94 45 40 84 96 47
8	 40 84 96 47 41 90 97 48
8	 59 117 122 63 60 118 123 64
8	 60 118 123 64 76 119 125 78
8	 76 119 125 78 88 134 135 89
8	 63 122 128 82 64 123 129 83
8	 64 123 129 83 78 125 137 84
8	 78 125 137 84 89 135 143 90
8	 82 128 140 93 83 129 141 94
8	 83 129 141 94 84 137 145 96
8	 84 137 145 96 90 143 146 97
8	 117 165 172 122 118 166 173 123
8	 118 166 173 123 119 168 174 125
8	 119 168 174 125 134 184 185 135
8	 122 172 177 128 123 173 178 129
8	 123 173 178 129 125 174 187 137
8	 125 174 187 137 135 185 188 143
8	 128 177 191 140 129 178 192 141
8	 129 178 192 141 137 187 194 145
8	 137 187 194 145 143 188 195 146
8	 147 196 200 153 148 197 201 154
8	 148 197 201 154 149 212 214 155
8	 149 212 214 155 150 198 202 156
8	 153 200 216 159 154 201 217 160
8	 154 201 217 160 155 214 220 181
8	 155 214 220 181 156 202 218 161
8	 159 216 204 163 160 217 205 164
8	 160 217 205 164 181 220 222 167
8	 181 220 222 167 161 218 206 165
8	 196 245 249 200 197 246 250 201
8	 197 246 250 201 212 261 264 214
8	 212 261 264 214 198 247 251 202
8	 200 249 267 216 201 250 268 217
8	 201 250 268 217 214 264 271 220
8	 214 264 271 220 202 251 269 218
8	 216 267 253 204 217 268 254 205
8	 217 268 254 205 220 271 273 222
8	 220 271 273 222 218 269 255 206
8	 245 294 300 249 246 295 301 250
8	 246 295 301 250 261 296 302 264
8	 261 296 302 264 247 297 303 251
8	 249 300 306 267 250 301 307 268
8	 250 301 307 268 264 302 328 271
8	 264 302 328 271 251 303 308 269
8	 267 306 310 253 268 307 311 254
8	 268 307 311 254 271 328 314 273
8	 271 328 314 273 269 308 312 255
8	 150 198 202 156 151 199 203 157
8	 151 199 203 157 152 213 215 158
8	 152 213 215 158 179 232 233 180
8	 156 202 218 161 157 203 219 162
8	 157 203 219 162 158 215 221 182
8	 158 215 221 182 180 233 234 183
8	 161 218 206 165 162 219 207 166
8	 162 219 207 166 182 221 223 168
8	 182 221 223 168 183 234 235 184
8	 198 247 251 202 199 248 252 203
8	 199 248 252 203 213 262 265 215
8	 213 262 265 215 232 263 266 233
8	 202 251 269 218 203 252 270 219
8	 203 252 270 219 215 265 272 221
8	 215 265 272 221 233 266 289 234
8	 218 269 255 206 219 270 256 207
8	 219 270 256 207 221 272 274 223
8	 221 272 274 223 234 289 275 235
8	 247 297 303 251 248 298 304 252
8	 248 298 304 252 262 299 305 265
8	 262 299 305 265 263 326 327 266
8	 251 303 308 269 252 304 309 270
8	 252 304 309 270 265 305 329 272
8	 265 305 329 272 266 327 330 289
8	 269 308 312 255 270 309 313 256
8	 270 309 313 256 272 329 315 274
8	 272 329 315 274 289 330 331 275
8	 163 204 208 169 164 205 209 170
8	 164 205 209 170 167 222 224 171
8	 167 222 224 171 165 206 210 172
8	 169 208 226 175 170 209 227 176
8	 170 209 227 176 171 224 228 186
8	 171 224 228 186 172 210 229 177
8	 175 226 238 189 176 227 239 190
8	 176 227 239 190 186 228 242 193
8	 186 228 242 193 177 229 240 191
8	 204 253 257 208 205 254 258 209
8	 205 254 258 209 222 273 276 224
8	 222 273 276 224 206 255 259 210
8	 208 257 279 226 209 258 280 227
8	 209 258 280 227 224 276 283 228
8	 224 276 283 228 210 259 281 229
8	 226 279 285 238 227 280 286 239
8	 227 280 286 239 228 283 291 242
8	 228 283 291 242 229 281 287 240
8	 253 310 316 257 254 311 317 258
8	 254 311 317 258 273 314 318 276
8	 273 314 318 276 255 312 319 259
8	 257 316 322 279 258 317 323 280
8	 258 317 323 280 276 318 333 283
8	 276 318 333 283 259 319 324 281
8	 279 322 336 285 280 323 337 286
8	 280 323 337 286 283 333 340 291
8	 283 333 340 291 281 324 338 287
8	 165 206 210 172 166 207 211 173
8	 166 207 211 173 168 223 225 174
8	 168 223 225 174 184 235 236 185
8	 172 210 229 177 173 211 230 178
8	 173 211 230 178 174 225 231 187
8	 174 225 231 187 185 236 237 188
8	 177 229 240 191 178 230 241 192
8	 178 230 241 192 187 231 243 194
8	 187 231 243 194 188 237 244 195
8	 206 255 259 210 207 256 260 211
8	 207 256 260 211 223 274 277 225
8	 223 274 277 225 235 275 278 236
8	 210 259 281 229 211 260 282 230
8	 211 260 282 230 225 277 284 231
8	 225 277 284 231 236 278 290 237
8	 229 281 287 240 230 282 288 241
8	 230 282 288 241 231 284 292 243
8	 231 284 292 243 237 290 293 244
8	 255 312 319 259 256 313 320 260
8	 256 313 320 260 274 315 321 277
8	 274 315 321 277 275 331 332 278
8	 259 319 324 281 260 320 325 282
8	 260 320 325 282 277 321 334 284
8	 277 321 334 284 278 332 335 290
8	 281 324 338 287 282 325 339 288
8	 282 325 339 288 284 334 341 292
8	 284 334 341 292 290 335 342 293
8	 294 343 349 300 295 344 350 301
8	 295 344 350 301 296 345 351 302
8	 296 345 351 302 297 346 352 303
8	 300 349 355 306 301 350 356 307
8	 301 350 356 307 302 351 377 328
8	 302 351 377 328 303 352 357 308
8	 306 355 359 310 307 356 360 311
8	 307 356 360 311 328 377 363 314
8	 328 377 363 314 308 357 361 312
8	 343 392 398 349 344 393 399 350
8	 344 393 399 350 345 394 402 351
8	 345 394 402 351 346 395 400 352
8	 349 398 404 355 350 399 405 356
8	 350 399 405 356 351 402 426 377
8	 351 402 426 377 352 400 406 357
8	 355 404 408 359 356 405 409 360
8	 356 405 409 360 377 426 410 363
8	 377 426 410 363 357 406 411 361
8	 392 441 445 398 393 442 446 399
8	 393 442 446 399 394 457 459 402
8	 394 457 459 402 395 443 447 400
8	 398 445 461 404 399 446 462 405
8	 399 446 462 405 402 459 465 426
8	 402 459 465 426 400 447 463 406
8	 404 461 449 408 405 462 450 409
8	 405 462 450 409 426 465 467 410
8	 426 465 467 410 406 463 451 411
8	 297 346 352 303 298 347 353 304
8	 298 347 353 304 299 348 354 305
8	 299 348 354 305 326 375 376 327
8	 303 352 357 308 304 353 358 309
8	 304 353 358 309 305 354 378 329
8	 305 354 378 329 327 376 387 330
8	 308 357 361 312 309 358 362 313
8	 309 358 362 313 329 378 364 315
8	 329 378 364 315 330 387 379 331
8	 346 395 400 352 347 396 401 353
8	 347 396 401 353 348 397 403 354
8	 348 397 403 354 375 424 425 376
8	 352 400 406 357 353 401 407 358
8	 353 401 407 358 354 403 427 378
8	 354 403 427 378 376 425 436 387
8	 357 406 411 361 358 407 412 362
8	 358 407 412 362 378 427 413 364
8	 378 427 413 364 387 436 428 379
8	 395 443 447 400 396 444 448 401
8	 396 444 448 401 397 458 460 403
8	 397 458 460 403 424 477 478 425
8	 400 447 463 406 401 448 464 407
8	 401 448 464 407 403 460 466 427
8	 403 460 466 427 425 478 485 436
8	 406 463 451 411 407 464 452 412
8	 407 464 452 412 427 466 468 413
8	 427 466 468 413 436 485 479 428
8	 310 359 365 316 311 360 366 317
8	 311 360 366 317 314 363 367 318
8	 314 363 367 318 312 361 368 319
8	 316 365 371 322 317 366 372 323
8	 317 366 372 323 318 367 381 333
8	 318 367 381 333 319 368 373 324
8	 322 371 383 336 323 372 384 337
8	 323 372 384 337 333 381 389 340
8	 333 381 389 340 324 373 385 338
8	 359 408 414 365 360 409 415 366
8	 360 409 415 366 363 410 418 367
8	 363 410 418 367 361 411 416 368
8	 365 414 420 371 366 415 421 372
8	 366 415 421 372 367 418 430 381
8	 367 418 430 381 368 416 422 373
8	 371 420 432 383 372 421 433 384
8	 372 421 433 384 381 430 438 389
8	 381 430 438 389 373 422 434 385
8	 408 449 453 414 409 450 454 415
8	 409 450 454 415 410 467 469 418
8	 410 467 469 418 411 451 455 416
8	 414 453 471 420 415 454 472 421
8	 415 454 472 421 418 469 473 430
8	 418 469 473 430 416 455 474 422
8	 420 471 481 432 421 472 482 433
8	 421 472 482 433 430 473 487 438
8	 430 473 487 438 422 474 483 434
8	 312 361 368 319 313 362 369 320
8	 313 362 369 320 315 364 370 321
8	 315 364 370 321 331 379 380 332
8	 319 368 373 324 320 369 374 325
8	 320 369 374 325 321 370 382 334
8	 321 370 382 334 332 380 388 335
8	 324 373 385 338 325 374 386 339
8	 325 374 386 339 334 382 390 341
8	 334 382 390 341 335 388 391 342
8	 361 411 416 368 362 412 417 369
8	 362 412 417 369 364 413 419 370
8	 364 413 419 370 379 428 429 380
8	 368 416 422 373 369 417 423 374
8	 369 417 423 374 370 419 431 382
8	 370 419 431 382 380 429 437 388
8	 373 422 434 385 374 423 435 386
8	 374 423 435 386 382 431 439 390
8	 382 431 439 390 388 437 440 391
8	 411 451 455 416 412 452 456 417
8	 412 452 456 417 413 468 470 419
8	 413 468 470 419 428 479 480 429
8	 416 455 474 422 417 456 475 423
8	 417 456 475 423 419 470 476 431
8	 419 470 476 431 429 480 486 437
8	 422 474 483 434 423 475 484 435
8	 423 475 484 435 431 476 488 439
8	 431 476 488 439 437 486 489 440
8	 441 490 494 445 442 491 495 446
8	 442 491 495 446 457 506 509 459
8	 457 506 509 459 443 492 496 447
8	 445 494 512 461 446 495 513 462
8	 446 495 513 462 459 509 516 465
8	 459 509 516 465 447 496 514 463
8	 461 512 498 449 462 513 499 450
8	 462 513 499 450 465 516 518 467
8	 465 516 518 467 463 514 500 451
8	 490 539 545 494 491 540 546 495
8	 491 540 546 495 506 541 549 509
8	 506 541 549 509 492 542 547 496
8	 494 545 551 512 495 546 552 513
8	 495 546 552 513 509 549 573 516
8	 509 549 573 516 496 547 553 514
8	 512 551 555 498 513 552 556 499
8	 513 552 556 499 516 573 557 518
8	 516 573 557 518 514 553 558 500
8	 539 588 594 545 540 589 595 546
8	 540 589 595 546 541 590 598 549
8	 541 590 598 549 542 591 596 547
8	 545 594 600 551 546 595 601 552
8	 546 595 601 552 549 598 628 573
8	 549 598 628 573 547 596 602 553
8	 551 600 604 555 552 601 605 556
8	 552 601 605 556 573 628 608 557
8	 573 628 608 557 553 602 606 558
8	 443 492 496 447 444 493 497 448
8	 444 493 497 448 458 507 510 460
8	 458 507 510 460 477 508 511 478
8	 447 496 514 463 448 497 515 464
8	 448 497 515 464 460 510 517 466
8	 460 510 517 466 478 511 534 485
8	 463 514 500 451 464 515 501 452
8	 464 515 501 452 466 517 519 468
8	 466 517 519 468 485 534 520 479
8	 492 542 547 496 493 543 548 497
8	 493 543 548 497 507 544 550 510
8	 507 544 550 510 508 571 572 511
8	 496 547 553 514 497 548 554 515
8	 497 548 554 515 510 550 574 517
8	 510 550 574 517 511 572 575 534
8	 514 553 558 500 515 554 559 501
8	 515 554 559 501 517 574 560 519
8	 517 574 560 519 534 575 576 520
8	 542 591 596 547 543 592 597 548
8	 543 592 597 548 544 593 599 550
8	 544 593 599 550 571 620 621 572
8	 547 596 602 553 548 597 603 554
8	 548 597 603 554 550 599 629 574
8	 550 599 629 574 572 621 630 575
8	 553 602 606 558 554 603 607 559
8	 554 603 607 559 574 629 609 560
8	 574 629 609 560 575 630 622 576
8	 449 498 502 453 450 499 503 454
8	 450 499 503 454 467 518 521 469
8	 467 518 521 469 451 500 504 455
8	 453 502 524 471 454 503 525 472
8	 454 503 525 472 469 521 526 473
8	 469 521 526 473 455 504 527 474
8	 471 524 530 481 472 525 531 482
8	 472 525 531 482 473 526 536 487
8	 473 526 536 487 474 527 532 483
8	 498 555 561 502 499 556 562 503
8	 499 556 562 503 518 557 565 521
8	 518 557 565 521 500 558 563 504
8	 502 561 567 524 503 562 568 525
8	 503 562 568 525 521 565 578 526
8	 521 565 578 526 504 563 569 527
8	 524 567 581 530 525 568 582 531
8	 525 568 582 531 526 578 583 536
8	 526 578 583 536 527 569 584 532
8	 555 604 610 561 556 605 611 562
8	 556 605 611 562 557 608 614 565
8	 557 608 614 565 558 606 612 563
8	 561 610 616 567 562 611 617 568
8	 562 611 617 568 565 614 631 578
8	 565 614 631 578 563 612 618 569
8	 567 616 624 581 568 617 625 582
8	 568 617 625 582 578 631 634 583
8	 578 631 634 583 569 618 626 584
8	 451 500 504 455 452 501 505 456
8	 452 501 505 456 468 519 522 470
8	 468 519 522 470 479 520 523 480
8	 455 504 527 474 456 505 528 475
8	 456 505 528 475 470 522 529 476
8	 470 522 529 476 480 523 535 486
8	 474 527 532 483 475 528 533 484
8	 475 528 533 484 476 529 537 488
8	 476 529 537 488 486 535 538 489
8	 500 558 563 504 501 559 564 505
8	 501 559 564 505 519 560 566 522
8	 519 560 566 522 520 576 577 523
8	 504 563 569 527 505 564 570 528
8	 505 564 570 528 522 566 579 529
8	 522 566 579 529 523 577 580 535
8	 527 569 584 532 528 570 585 533
8	 528 570 585 533 529 579 586 537
8	 529 579 586 537 535 580 587 538
8	 558 606 612 563 559 607 613 564
8	 559 607 613 564 560 609 615 566
8	 560 609 615 566 576 622 623 577
8	 563 612 618 569 564 613 619 570
8	 564 613 619 570 566 615 632 579
8	 566 615 632 579 577 623 633 580
8	 569 618 626 584 570 619 627 585
8	 570 619 627 585 579 632 635 586
8	 579 632 635 586 580 633 636 587
CELL_TYPES 432
12
12
12
12
12
12
12
12
12
12
12
12
12
12
12
12
12
12
12
12
12
12
12
12
12
12
12
12
12
12
12
12
12
12
12
12
12
12
12
12
12
12
12
12
12
12
12
12
12
12
12
12
12
12
12
12
12
12
12
12
12
12
12
12
12
12
12
12
12
12
12
12
12
12
12
12
12
12
12
12
12
12
12
12
12
12
12
12
12
12
12
12
12
12
12
12
12
12
12
12
12
12
12
12
12
12
12
12
12
12
12
12
12
12
12
12
12
12
12
12
12
12
12
12
12
12
12
12
12
12
12
12
12
12
12
12
12
12
12
12
12
12
12
12
12
12
12
12
12
12
12
12
12
12
12
12
12
12
12
12
12
12
12
12
12
12
12
12
12
12
12
12
12
12
12
12
12
12
12
12
12
12
12
12
12
12
12
12
12
12
12
12
12
12
12
12
12
12
12
12
12
12
12
12
12
12
12
12
12
12
12
12
12
12
12
12
12
12
12
12
12
12
12
12
12
12
12
12
12
12
12
12
12
12
12
12
12
12
12
12
12
12
12
12
12
12
12
12
12
12
12
12
12
12
12
12
12
12
12
12
12
12
12
12
12
12
12
12
12
12
12
12
12
12
12
12
12
12
12
12
12
12
12
12
12
12
12
12
12
12
12
12
12
12
12
12
12
12
12
12
12
12
12
12
12
12
12
12
12
12
12
12
12
12
12
12
12
12
12
12
12
12
12
12
12
12
12
12
12
12
12
12
12
12
12
12
12
12
12
12
12
12
12
12
12
12
12
12
12
12
12
12
12
12
12
12
12
12
12
12
12
12
12
12
12
12
12
12
12
12
12
12
12
12
12
12
12
12
12
12
12
12
12
12
12
12
12
12
12
12
12
12
12
12
12
12
12
12
12
12
12
12
12
12
12
12
12
12
12
12
12
12
12
12
12
12
12
12
12
12
12
12
12
12
12
12
12
12
12
12
12
12
