# vtk DataFile Version 3.0
vtk output
ASCII
DATASET UNSTRUCTURED_GRID
POINTS 1000 float
0 0 0 0.268802 0.009411 0.008574 0.542197 0.012134 0.022685 
0.810588 0.011779 0.043488 1.07914 0.01168 0.073096 1.34586 0.011147 0.10969 
1.611 0.010613 0.153115 1.87433 0.010044 0.202792 2.13582 0.009478 0.258299 
2.39543 0.008917 0.319209 2.65316 0.008366 0.385122 2.90902 0.007827 0.455658 
3.16303 0.0073 0.530453 3.41525 0.006785 0.60916 3.66573 0.006285 0.691452 
3.91453 0.0058 0.777017 4.16172 0.00533 0.86556 4.40739 0.004876 0.956801 
4.65163 0.004438 1.05048 4.89452 0.004018 1.14635 5.13615 0.003615 1.24417 
5.37661 0.003231 1.34373 5.61599 0.002865 1.44483 5.85439 0.002518 1.54727 
6.09189 0.00219 1.65088 6.32859 0.001882 1.7555 6.56456 0.001595 1.86098 
6.79989 0.001327 1.96716 7.03466 0.00108 2.07395 7.26894 0.000854 2.1812 
7.5028 0.000648 2.28883 7.73631 0.000464 2.39674 7.96953 0.000301 2.50485 
8.20252 0.00016 2.6131 8.43533 4e-05 2.72141 8.668 -5.7e-05 2.82974 
8.90057 -0.000133 2.93806 9.1331 -0.000186 3.04633 9.3656 -0.000218 3.15455 
9.59811 -0.000238 3.26272 0 0.25 0 0.268246 0.254147 0.012457 
0.540945 0.255521 0.027351 0.81012 0.255773 0.04843 1.07859 0.255687 0.077905 
1.34531 0.255471 0.114316 1.6104 0.255214 0.157495 1.87369 0.254943 0.206913 
2.13515 0.254669 0.26216 2.39474 0.254398 0.322815 2.65246 0.25413 0.388481 
2.90832 0.253867 0.458778 3.16234 0.25361 0.533344 3.41458 0.253359 0.611832 
3.66508 0.253114 0.693914 3.91391 0.252876 0.779278 4.16115 0.252644 0.867629 
4.40686 0.252421 0.958688 4.65113 0.252205 1.05219 4.89406 0.251998 1.14789 
5.13574 0.251798 1.24557 5.37624 0.251608 1.34498 5.61566 0.251427 1.44594 
5.8541 0.251255 1.54825 6.09165 0.251092 1.65174 6.32838 0.250939 1.75625 
6.56439 0.250796 1.86161 6.79975 0.250662 1.96771 7.03455 0.250539 2.0744 
7.26886 0.250426 2.18157 7.50275 0.250324 2.28913 7.73628 0.250232 2.39697 
7.96952 0.250151 2.50502 8.20252 0.25008 2.61321 8.43534 0.25002 2.72148 
8.66802 0.249972 2.82978 8.9006 0.249934 2.93806 9.13313 0.249908 3.04632 
9.36563 0.249892 3.15453 9.59814 0.24988 3.26269 0 0.5 0 
0.268183 0.5 0.013656 0.540731 0.5 0.028776 0.809882 0.5 0.049926 
1.07837 0.5 0.079397 1.34508 0.5 0.115775 1.61015 0.5 0.158887 
1.87343 0.5 0.208229 2.13488 0.5 0.263396 2.39447 0.5 0.323971 
2.65219 0.5 0.389559 2.90805 0.5 0.459781 3.16208 0.5 0.534274 
3.41432 0.5 0.612691 3.66483 0.5 0.694706 3.91367 0.5 0.780005 
4.16092 0.5 0.868295 4.40664 0.5 0.959295 4.65093 0.5 1.05274 
4.89388 0.5 1.14839 5.13557 0.5 1.24601 5.37609 0.5 1.34538 
5.61553 0.5 1.4463 5.85398 0.5 1.54857 6.09154 0.5 1.65202 
6.32829 0.5 1.75648 6.56431 0.5 1.86182 6.79969 0.5 1.96788 
7.0345 0.5 2.07454 7.26882 0.5 2.18169 7.50272 0.5 2.28922 
7.73626 0.5 2.39704 7.96951 0.5 2.50507 8.20251 0.5 2.61325 
8.43534 0.5 2.7215 8.66802 0.5 2.82978 8.90061 0.5 2.93807 
9.13314 0.5 3.04631 9.36564 0.5 3.15452 9.59815 0.5 3.26269 
0 0.75 0 0.268246 0.745853 0.012457 0.540945 0.744479 0.027351 
0.81012 0.744227 0.04843 1.07859 0.744313 0.077905 1.34531 0.744529 0.114316 
1.6104 0.744786 0.157495 1.87369 0.745057 0.206913 2.13515 0.745331 0.26216 
2.39474 0.745602 0.322815 2.65246 0.74587 0.388481 2.90832 0.746133 0.458778 
3.16234 0.74639 0.533344 3.41458 0.746641 0.611832 3.66508 0.746886 0.693914 
3.91391 0.747124 0.779278 4.16115 0.747356 0.867629 4.40686 0.747579 0.958688 
4.65113 0.747795 1.05219 4.89406 0.748002 1.14789 5.13574 0.748202 1.24557 
5.37624 0.748392 1.34498 5.61566 0.748573 1.44594 5.8541 0.748745 1.54825 
6.09165 0.748908 1.65174 6.32838 0.749061 1.75625 6.56439 0.749204 1.86161 
6.79975 0.749338 1.96771 7.03455 0.749461 2.0744 7.26886 0.749574 2.18157 
7.50275 0.749676 2.28913 7.73628 0.749768 2.39697 7.96952 0.749849 2.50502 
8.20252 0.74992 2.61321 8.43534 0.74998 2.72148 8.66802 0.750028 2.82978 
8.9006 0.750066 2.93806 9.13313 0.750092 3.04632 9.36563 0.750108 3.15453 
9.59814 0.75012 3.26269 0 1 0 0.268802 0.990589 0.008574 
0.542197 0.987866 0.022685 0.810588 0.988221 0.043488 1.07914 0.98832 0.073096 
1.34586 0.988853 0.10969 1.611 0.989387 0.153115 1.87433 0.989956 0.202792 
2.13582 0.990522 0.258299 2.39543 0.991083 0.319209 2.65316 0.991634 0.385122 
2.90902 0.992173 0.455658 3.16303 0.9927 0.530453 3.41525 0.993215 0.60916 
3.66573 0.993715 0.691452 3.91453 0.9942 0.777017 4.16172 0.99467 0.86556 
4.40739 0.995124 0.956801 4.65163 0.995562 1.05048 4.89452 0.995982 1.14635 
5.13615 0.996385 1.24417 5.37661 0.996769 1.34373 5.61599 0.997135 1.44483 
5.85439 0.997482 1.54727 6.09189 0.99781 1.65088 6.32859 0.998118 1.7555 
6.56456 0.998405 1.86098 6.79989 0.998673 1.96716 7.03466 0.99892 2.07395 
7.26894 0.999146 2.1812 7.5028 0.999352 2.28883 7.73631 0.999536 2.39674 
7.96953 0.999699 2.50485 8.20252 0.99984 2.6131 8.43533 0.99996 2.72141 
8.668 1.00006 2.82974 8.90057 1.00013 2.93806 9.1331 1.00019 3.04633 
9.3656 1.00022 3.15455 9.59811 1.00024 3.26272 0 0 0.25 
0.26181 0.0043 0.253068 0.526399 0.005169 0.26593 0.78867 0.004873 0.287156 
1.05033 0.004868 0.316104 1.31069 0.004683 0.352192 1.56974 0.004504 0.394923 
1.82735 0.004305 0.443836 2.08346 0.0041 0.498504 2.33804 0.003891 0.558526 
2.59107 0.00368 0.623521 2.84254 0.003468 0.693122 3.09249 0.003257 0.766981 
3.34093 0.003046 0.844765 3.58792 0.002838 0.926156 3.83351 0.002632 1.01085 
4.07776 0.00243 1.09856 4.32073 0.002231 1.18901 4.56251 0.002038 1.28195 
4.80316 0.001849 1.37713 5.04278 0.001667 1.47433 5.28143 0.00149 1.57331 
5.51919 0.001321 1.67389 5.75615 0.001159 1.77587 5.99238 0.001005 1.87907 
6.22797 0.000858 1.98333 6.46298 0.000721 2.0885 6.69749 0.000592 2.19443 
6.93156 0.000473 2.30101 7.16526 0.000362 2.40809 7.39865 0.000262 2.51559 
7.63178 0.000172 2.6234 7.86471 9.2e-05 2.73145 8.09748 2.2e-05 2.83965 
8.33013 -3.8e-05 2.94794 8.5627 -8.6e-05 3.05627 8.79522 -0.000124 3.16459 
9.02772 -0.000151 3.27288 9.26022 -0.000169 3.38111 9.49273 -0.000194 3.48927 
0 0.25 0.25 0.261526 0.252005 0.256003 0.52557 0.252373 0.270204 
0.788187 0.252428 0.291929 1.04975 0.252381 0.32088 1.31007 0.252299 0.356809 
1.56907 0.252207 0.399303 1.82664 0.252111 0.447957 2.08273 0.252013 0.502364 
2.33729 0.251912 0.562129 2.59031 0.251811 0.626875 2.84179 0.251709 0.696237 
3.09175 0.251606 0.769866 3.34021 0.251504 0.847429 3.58723 0.251403 0.928609 
3.83285 0.251302 1.0131 4.07714 0.251203 1.10062 4.32015 0.251106 1.19089 
4.56197 0.251011 1.28366 4.80267 0.250918 1.37867 5.04233 0.250828 1.47571 
5.28102 0.250741 1.57455 5.51883 0.250657 1.67499 5.75584 0.250577 1.77684 
5.99211 0.2505 1.87992 6.22774 0.250428 1.98407 6.46279 0.250359 2.08913 
6.69733 0.250295 2.19497 6.93143 0.250235 2.30145 7.16516 0.250181 2.40846 
7.39858 0.250131 2.51588 7.63173 0.250085 2.62363 7.86468 0.250045 2.73161 
8.09747 0.25001 2.83976 8.33013 0.249981 2.94801 8.56271 0.249957 3.0563 
8.79524 0.249938 3.1646 9.02775 0.249925 3.27287 9.26025 0.249915 3.38108 
9.49276 0.249906 3.48925 0 0.5 0.25 0.261384 0.5 0.25663 
0.52533 0.5 0.271318 0.787985 0.5 0.293294 1.04955 0.5 0.322334 
1.30986 0.5 0.358255 1.56884 0.5 0.400696 1.8264 0.5 0.449278 
2.08247 0.5 0.503607 2.33703 0.5 0.563293 2.59005 0.5 0.627961 
2.84153 0.5 0.697247 3.09149 0.5 0.770803 3.33997 0.5 0.848296 
3.58699 0.5 0.929408 3.83262 0.5 1.01384 4.07692 0.5 1.10129 
4.31995 0.5 1.1915 4.56178 0.5 1.28421 4.8025 0.5 1.37918 
5.04218 0.5 1.47617 5.28088 0.5 1.57496 5.5187 0.5 1.67535 
5.75572 0.5 1.77716 5.99201 0.5 1.8802 6.22765 0.5 1.98431 
6.46271 0.5 2.08934 6.69727 0.5 2.19515 6.93138 0.5 2.3016 
7.16512 0.5 2.40858 7.39855 0.5 2.51598 7.63171 0.5 2.6237 
7.86467 0.5 2.73167 8.09746 0.5 2.8398 8.33013 0.5 2.94803 
8.56271 0.5 3.05631 8.79525 0.5 3.1646 9.02775 0.5 3.27286 
9.26025 0.5 3.38108 9.49277 0.5 3.48924 0 0.75 0.25 
0.261526 0.747995 0.256003 0.52557 0.747627 0.270204 0.788187 0.747572 0.291929 
1.04975 0.747619 0.32088 1.31007 0.747701 0.356809 1.56907 0.747793 0.399303 
1.82664 0.747889 0.447957 2.08273 0.747987 0.502364 2.33729 0.748088 0.562129 
2.59031 0.748189 0.626875 2.84179 0.748291 0.696237 3.09175 0.748394 0.769866 
3.34021 0.748496 0.847429 3.58723 0.748597 0.928609 3.83285 0.748698 1.0131 
4.07714 0.748797 1.10062 4.32015 0.748894 1.19089 4.56197 0.748989 1.28366 
4.80267 0.749082 1.37867 5.04233 0.749172 1.47571 5.28102 0.749259 1.57455 
5.51883 0.749343 1.67499 5.75584 0.749423 1.77684 5.99211 0.7495 1.87992 
6.22774 0.749572 1.98407 6.46279 0.749641 2.08913 6.69733 0.749705 2.19497 
6.93143 0.749765 2.30145 7.16516 0.749819 2.40846 7.39858 0.749869 2.51588 
7.63173 0.749915 2.62363 7.86468 0.749955 2.73161 8.09747 0.74999 2.83976 
8.33013 0.750019 2.94801 8.56271 0.750043 3.0563 8.79524 0.750062 3.1646 
9.02775 0.750075 3.27287 9.26025 0.750085 3.38108 9.49276 0.750094 3.48925 
0 1 0.25 0.26181 0.9957 0.253068 0.526399 0.994831 0.26593 
0.78867 0.995127 0.287156 1.05033 0.995132 0.316104 1.31069 0.995317 0.352192 
1.56974 0.995496 0.394923 1.82735 0.995695 0.443836 2.08346 0.9959 0.498504 
2.33804 0.996109 0.558526 2.59107 0.99632 0.623521 2.84254 0.996532 0.693122 
3.09249 0.996743 0.766981 3.34093 0.996954 0.844765 3.58792 0.997162 0.926156 
3.83351 0.997368 1.01085 4.07776 0.99757 1.09856 4.32073 0.997769 1.18901 
4.56251 0.997962 1.28195 4.80316 0.998151 1.37713 5.04278 0.998333 1.47433 
5.28143 0.99851 1.57331 5.51919 0.998679 1.67389 5.75615 0.998841 1.77587 
5.99238 0.998995 1.87907 6.22797 0.999142 1.98333 6.46298 0.999279 2.0885 
6.69749 0.999408 2.19443 6.93156 0.999527 2.30101 7.16526 0.999638 2.40809 
7.39865 0.999738 2.51559 7.63178 0.999828 2.6234 7.86471 0.999908 2.73145 
8.09748 0.999978 2.83965 8.33013 1.00004 2.94794 8.5627 1.00009 3.05627 
8.79522 1.00012 3.16459 9.02772 1.00015 3.27288 9.26022 1.00017 3.38111 
9.49273 1.00019 3.48927 0 0 0.5 0.256046 -0.001461 0.50036 
0.512072 -0.001906 0.512813 0.767727 -0.001898 0.533785 1.02258 -0.001782 0.562221 
1.27651 -0.001609 0.597679 1.52942 -0.001437 0.639636 1.78125 -0.00128 0.687669 
2.03192 -0.00114 0.741378 2.28141 -0.001015 0.800388 2.52968 -0.000902 0.864338 
2.77673 -0.0008 0.93288 3.02256 -0.000709 1.00568 3.2672 -0.000627 1.08242 
3.51068 -0.000553 1.16279 3.75303 -0.000488 1.24649 3.9943 -0.00043 1.33325 
4.23456 -0.000379 1.4228 4.47386 -0.000334 1.51489 4.71227 -0.000295 1.60927 
4.94985 -0.000262 1.70573 5.18667 -0.000233 1.80404 5.4228 -0.000209 1.904 
5.65831 -0.000188 2.00542 5.89326 -0.000171 2.10812 6.12772 -0.000157 2.21194 
6.36175 -0.000146 2.31672 6.59542 -0.000137 2.42232 6.82878 -0.000129 2.52861 
7.06188 -0.000124 2.63546 7.29477 -0.00012 2.74276 7.5275 -0.000117 2.85041 
7.76011 -0.000115 2.95833 7.99263 -0.000113 3.06644 8.2251 -0.000112 3.17466 
8.45754 -0.000112 3.28294 8.68997 -0.000111 3.39124 8.92241 -0.000111 3.49951 
9.15488 -0.000111 3.60773 9.38739 -0.000111 3.71588 0 0.25 0.5 
0.256169 0.24928 0.503168 0.511943 0.248994 0.517107 0.76725 0.248963 0.538485 
1.02191 0.249029 0.566916 1.27572 0.249123 0.602193 1.52856 0.249218 0.643906 
1.78034 0.249304 0.691681 2.03099 0.24938 0.745133 2.28047 0.249449 0.803891 
2.52874 0.249511 0.867597 2.7758 0.249567 0.935904 3.02166 0.249617 1.00848 
3.26632 0.249662 1.085 3.50983 0.249703 1.16516 3.75222 0.249739 1.24867 
3.99354 0.249771 1.33524 4.23384 0.249799 1.42461 4.47319 0.249823 1.51653 
4.71165 0.249844 1.61075 4.94929 0.249863 1.70706 5.18616 0.249879 1.80522 
5.42234 0.249892 1.90505 5.6579 0.249903 2.00634 5.8929 0.249912 2.10893 
6.1274 0.24992 2.21264 6.36148 0.249926 2.31732 6.59519 0.249931 2.42283 
6.82858 0.249935 2.52902 7.06172 0.249938 2.63579 7.29464 0.24994 2.74303 
7.5274 0.249942 2.85062 7.76004 0.249943 2.95848 7.99258 0.249943 3.06654 
8.22507 0.249944 3.17472 8.45753 0.249944 3.28297 8.68997 0.249944 3.39124 
8.92243 0.249944 3.49949 9.1549 0.249944 3.6077 9.3874 0.249944 3.71585 
0 0.5 0.5 0.256164 0.5 0.50357 0.511893 0.5 0.518187 
0.767121 0.5 0.539872 1.02171 0.5 0.568405 1.27547 0.5 0.603666 
1.52829 0.5 0.645321 1.78005 0.5 0.693018 2.03069 0.5 0.746387 
2.28016 0.5 0.805063 2.52843 0.5 0.868688 2.7755 0.5 0.936917 
3.02136 0.5 1.00942 3.26603 0.5 1.08586 3.50955 0.5 1.16596 
3.75195 0.5 1.2494 3.99329 0.5 1.33591 4.23361 0.5 1.42522 
4.47297 0.5 1.51708 4.71144 0.5 1.61125 4.9491 0.5 1.70751 
5.18599 0.5 1.80562 5.42218 0.5 1.9054 5.65776 0.5 2.00665 
5.89277 0.5 2.1092 6.1273 0.5 2.21287 6.36139 0.5 2.31752 
6.59511 0.5 2.423 6.82852 0.5 2.52917 7.06167 0.5 2.63591 
7.2946 0.5 2.74312 7.52737 0.5 2.85069 7.76001 0.5 2.95853 
7.99257 0.5 3.06657 8.22506 0.5 3.17474 8.45752 0.5 3.28298 
8.68997 0.5 3.39124 8.92243 0.5 3.49948 9.1549 0.5 3.60769 
9.3874 0.5 3.71584 0 0.75 0.5 0.256169 0.75072 0.503168 
0.511943 0.751006 0.517107 0.76725 0.751037 0.538485 1.02191 0.750971 0.566916 
1.27572 0.750877 0.602193 1.52856 0.750782 0.643906 1.78034 0.750696 0.691681 
2.03099 0.75062 0.745133 2.28047 0.750551 0.803891 2.52874 0.750489 0.867597 
2.7758 0.750433 0.935904 3.02166 0.750383 1.00848 3.26632 0.750338 1.085 
3.50983 0.750297 1.16516 3.75222 0.750261 1.24867 3.99354 0.750229 1.33524 
4.23384 0.750201 1.42461 4.47319 0.750177 1.51653 4.71165 0.750156 1.61075 
4.94929 0.750137 1.70706 5.18616 0.750121 1.80522 5.42234 0.750108 1.90505 
5.6579 0.750097 2.00634 5.8929 0.750088 2.10893 6.1274 0.75008 2.21264 
6.36148 0.750074 2.31732 6.59519 0.750069 2.42283 6.82858 0.750065 2.52902 
7.06172 0.750062 2.63579 7.29464 0.75006 2.74303 7.5274 0.750058 2.85062 
7.76004 0.750057 2.95848 7.99258 0.750057 3.06654 8.22507 0.750056 3.17472 
8.45753 0.750056 3.28297 8.68997 0.750056 3.39124 8.92243 0.750056 3.49949 
9.1549 0.750056 3.6077 9.3874 0.750056 3.71585 0 1 0.5 
0.256046 1.00146 0.50036 0.512072 1.00191 0.512813 0.767727 1.0019 0.533785 
1.02258 1.00178 0.562221 1.27651 1.00161 0.597679 1.52942 1.00144 0.639636 
1.78125 1.00128 0.687669 2.03192 1.00114 0.741378 2.28141 1.00101 0.800388 
2.52968 1.0009 0.864338 2.77673 1.0008 0.93288 3.02256 1.00071 1.00568 
3.2672 1.00063 1.08242 3.51068 1.00055 1.16279 3.75303 1.00049 1.24649 
3.9943 1.00043 1.33325 4.23456 1.00038 1.4228 4.47386 1.00033 1.51489 
4.71227 1.0003 1.60927 4.94985 1.00026 1.70573 5.18667 1.00023 1.80404 
5.4228 1.00021 1.904 5.65831 1.00019 2.00542 5.89326 1.00017 2.10812 
6.12772 1.00016 2.21194 6.36175 1.00015 2.31672 6.59542 1.00014 2.42232 
6.82878 1.00013 2.52861 7.06188 1.00012 2.63546 7.29477 1.00012 2.74276 
7.5275 1.00012 2.85041 7.76011 1.00012 2.95833 7.99263 1.00011 3.06644 
8.2251 1.00011 3.17466 8.45754 1.00011 3.28294 8.68997 1.00011 3.39124 
8.92241 1.00011 3.49951 9.15488 1.00011 3.60773 9.38739 1.00011 3.71588 
0 0 0.75 0.250236 -0.007156 0.751839 0.497476 -0.008907 0.763533 
0.746497 -0.008443 0.78388 0.994388 -0.008142 0.811655 1.24179 -0.007602 0.846301 
1.4885 -0.007099 0.887302 1.7345 -0.006615 0.934273 1.97971 -0.00616 0.986847 
2.2241 -0.005727 1.04467 2.46762 -0.005315 1.10741 2.71025 -0.004922 1.17474 
2.95199 -0.004547 1.24633 3.19284 -0.004189 1.32187 3.43282 -0.003849 1.40108 
3.67196 -0.003526 1.48366 3.9103 -0.00322 1.56935 4.14787 -0.00293 1.65787 
4.38473 -0.002657 1.749 4.62092 -0.002399 1.84248 4.85651 -0.002157 1.9381 
5.09154 -0.001929 2.03563 5.32607 -0.001716 2.13488 5.56015 -0.001518 2.23566 
5.79386 -0.001333 2.33779 6.02722 -0.001162 2.44109 6.26031 -0.001004 2.54542 
6.49317 -0.000859 2.65062 6.72583 -0.000727 2.75656 6.95836 -0.000607 2.86312 
7.19077 -0.000499 2.97018 7.42312 -0.000404 3.07763 7.65543 -0.00032 3.18539 
7.88772 -0.000247 3.29337 8.12001 -0.000186 3.40149 8.35233 -0.000137 3.50971 
8.58469 -9.9e-05 3.61795 8.81708 -7.2e-05 3.72619 9.04952 -5.3e-05 3.8344 
9.28201 -2.8e-05 3.94255 0 0.25 0.75 0.250778 0.246493 0.755061 
0.498106 0.245646 0.76807 0.74596 0.245607 0.788645 0.993603 0.245841 0.816301 
1.24081 0.246119 0.850724 1.48744 0.246391 0.891471 1.7334 0.246643 0.938184 
1.9786 0.246878 0.990503 2.22298 0.2471 1.04808 2.46651 0.247311 1.11058 
2.70916 0.247512 1.17767 2.95092 0.247703 1.24904 3.1918 0.247886 1.32437 
3.43182 0.248059 1.40337 3.67101 0.248223 1.48576 3.90939 0.248379 1.57126 
4.14702 0.248525 1.65962 4.38393 0.248664 1.75057 4.62018 0.248794 1.8439 
4.85583 0.248917 1.93937 5.09091 0.249032 2.03676 5.3255 0.249139 2.13588 
5.55964 0.249239 2.23654 5.7934 0.249332 2.33855 6.02682 0.249418 2.44175 
6.25996 0.249498 2.54597 6.49286 0.24957 2.65108 6.72557 0.249637 2.75694 
6.95814 0.249697 2.86343 7.19059 0.249751 2.97042 7.42298 0.249799 3.07781 
7.65531 0.249841 3.18552 7.88764 0.249877 3.29345 8.11996 0.249907 3.40154 
8.3523 0.249932 3.50972 8.58467 0.249951 3.61794 8.81708 0.249964 3.72617 
9.04953 0.249974 3.83436 9.28201 0.249983 3.94251 0 0.5 0.75 
0.250942 0.5 0.755884 0.498255 0.5 0.769383 0.745909 0.5 0.790143 
0.993403 0.5 0.817844 1.24053 0.5 0.852225 1.48712 0.5 0.8929 
1.73305 0.5 0.939529 1.97824 0.5 0.991762 2.22262 0.5 1.04926 
2.46615 0.5 1.11167 2.7088 0.5 1.17868 2.95058 0.5 1.24997 
3.19147 0.5 1.32523 3.4315 0.5 1.40416 3.6707 0.5 1.48648 
3.9091 0.5 1.57192 4.14675 0.5 1.66022 4.38368 0.5 1.75111 
4.61994 0.5 1.84439 4.85561 0.5 1.9398 5.09071 0.5 2.03715 
5.32532 0.5 2.13622 5.55948 0.5 2.23684 5.79325 0.5 2.33881 
6.02669 0.5 2.44197 6.25984 0.5 2.54617 6.49276 0.5 2.65125 
6.72549 0.5 2.75708 6.95807 0.5 2.86353 7.19054 0.5 2.9705 
7.42293 0.5 3.07787 7.65528 0.5 3.18556 7.88761 0.5 3.29348 
8.11994 0.5 3.40156 8.35229 0.5 3.50973 8.58466 0.5 3.61794 
8.81707 0.5 3.72616 9.04953 0.5 3.83435 9.28201 0.5 3.9425 
0 0.75 0.75 0.250778 0.753507 0.755061 0.498106 0.754354 0.76807 
0.74596 0.754393 0.788645 0.993603 0.754159 0.816301 1.24081 0.753881 0.850724 
1.48744 0.753609 0.891471 1.7334 0.753357 0.938184 1.9786 0.753122 0.990503 
2.22298 0.7529 1.04808 2.46651 0.752689 1.11058 2.70916 0.752488 1.17767 
2.95092 0.752297 1.24904 3.1918 0.752114 1.32437 3.43182 0.751941 1.40337 
3.67101 0.751777 1.48576 3.90939 0.751621 1.57126 4.14702 0.751475 1.65962 
4.38393 0.751336 1.75057 4.62018 0.751206 1.8439 4.85583 0.751083 1.93937 
5.09091 0.750968 2.03676 5.3255 0.750861 2.13588 5.55964 0.750761 2.23654 
5.7934 0.750668 2.33855 6.02682 0.750582 2.44175 6.25996 0.750502 2.54597 
6.49286 0.75043 2.65108 6.72557 0.750363 2.75694 6.95814 0.750303 2.86343 
7.19059 0.750249 2.97042 7.42298 0.750201 3.07781 7.65531 0.750159 3.18552 
7.88764 0.750123 3.29345 8.11996 0.750093 3.40154 8.3523 0.750068 3.50972 
8.58467 0.750049 3.61794 8.81708 0.750036 3.72617 9.04953 0.750026 3.83436 
9.28201 0.750017 3.94251 0 1 0.75 0.250236 1.00716 0.751839 
0.497476 1.00891 0.763533 0.746497 1.00844 0.78388 0.994388 1.00814 0.811655 
1.24179 1.0076 0.846301 1.4885 1.0071 0.887302 1.7345 1.00662 0.934273 
1.97971 1.00616 0.986847 2.2241 1.00573 1.04467 2.46762 1.00531 1.10741 
2.71025 1.00492 1.17474 2.95199 1.00455 1.24633 3.19284 1.00419 1.32187 
3.43282 1.00385 1.40108 3.67196 1.00353 1.48366 3.9103 1.00322 1.56935 
4.14787 1.00293 1.65787 4.38473 1.00266 1.749 4.62092 1.0024 1.84248 
4.85651 1.00216 1.9381 5.09154 1.00193 2.03563 5.32607 1.00172 2.13488 
5.56015 1.00152 2.23566 5.79386 1.00133 2.33779 6.02722 1.00116 2.44109 
6.26031 1.001 2.54542 6.49317 1.00086 2.65062 6.72583 1.00073 2.75656 
6.95836 1.00061 2.86312 7.19077 1.0005 2.97018 7.42312 1.0004 3.07763 
7.65543 1.00032 3.18539 7.88772 1.00025 3.29337 8.12001 1.00019 3.40149 
8.35233 1.00014 3.50971 8.58469 1.0001 3.61795 8.81708 1.00007 3.72619 
9.04952 1.00005 3.8344 9.28201 1.00003 3.94255 0 0 1 
0.243855 -0.013156 1.00713 0.480098 -0.016077 1.01893 0.723973 -0.014697 1.03745 
0.963951 -0.014525 1.06477 1.20499 -0.013462 1.09816 1.44539 -0.012693 1.13798 
1.68561 -0.011877 1.18362 1.92539 -0.011121 1.23483 2.16473 -0.010387 1.29125 
2.40355 -0.009682 1.35257 2.64182 -0.009002 1.41848 2.87953 -0.008347 1.48867 
3.11667 -0.007719 1.56285 3.35323 -0.007117 1.64074 3.58924 -0.00654 1.72205 
3.82471 -0.005989 1.80652 4.05968 -0.005465 1.89391 4.29418 -0.004965 1.98395 
4.52824 -0.004491 2.07642 4.76192 -0.004042 2.1711 4.99524 -0.003618 2.26777 
5.22825 -0.003219 2.36623 5.461 -0.002844 2.46629 5.69353 -0.002493 2.56777 
5.92588 -0.002166 2.6705 6.1581 -0.001862 2.77432 6.39021 -0.001582 2.87908 
6.62226 -0.001326 2.98464 6.85428 -0.001092 3.09087 7.08628 -0.000881 3.19765 
7.31831 -0.000693 3.30488 7.55038 -0.000528 3.41246 7.78249 -0.000384 3.5203 
8.01468 -0.000264 3.62832 8.24693 -0.000165 3.73646 8.47925 -9e-05 3.84466 
8.71164 -3.6e-05 3.95288 8.94409 -4e-06 4.06107 9.17657 1.5e-05 4.16923 
0 0.25 1 0.244215 0.243873 1.01147 0.481828 0.242281 1.02398 
0.723013 0.242326 1.04266 0.963266 0.242689 1.06942 1.20389 0.243141 1.10263 
1.44429 0.243575 1.14214 1.68444 0.243986 1.18753 1.92422 0.244376 1.23847 
2.16355 0.24475 1.29464 2.40238 0.24511 1.35573 2.64067 0.245456 1.4214 
2.87841 0.245789 1.49137 3.11558 0.246108 1.56534 3.35219 0.246414 1.64302 
3.58824 0.246707 1.72414 3.82377 0.246986 1.80842 4.05879 0.247251 1.89563 
4.29335 0.247504 1.9855 4.52747 0.247743 2.07782 4.76121 0.24797 2.17235 
4.99459 0.248184 2.26888 5.22766 0.248385 2.36721 5.46046 0.248574 2.46715 
5.69305 0.24875 2.56852 5.92546 0.248915 2.67114 6.15772 0.249067 2.77486 
6.38989 0.249207 2.87953 6.62198 0.249336 2.985 6.85404 0.249453 3.09116 
7.08609 0.249559 3.19788 7.31815 0.249653 3.30505 7.55025 0.249736 3.41258 
7.7824 0.249808 3.52037 8.01461 0.249868 3.62836 8.24689 0.249917 3.73647 
8.47923 0.249955 3.84465 8.71163 0.249981 3.95284 8.94409 0.249997 4.06103 
9.17658 0.250009 4.16919 0 0.5 1 0.244308 0.5 1.01286 
0.481933 0.5 1.0257 0.723023 0.5 1.04429 0.963088 0.5 1.07103 
1.20363 0.5 1.10415 1.44398 0.5 1.14358 1.68411 0.5 1.18888 
1.92388 0.5 1.23974 2.16321 0.5 1.29582 2.40204 0.5 1.35682 
2.64034 0.5 1.42241 2.87808 0.5 1.49231 3.11526 0.5 1.5662 
3.35188 0.5 1.64381 3.58795 0.5 1.72486 3.82349 0.5 1.80909 
4.05854 0.5 1.89623 4.29311 0.5 1.98605 4.52725 0.5 2.07831 
4.761 0.5 2.17279 4.9944 0.5 2.26927 5.22749 0.5 2.36756 
5.46031 0.5 2.46745 5.69291 0.5 2.56878 5.92534 0.5 2.67137 
6.15762 0.5 2.77505 6.3898 0.5 2.87969 6.62191 0.5 2.98514 
6.85398 0.5 3.09127 7.08604 0.5 3.19796 7.31812 0.5 3.30511 
7.55022 0.5 3.41262 7.78238 0.5 3.5204 8.0146 0.5 3.62837 
8.24688 0.5 3.73647 8.47922 0.5 3.84464 8.71163 0.5 3.95284 
8.94409 0.5 4.06102 9.17658 0.5 4.16917 0 0.75 1 
0.244215 0.756127 1.01147 0.481828 0.757719 1.02398 0.723013 0.757674 1.04266 
0.963266 0.757311 1.06942 1.20389 0.756859 1.10263 1.44429 0.756425 1.14214 
1.68444 0.756014 1.18753 1.92422 0.755624 1.23847 2.16355 0.75525 1.29464 
2.40238 0.75489 1.35573 2.64067 0.754544 1.4214 2.87841 0.754211 1.49137 
3.11558 0.753892 1.56534 3.35219 0.753586 1.64302 3.58824 0.753293 1.72414 
3.82377 0.753014 1.80842 4.05879 0.752749 1.89563 4.29335 0.752496 1.9855 
4.52747 0.752257 2.07782 4.76121 0.75203 2.17235 4.99459 0.751816 2.26888 
5.22766 0.751615 2.36721 5.46046 0.751426 2.46715 5.69305 0.75125 2.56852 
5.92546 0.751085 2.67114 6.15772 0.750933 2.77486 6.38989 0.750793 2.87953 
6.62198 0.750664 2.985 6.85404 0.750547 3.09116 7.08609 0.750441 3.19788 
7.31815 0.750347 3.30505 7.55025 0.750264 3.41258 7.7824 0.750192 3.52037 
8.01461 0.750132 3.62836 8.24689 0.750083 3.73647 8.47923 0.750045 3.84465 
8.71163 0.750019 3.95284 8.94409 0.750003 4.06103 9.17658 0.749991 4.16919 
0 1 1 0.243855 1.01316 1.00713 0.480098 1.01608 1.01893 
0.723973 1.0147 1.03745 0.963951 1.01453 1.06477 1.20499 1.01346 1.09816 
1.44539 1.01269 1.13798 1.68561 1.01188 1.18362 1.92539 1.01112 1.23483 
2.16473 1.01039 1.29125 2.40355 1.00968 1.35257 2.64182 1.009 1.41848 
2.87953 1.00835 1.48867 3.11667 1.00772 1.56285 3.35323 1.00712 1.64074 
3.58924 1.00654 1.72205 3.82471 1.00599 1.80652 4.05968 1.00547 1.89391 
4.29418 1.00496 1.98395 4.52824 1.00449 2.07642 4.76192 1.00404 2.1711 
4.99524 1.00362 2.26777 5.22825 1.00322 2.36623 5.461 1.00284 2.46629 
5.69353 1.00249 2.56777 5.92588 1.00217 2.6705 6.1581 1.00186 2.77432 
6.39021 1.00158 2.87908 6.62226 1.00133 2.98464 6.85428 1.00109 3.09087 
7.08628 1.00088 3.19765 7.31831 1.00069 3.30488 7.55038 1.00053 3.41246 
7.78249 1.00038 3.5203 8.01468 1.00026 3.62832 8.24693 1.00016 3.73646 
8.47925 1.00009 3.84466 8.71164 1.00004 3.95288 8.94409 1 4.06107 
9.17657 0.999985 4.16923 
CELLS 624 5616
8 0 1 41 40 200 201 241 240 
8 1 2 42 41 201 202 242 241 
8 2 3 43 42 202 203 243 242 
8 3 4 44 43 203 204 244 243 
8 4 5 45 44 204 205 245 244 
8 5 6 46 45 205 206 246 245 
8 6 7 47 46 206 207 247 246 
8 7 8 48 47 207 208 248 247 
8 8 9 49 48 208 209 249 248 
8 9 10 50 49 209 210 250 249 
8 10 11 51 50 210 211 251 250 
8 11 12 52 51 211 212 252 251 
8 12 13 53 52 212 213 253 252 
8 13 14 54 53 213 214 254 253 
8 14 15 55 54 214 215 255 254 
8 15 16 56 55 215 216 256 255 
8 16 17 57 56 216 217 257 256 
8 17 18 58 57 217 218 258 257 
8 18 19 59 58 218 219 259 258 
8 19 20 60 59 219 220 260 259 
8 20 21 61 60 220 221 261 260 
8 21 22 62 61 221 222 262 261 
8 22 23 63 62 222 223 263 262 
8 23 24 64 63 223 224 264 263 
8 24 25 65 64 224 225 265 264 
8 25 26 66 65 225 226 266 265 
8 26 27 67 66 226 227 267 266 
8 27 28 68 67 227 228 268 267 
8 28 29 69 68 228 229 269 268 
8 29 30 70 69 229 230 270 269 
8 30 31 71 70 230 231 271 270 
8 31 32 72 71 231 232 272 271 
8 32 33 73 72 232 233 273 272 
8 33 34 74 73 233 234 274 273 
8 34 35 75 74 234 235 275 274 
8 35 36 76 75 235 236 276 275 
8 36 37 77 76 236 237 277 276 
8 37 38 78 77 237 238 278 277 
8 38 39 79 78 238 239 279 278 
8 40 41 81 80 240 241 281 280 
8 41 42 82 81 241 242 282 281 
8 42 43 83 82 242 243 283 282 
8 43 44 84 83 243 244 284 283 
8 44 45 85 84 244 245 285 284 
8 45 46 86 85 245 246 286 285 
8 46 47 87 86 246 247 287 286 
8 47 48 88 87 247 248 288 287 
8 48 49 89 88 248 249 289 288 
8 49 50 90 89 249 250 290 289 
8 50 51 91 90 250 251 291 290 
8 51 52 92 91 251 252 292 291 
8 52 53 93 92 252 253 293 292 
8 53 54 94 93 253 254 294 293 
8 54 55 95 94 254 255 295 294 
8 55 56 96 95 255 256 296 295 
8 56 57 97 96 256 257 297 296 
8 57 58 98 97 257 258 298 297 
8 58 59 99 98 258 259 299 298 
8 59 60 100 99 259 260 300 299 
8 60 61 101 100 260 261 301 300 
8 61 62 102 101 261 262 302 301 
8 62 63 103 102 262 263 303 302 
8 63 64 104 103 263 264 304 303 
8 64 65 105 104 264 265 305 304 
8 65 66 106 105 265 266 306 305 
8 66 67 107 106 266 267 307 306 
8 67 68 108 107 267 268 308 307 
8 68 69 109 108 268 269 309 308 
8 69 70 110 109 269 270 310 309 
8 70 71 111 110 270 271 311 310 
8 71 72 112 111 271 272 312 311 
8 72 73 113 112 272 273 313 312 
8 73 74 114 113 273 274 314 313 
8 74 75 115 114 274 275 315 314 
8 75 76 116 115 275 276 316 315 
8 76 77 117 116 276 277 317 316 
8 77 78 118 117 277 278 318 317 
8 78 79 119 118 278 279 319 318 
8 80 81 121 120 280 281 321 320 
8 81 82 122 121 281 282 322 321 
8 82 83 123 122 282 283 323 322 
8 83 84 124 123 283 284 324 323 
8 84 85 125 124 284 285 325 324 
8 85 86 126 125 285 286 326 325 
8 86 87 127 126 286 287 327 326 
8 87 88 128 127 287 288 328 327 
8 88 89 129 128 288 289 329 328 
8 89 90 130 129 289 290 330 329 
8 90 91 131 130 290 291 331 330 
8 91 92 132 131 291 292 332 331 
8 92 93 133 132 292 293 333 332 
8 93 94 134 133 293 294 334 333 
8 94 95 135 134 294 295 335 334 
8 95 96 136 135 295 296 336 335 
8 96 97 137 136 296 297 337 336 
8 97 98 138 137 297 298 338 337 
8 98 99 139 138 298 299 339 338 
8 99 100 140 139 299 300 340 339 
8 100 101 141 140 300 301 341 340 
8 101 102 142 141 301 302 342 341 
8 102 103 143 142 302 303 343 342 
8 103 104 144 143 303 304 344 343 
8 104 105 145 144 304 305 345 344 
8 105 106 146 145 305 306 346 345 
8 106 107 147 146 306 307 347 346 
8 107 108 148 147 307 308 348 347 
8 108 109 149 148 308 309 349 348 
8 109 110 150 149 309 310 350 349 
8 110 111 151 150 310 311 351 350 
8 111 112 152 151 311 312 352 351 
8 112 113 153 152 312 313 353 352 
8 113 114 154 153 313 314 354 353 
8 114 115 155 154 314 315 355 354 
8 115 116 156 155 315 316 356 355 
8 116 117 157 156 316 317 357 356 
8 117 118 158 157 317 318 358 357 
8 118 119 159 158 318 319 359 358 
8 120 121 161 160 320 321 361 360 
8 121 122 162 161 321 322 362 361 
8 122 123 163 162 322 323 363 362 
8 123 124 164 163 323 324 364 363 
8 124 125 165 164 324 325 365 364 
8 125 126 166 165 325 326 366 365 
8 126 127 167 166 326 327 367 366 
8 127 128 168 167 327 328 368 367 
8 128 129 169 168 328 329 369 368 
8 129 130 170 169 329 330 370 369 
8 130 131 171 170 330 331 371 370 
8 131 132 172 171 331 332 372 371 
8 132 133 173 172 332 333 373 372 
8 133 134 174 173 333 334 374 373 
8 134 135 175 174 334 335 375 374 
8 135 136 176 175 335 336 376 375 
8 136 137 177 176 336 337 377 376 
8 137 138 178 177 337 338 378 377 
8 138 139 179 178 338 339 379 378 
8 139 140 180 179 339 340 380 379 
8 140 141 181 180 340 341 381 380 
8 141 142 182 181 341 342 382 381 
8 142 143 183 182 342 343 383 382 
8 143 144 184 183 343 344 384 383 
8 144 145 185 184 344 345 385 384 
8 145 146 186 185 345 346 386 385 
8 146 147 187 186 346 347 387 386 
8 147 148 188 187 347 348 388 387 
8 148 149 189 188 348 349 389 388 
8 149 150 190 189 349 350 390 389 
8 150 151 191 190 350 351 391 390 
8 151 152 192 191 351 352 392 391 
8 152 153 193 192 352 353 393 392 
8 153 154 194 193 353 354 394 393 
8 154 155 195 194 354 355 395 394 
8 155 156 196 195 355 356 396 395 
8 156 157 197 196 356 357 397 396 
8 157 158 198 197 357 358 398 397 
8 158 159 199 198 358 359 399 398 
8 200 201 241 240 400 401 441 440 
8 201 202 242 241 401 402 442 441 
8 202 203 243 242 402 403 443 442 
8 203 204 244 243 403 404 444 443 
8 204 205 245 244 404 405 445 444 
8 205 206 246 245 405 406 446 445 
8 206 207 247 246 406 407 447 446 
8 207 208 248 247 407 408 448 447 
8 208 209 249 248 408 409 449 448 
8 209 210 250 249 409 410 450 449 
8 210 211 251 250 410 411 451 450 
8 211 212 252 251 411 412 452 451 
8 212 213 253 252 412 413 453 452 
8 213 214 254 253 413 414 454 453 
8 214 215 255 254 414 415 455 454 
8 215 216 256 255 415 416 456 455 
8 216 217 257 256 416 417 457 456 
8 217 218 258 257 417 418 458 457 
8 218 219 259 258 418 419 459 458 
8 219 220 260 259 419 420 460 459 
8 220 221 261 260 420 421 461 460 
8 221 222 262 261 421 422 462 461 
8 222 223 263 262 422 423 463 462 
8 223 224 264 263 423 424 464 463 
8 224 225 265 264 424 425 465 464 
8 225 226 266 265 425 426 466 465 
8 226 227 267 266 426 427 467 466 
8 227 228 268 267 427 428 468 467 
8 228 229 269 268 428 429 469 468 
8 229 230 270 269 429 430 470 469 
8 230 231 271 270 430 431 471 470 
8 231 232 272 271 431 432 472 471 
8 232 233 273 272 432 433 473 472 
8 233 234 274 273 433 434 474 473 
8 234 235 275 274 434 435 475 474 
8 235 236 276 275 435 436 476 475 
8 236 237 277 276 436 437 477 476 
8 237 238 278 277 437 438 478 477 
8 238 239 279 278 438 439 479 478 
8 240 241 281 280 440 441 481 480 
8 241 242 282 281 441 442 482 481 
8 242 243 283 282 442 443 483 482 
8 243 244 284 283 443 444 484 483 
8 244 245 285 284 444 445 485 484 
8 245 246 286 285 445 446 486 485 
8 246 247 287 286 446 447 487 486 
8 247 248 288 287 447 448 488 487 
8 248 249 289 288 448 449 489 488 
8 249 250 290 289 449 450 490 489 
8 250 251 291 290 450 451 491 490 
8 251 252 292 291 451 452 492 491 
8 252 253 293 292 452 453 493 492 
8 253 254 294 293 453 454 494 493 
8 254 255 295 294 454 455 495 494 
8 255 256 296 295 455 456 496 495 
8 256 257 297 296 456 457 497 496 
8 257 258 298 297 457 458 498 497 
8 258 259 299 298 458 459 499 498 
8 259 260 300 299 459 460 500 499 
8 260 261 301 300 460 461 501 500 
8 261 262 302 301 461 462 502 501 
8 262 263 303 302 462 463 503 502 
8 263 264 304 303 463 464 504 503 
8 264 265 305 304 464 465 505 504 
8 265 266 306 305 465 466 506 505 
8 266 267 307 306 466 467 507 506 
8 267 268 308 307 467 468 508 507 
8 268 269 309 308 468 469 509 508 
8 269 270 310 309 469 470 510 509 
8 270 271 311 310 470 471 511 510 
8 271 272 312 311 471 472 512 511 
8 272 273 313 312 472 473 513 512 
8 273 274 314 313 473 474 514 513 
8 274 275 315 314 474 475 515 514 
8 275 276 316 315 475 476 516 515 
8 276 277 317 316 476 477 517 516 
8 277 278 318 317 477 478 518 517 
8 278 279 319 318 478 479 519 518 
8 280 281 321 320 480 481 521 520 
8 281 282 322 321 481 482 522 521 
8 282 283 323 322 482 483 523 522 
8 283 284 324 323 483 484 524 523 
8 284 285 325 324 484 485 525 524 
8 285 286 326 325 485 486 526 525 
8 286 287 327 326 486 487 527 526 
8 287 288 328 327 487 488 528 527 
8 288 289 329 328 488 489 529 528 
8 289 290 330 329 489 490 530 529 
8 290 291 331 330 490 491 531 530 
8 291 292 332 331 491 492 532 531 
8 292 293 333 332 492 493 533 532 
8 293 294 334 333 493 494 534 533 
8 294 295 335 334 494 495 535 534 
8 295 296 336 335 495 496 536 535 
8 296 297 337 336 496 497 537 536 
8 297 298 338 337 497 498 538 537 
8 298 299 339 338 498 499 539 538 
8 299 300 340 339 499 500 540 539 
8 300 301 341 340 500 501 541 540 
8 301 302 342 341 501 502 542 541 
8 302 303 343 342 502 503 543 542 
8 303 304 344 343 503 504 544 543 
8 304 305 345 344 504 505 545 544 
8 305 306 346 345 505 506 546 545 
8 306 307 347 346 506 507 547 546 
8 307 308 348 347 507 508 548 547 
8 308 309 349 348 508 509 549 548 
8 309 310 350 349 509 510 550 549 
8 310 311 351 350 510 511 551 550 
8 311 312 352 351 511 512 552 551 
8 312 313 353 352 512 513 553 552 
8 313 314 354 353 513 514 554 553 
8 314 315 355 354 514 515 555 554 
8 315 316 356 355 515 516 556 555 
8 316 317 357 356 516 517 557 556 
8 317 318 358 357 517 518 558 557 
8 318 319 359 358 518 519 559 558 
8 320 321 361 360 520 521 561 560 
8 321 322 362 361 521 522 562 561 
8 322 323 363 362 522 523 563 562 
8 323 324 364 363 523 524 564 563 
8 324 325 365 364 524 525 565 564 
8 325 326 366 365 525 526 566 565 
8 326 327 367 366 526 527 567 566 
8 327 328 368 367 527 528 568 567 
8 328 329 369 368 528 529 569 568 
8 329 330 370 369 529 530 570 569 
8 330 331 371 370 530 531 571 570 
8 331 332 372 371 531 532 572 571 
8 332 333 373 372 532 533 573 572 
8 333 334 374 373 533 534 574 573 
8 334 335 375 374 534 535 575 574 
8 335 336 376 375 535 536 576 575 
8 336 337 377 376 536 537 577 576 
8 337 338 378 377 537 538 578 577 
8 338 339 379 378 538 539 579 578 
8 339 340 380 379 539 540 580 579 
8 340 341 381 380 540 541 581 580 
8 341 342 382 381 541 542 582 581 
8 342 343 383 382 542 543 583 582 
8 343 344 384 383 543 544 584 583 
8 344 345 385 384 544 545 585 584 
8 345 346 386 385 545 546 586 585 
8 346 347 387 386 546 547 587 586 
8 347 348 388 387 547 548 588 587 
8 348 349 389 388 548 549 589 588 
8 349 350 390 389 549 550 590 589 
8 350 351 391 390 550 551 591 590 
8 351 352 392 391 551 552 592 591 
8 352 353 393 392 552 553 593 592 
8 353 354 394 393 553 554 594 593 
8 354 355 395 394 554 555 595 594 
8 355 356 396 395 555 556 596 595 
8 356 357 397 396 556 557 597 596 
8 357 358 398 397 557 558 598 597 
8 358 359 399 398 558 559 599 598 
8 400 401 441 440 600 601 641 640 
8 401 402 442 441 601 602 642 641 
8 402 403 443 442 602 603 643 642 
8 403 404 444 443 603 604 644 643 
8 404 405 445 444 604 605 645 644 
8 405 406 446 445 605 606 646 645 
8 406 407 447 446 606 607 647 646 
8 407 408 448 447 607 608 648 647 
8 408 409 449 448 608 609 649 648 
8 409 410 450 449 609 610 650 649 
8 410 411 451 450 610 611 651 650 
8 411 412 452 451 611 612 652 651 
8 412 413 453 452 612 613 653 652 
8 413 414 454 453 613 614 654 653 
8 414 415 455 454 614 615 655 654 
8 415 416 456 455 615 616 656 655 
8 416 417 457 456 616 617 657 656 
8 417 418 458 457 617 618 658 657 
8 418 419 459 458 618 619 659 658 
8 419 420 460 459 619 620 660 659 
8 420 421 461 460 620 621 661 660 
8 421 422 462 461 621 622 662 661 
8 422 423 463 462 622 623 663 662 
8 423 424 464 463 623 624 664 663 
8 424 425 465 464 624 625 665 664 
8 425 426 466 465 625 626 666 665 
8 426 427 467 466 626 627 667 666 
8 427 428 468 467 627 628 668 667 
8 428 429 469 468 628 629 669 668 
8 429 430 470 469 629 630 670 669 
8 430 431 471 470 630 631 671 670 
8 431 432 472 471 631 632 672 671 
8 432 433 473 472 632 633 673 672 
8 433 434 474 473 633 634 674 673 
8 434 435 475 474 634 635 675 674 
8 435 436 476 475 635 636 676 675 
8 436 437 477 476 636 637 677 676 
8 437 438 478 477 637 638 678 677 
8 438 439 479 478 638 639 679 678 
8 440 441 481 480 640 641 681 680 
8 441 442 482 481 641 642 682 681 
8 442 443 483 482 642 643 683 682 
8 443 444 484 483 643 644 684 683 
8 444 445 485 484 644 645 685 684 
8 445 446 486 485 645 646 686 685 
8 446 447 487 486 646 647 687 686 
8 447 448 488 487 647 648 688 687 
8 448 449 489 488 648 649 689 688 
8 449 450 490 489 649 650 690 689 
8 450 451 491 490 650 651 691 690 
8 451 452 492 491 651 652 692 691 
8 452 453 493 492 652 653 693 692 
8 453 454 494 493 653 654 694 693 
8 454 455 495 494 654 655 695 694 
8 455 456 496 495 655 656 696 695 
8 456 457 497 496 656 657 697 696 
8 457 458 498 497 657 658 698 697 
8 458 459 499 498 658 659 699 698 
8 459 460 500 499 659 660 700 699 
8 460 461 501 500 660 661 701 700 
8 461 462 502 501 661 662 702 701 
8 462 463 503 502 662 663 703 702 
8 463 464 504 503 663 664 704 703 
8 464 465 505 504 664 665 705 704 
8 465 466 506 505 665 666 706 705 
8 466 467 507 506 666 667 707 706 
8 467 468 508 507 667 668 708 707 
8 468 469 509 508 668 669 709 708 
8 469 470 510 509 669 670 710 709 
8 470 471 511 510 670 671 711 710 
8 471 472 512 511 671 672 712 711 
8 472 473 513 512 672 673 713 712 
8 473 474 514 513 673 674 714 713 
8 474 475 515 514 674 675 715 714 
8 475 476 516 515 675 676 716 715 
8 476 477 517 516 676 677 717 716 
8 477 478 518 517 677 678 718 717 
8 478 479 519 518 678 679 719 718 
8 480 481 521 520 680 681 721 720 
8 481 482 522 521 681 682 722 721 
8 482 483 523 522 682 683 723 722 
8 483 484 524 523 683 684 724 723 
8 484 485 525 524 684 685 725 724 
8 485 486 526 525 685 686 726 725 
8 486 487 527 526 686 687 727 726 
8 487 488 528 527 687 688 728 727 
8 488 489 529 528 688 689 729 728 
8 489 490 530 529 689 690 730 729 
8 490 491 531 530 690 691 731 730 
8 491 492 532 531 691 692 732 731 
8 492 493 533 532 692 693 733 732 
8 493 494 534 533 693 694 734 733 
8 494 495 535 534 694 695 735 734 
8 495 496 536 535 695 696 736 735 
8 496 497 537 536 696 697 737 736 
8 497 498 538 537 697 698 738 737 
8 498 499 539 538 698 699 739 738 
8 499 500 540 539 699 700 740 739 
8 500 501 541 540 700 701 741 740 
8 501 502 542 541 701 702 742 741 
8 502 503 543 542 702 703 743 742 
8 503 504 544 543 703 704 744 743 
8 504 505 545 544 704 705 745 744 
8 505 506 546 545 705 706 746 745 
8 506 507 547 546 706 707 747 746 
8 507 508 548 547 707 708 748 747 
8 508 509 549 548 708 709 749 748 
8 509 510 550 549 709 710 750 749 
8 510 511 551 550 710 711 751 750 
8 511 512 552 551 711 712 752 751 
8 512 513 553 552 712 713 753 752 
8 513 514 554 553 713 714 754 753 
8 514 515 555 554 714 715 755 754 
8 515 516 556 555 715 716 756 755 
8 516 517 557 556 716 717 757 756 
8 517 518 558 557 717 718 758 757 
8 518 519 559 558 718 719 759 758 
8 520 521 561 560 720 721 761 760 
8 521 522 562 561 721 722 762 761 
8 522 523 563 562 722 723 763 762 
8 523 524 564 563 723 724 764 763 
8 524 525 565 564 724 725 765 764 
8 525 526 566 565 725 726 766 765 
8 526 527 567 566 726 727 767 766 
8 527 528 568 567 727 728 768 767 
8 528 529 569 568 728 729 769 768 
8 529 530 570 569 729 730 770 769 
8 530 531 571 570 730 731 771 770 
8 531 532 572 571 731 732 772 771 
8 532 533 573 572 732 733 773 772 
8 533 534 574 573 733 734 774 773 
8 534 535 575 574 734 735 775 774 
8 535 536 576 575 735 736 776 775 
8 536 537 577 576 736 737 777 776 
8 537 538 578 577 737 738 778 777 
8 538 539 579 578 738 739 779 778 
8 539 540 580 579 739 740 780 779 
8 540 541 581 580 740 741 781 780 
8 541 542 582 581 741 742 782 781 
8 542 543 583 582 742 743 783 782 
8 543 544 584 583 743 744 784 783 
8 544 545 585 584 744 745 785 784 
8 545 546 586 585 745 746 786 785 
8 546 547 587 586 746 747 787 786 
8 547 548 588 587 747 748 788 787 
8 548 549 589 588 748 749 789 788 
8 549 550 590 589 749 750 790 789 
8 550 551 591 590 750 751 791 790 
8 551 552 592 591 751 752 792 791 
8 552 553 593 592 752 753 793 792 
8 553 554 594 593 753 754 794 793 
8 554 555 595 594 754 755 795 794 
8 555 556 596 595 755 756 796 795 
8 556 557 597 596 756 757 797 796 
8 557 558 598 597 757 758 798 797 
8 558 559 599 598 758 759 799 798 
8 600 601 641 640 800 801 841 840 
8 601 602 642 641 801 802 842 841 
8 602 603 643 642 802 803 843 842 
8 603 604 644 643 803 804 844 843 
8 604 605 645 644 804 805 845 844 
8 605 606 646 645 805 806 846 845 
8 606 607 647 646 806 807 847 846 
8 607 608 648 647 807 808 848 847 
8 608 609 649 648 808 809 849 848 
8 609 610 650 649 809 810 850 849 
8 610 611 651 650 810 811 851 850 
8 611 612 652 651 811 812 852 851 
8 612 613 653 652 812 813 853 852 
8 613 614 654 653 813 814 854 853 
8 614 615 655 654 814 815 855 854 
8 615 616 656 655 815 816 856 855 
8 616 617 657 656 816 817 857 856 
8 617 618 658 657 817 818 858 857 
8 618 619 659 658 818 819 859 858 
8 619 620 660 659 819 820 860 859 
8 620 621 661 660 820 821 861 860 
8 621 622 662 661 821 822 862 861 
8 622 623 663 662 822 823 863 862 
8 623 624 664 663 823 824 864 863 
8 624 625 665 664 824 825 865 864 
8 625 626 666 665 825 826 866 865 
8 626 627 667 666 826 827 867 866 
8 627 628 668 667 827 828 868 867 
8 628 629 669 668 828 829 869 868 
8 629 630 670 669 829 830 870 869 
8 630 631 671 670 830 831 871 870 
8 631 632 672 671 831 832 872 871 
8 632 633 673 672 832 833 873 872 
8 633 634 674 673 833 834 874 873 
8 634 635 675 674 834 835 875 874 
8 635 636 676 675 835 836 876 875 
8 636 637 677 676 836 837 877 876 
8 637 638 678 677 837 838 878 877 
8 638 639 679 678 838 839 879 878 
8 640 641 681 680 840 841 881 880 
8 641 642 682 681 841 842 882 881 
8 642 643 683 682 842 843 883 882 
8 643 644 684 683 843 844 884 883 
8 644 645 685 684 844 845 885 884 
8 645 646 686 685 845 846 886 885 
8 646 647 687 686 846 847 887 886 
8 647 648 688 687 847 848 888 887 
8 648 649 689 688 848 849 889 888 
8 649 650 690 689 849 850 890 889 
8 650 651 691 690 850 851 891 890 
8 651 652 692 691 851 852 892 891 
8 652 653 693 692 852 853 893 892 
8 653 654 694 693 853 854 894 893 
8 654 655 695 694 854 855 895 894 
8 655 656 696 695 855 856 896 895 
8 656 657 697 696 856 857 897 896 
8 657 658 698 697 857 858 898 897 
8 658 659 699 698 858 859 899 898 
8 659 660 700 699 859 860 900 899 
8 660 661 701 700 860 861 901 900 
8 661 662 702 701 861 862 902 901 
8 662 663 703 702 862 863 903 902 
8 663 664 704 703 863 864 904 903 
8 664 665 705 704 864 865 905 904 
8 665 666 706 705 865 866 906 905 
8 666 667 707 706 866 867 907 906 
8 667 668 708 707 867 868 908 907 
8 668 669 709 708 868 869 909 908 
8 669 670 710 709 869 870 910 909 
8 670 671 711 710 870 871 911 910 
8 671 672 712 711 871 872 912 911 
8 672 673 713 712 872 873 913 912 
8 673 674 714 713 873 874 914 913 
8 674 675 715 714 874 875 915 914 
8 675 676 716 715 875 876 916 915 
8 676 677 717 716 876 877 917 916 
8 677 678 718 717 877 878 918 917 
8 678 679 719 718 878 879 919 918 
8 680 681 721 720 880 881 921 920 
8 681 682 722 721 881 882 922 921 
8 682 683 723 722 882 883 923 922 
8 683 684 724 723 883 884 924 923 
8 684 685 725 724 884 885 925 924 
8 685 686 726 725 885 886 926 925 
8 686 687 727 726 886 887 927 926 
8 687 688 728 727 887 888 928 927 
8 688 689 729 728 888 889 929 928 
8 689 690 730 729 889 890 930 929 
8 690 691 731 730 890 891 931 930 
8 691 692 732 731 891 892 932 931 
8 692 693 733 732 892 893 933 932 
8 693 694 734 733 893 894 934 933 
8 694 695 735 734 894 895 935 934 
8 695 696 736 735 895 896 936 935 
8 696 697 737 736 896 897 937 936 
8 697 698 738 737 897 898 938 937 
8 698 699 739 738 898 899 939 938 
8 699 700 740 739 899 900 940 939 
8 700 701 741 740 900 901 941 940 
8 701 702 742 741 901 902 942 941 
8 702 703 743 742 902 903 943 942 
8 703 704 744 743 903 904 944 943 
8 704 705 745 744 904 905 945 944 
8 705 706 746 745 905 906 946 945 
8 706 707 747 746 906 907 947 946 
8 707 708 748 747 907 908 948 947 
8 708 709 749 748 908 909 949 948 
8 709 710 750 749 909 910 950 949 
8 710 711 751 750 910 911 951 950 
8 711 712 752 751 911 912 952 951 
8 712 713 753 752 912 913 953 952 
8 713 714 754 753 913 914 954 953 
8 714 715 755 754 914 915 955 954 
8 715 716 756 755 915 916 956 955 
8 716 717 757 756 916 917 957 956 
8 717 718 758 757 917 918 958 957 
8 718 719 759 758 918 919 959 958 
8 720 721 761 760 920 921 961 960 
8 721 722 762 761 921 922 962 961 
8 722 723 763 762 922 923 963 962 
8 723 724 764 763 923 924 964 963 
8 724 725 765 764 924 925 965 964 
8 725 726 766 765 925 926 966 965 
8 726 727 767 766 926 927 967 966 
8 727 728 768 767 927 928 968 967 
8 728 729 769 768 928 929 969 968 
8 729 730 770 769 929 930 970 969 
8 730 731 771 770 930 931 971 970 
8 731 732 772 771 931 932 972 971 
8 732 733 773 772 932 933 973 972 
8 733 734 774 773 933 934 974 973 
8 734 735 775 774 934 935 975 974 
8 735 736 776 775 935 936 976 975 
8 736 737 777 776 936 937 977 976 
8 737 738 778 777 937 938 978 977 
8 738 739 779 778 938 939 979 978 
8 739 740 780 779 939 940 980 979 
8 740 741 781 780 940 941 981 980 
8 741 742 782 781 941 942 982 981 
8 742 743 783 782 942 943 983 982 
8 743 744 784 783 943 944 984 983 
8 744 745 785 784 944 945 985 984 
8 745 746 786 785 945 946 986 985 
8 746 747 787 786 946 947 987 986 
8 747 748 788 787 947 948 988 987 
8 748 749 789 788 948 949 989 988 
8 749 750 790 789 949 950 990 989 
8 750 751 791 790 950 951 991 990 
8 751 752 792 791 951 952 992 991 
8 752 753 793 792 952 953 993 992 
8 753 754 794 793 953 954 994 993 
8 754 755 795 794 954 955 995 994 
8 755 756 796 795 955 956 996 995 
8 756 757 797 796 956 957 997 996 
8 757 758 798 797 957 958 998 997 
8 758 759 799 798 958 959 999 998 

CELL_TYPES 624
12
12
12
12
12
12
12
12
12
12
12
12
12
12
12
12
12
12
12
12
12
12
12
12
12
12
12
12
12
12
12
12
12
12
12
12
12
12
12
12
12
12
12
12
12
12
12
12
12
12
12
12
12
12
12
12
12
12
12
12
12
12
12
12
12
12
12
12
12
12
12
12
12
12
12
12
12
12
12
12
12
12
12
12
12
12
12
12
12
12
12
12
12
12
12
12
12
12
12
12
12
12
12
12
12
12
12
12
12
12
12
12
12
12
12
12
12
12
12
12
12
12
12
12
12
12
12
12
12
12
12
12
12
12
12
12
12
12
12
12
12
12
12
12
12
12
12
12
12
12
12
12
12
12
12
12
12
12
12
12
12
12
12
12
12
12
12
12
12
12
12
12
12
12
12
12
12
12
12
12
12
12
12
12
12
12
12
12
12
12
12
12
12
12
12
12
12
12
12
12
12
12
12
12
12
12
12
12
12
12
12
12
12
12
12
12
12
12
12
12
12
12
12
12
12
12
12
12
12
12
12
12
12
12
12
12
12
12
12
12
12
12
12
12
12
12
12
12
12
12
12
12
12
12
12
12
12
12
12
12
12
12
12
12
12
12
12
12
12
12
12
12
12
12
12
12
12
12
12
12
12
12
12
12
12
12
12
12
12
12
12
12
12
12
12
12
12
12
12
12
12
12
12
12
12
12
12
12
12
12
12
12
12
12
12
12
12
12
12
12
12
12
12
12
12
12
12
12
12
12
12
12
12
12
12
12
12
12
12
12
12
12
12
12
12
12
12
12
12
12
12
12
12
12
12
12
12
12
12
12
12
12
12
12
12
12
12
12
12
12
12
12
12
12
12
12
12
12
12
12
12
12
12
12
12
12
12
12
12
12
12
12
12
12
12
12
12
12
12
12
12
12
12
12
12
12
12
12
12
12
12
12
12
12
12
12
12
12
12
12
12
12
12
12
12
12
12
12
12
12
12
12
12
12
12
12
12
12
12
12
12
12
12
12
12
12
12
12
12
12
12
12
12
12
12
12
12
12
12
12
12
12
12
12
12
12
12
12
12
12
12
12
12
12
12
12
12
12
12
12
12
12
12
12
12
12
12
12
12
12
12
12
12
12
12
12
12
12
12
12
12
12
12
12
12
12
12
12
12
12
12
12
12
12
12
12
12
12
12
12
12
12
12
12
12
12
12
12
12
12
12
12
12
12
12
12
12
12
12
12
12
12
12
12
12
12
12
12
12
12
12
12
12
12
12
12
12
12
12
12
12
12
12
12
12
12
12
12
12
12
12
12
12
12
12
12
12
12
12
12
12
12
12
12
12
12
12
12
12
12
12
12
12
12
12
12
12
12
12
12
12
12
12
12
12
12
12
12
12
12
12
12
12
12
12
12
12
12
12
12
12
12
12
12

CELL_DATA 624
FIELD FieldData 7
Exx 1 624 float
0.0302615 0.039686 0.038983 0.036953 0.035241 0.0334025 0.031572 0.029757 0.027976 
0.0262375 0.024546 0.022904 0.021313 0.0197745 0.01829 0.0168605 0.0154865 0.014169 
0.0129085 0.0117055 0.0105605 0.0094745 0.008447 0.007479 0.00657 0.0057205 0.004931 
0.0042015 0.0035315 0.0029215 0.002372 0.0018825 0.001453 0.001084 0.000775 0.0005255 
0.0003355 0.0002045 0.000129 0.0275885 0.040622 0.0393655 0.037169 0.035193 0.03326 
0.03139 0.0295735 0.0278045 0.0260825 0.024408 0.022782 0.0212065 0.019682 0.0182095 
0.016791 0.0154265 0.014117 0.0128635 0.011667 0.0105275 0.0094455 0.008422 0.0074565 
0.00655 0.0057025 0.0049145 0.0041855 0.0035165 0.0029075 0.002358 0.0018685 0.001439 
0.00107 0.0007615 0.0005135 0.0003265 0.0002 0.0001295 0.0278425 0.040752 0.0393035 
0.037151 0.0351935 0.03328 0.0314145 0.0295995 0.0278285 0.026104 0.024427 0.022799 
0.0212215 0.019695 0.018221 0.0168005 0.0154345 0.014124 0.01287 0.0116725 0.010532 
0.0094495 0.008425 0.0074595 0.0065525 0.005705 0.0049165 0.0041875 0.0035185 0.002909 
0.0023595 0.00187 0.001441 0.0010715 0.000763 0.000515 0.0003275 0.0002005 0.0001295 
0.0325175 0.0402215 0.0383565 0.037001 0.035265 0.033489 0.03166 0.0298425 0.028054 
0.0263075 0.024608 0.0229585 0.021361 0.0198165 0.0183265 0.0168925 0.015514 0.014193 
0.0129295 0.011724 0.010577 0.009489 0.00846 0.0074905 0.006581 0.005731 0.0049405 
0.0042105 0.0035405 0.0029305 0.0023805 0.001891 0.0014615 0.0010925 0.0007835 0.000534 
0.000343 0.000209 0.0001295 0.006107 0.010307 0.0103675 0.0097505 0.009246 0.00874 
0.008259 0.007798 0.0073515 0.0069165 0.006491 0.0060765 0.0056725 0.0052795 0.0048985 
0.00453 0.004174 0.0038315 0.0035025 0.003187 0.002886 0.0025995 0.0023275 0.0020705 
0.0018285 0.001602 0.0013905 0.001195 0.001015 0.0008505 0.0007025 0.00057 0.000454 
0.000354 0.00027 0.000202 0.000149 0.0001085 8.05e-05 0.005008 0.0107635 0.0102615 
0.009554 0.0090095 0.0085165 0.0080545 0.007614 0.007187 0.0067705 0.006363 0.0059645 
0.0055755 0.005196 0.0048275 0.0044695 0.0041235 0.003789 0.003467 0.003158 0.002862 
0.00258 0.0023115 0.0020575 0.001818 0.001593 0.001383 0.0011885 0.001009 0.0008455 
0.0006975 0.0005655 0.000449 0.000349 0.0002655 0.0001975 0.0001455 0.000107 8.1e-05 
0.00509 0.010815 0.010244 0.009585 0.0090385 0.008549 0.008083 0.0076405 0.0072105 
0.006791 0.006381 0.0059805 0.0055895 0.005208 0.0048375 0.0044785 0.0041305 0.003795 
0.0034725 0.0031625 0.0028655 0.002583 0.002314 0.0020595 0.0018195 0.001594 0.001384 
0.0011895 0.00101 0.000846 0.000698 0.000566 0.00045 0.00035 0.000266 0.0001985 
0.000146 0.0001075 8.1e-05 0.0065665 0.0105785 0.010366 0.009914 0.0093535 0.008844 
0.008348 0.007878 0.007422 0.006979 0.006546 0.006124 0.0057135 0.0053145 0.0049285 
0.004555 0.0041955 0.0038495 0.0035175 0.0031995 0.0028965 0.002608 0.0023345 0.0020765 
0.0018335 0.001606 0.001394 0.001198 0.0010175 0.000853 0.000705 0.0005725 0.0004565 
0.0003565 0.0002725 0.0002045 0.000151 0.000109 7.95e-05 -0.0124515 -0.0197615 -0.0186135 
-0.0173545 -0.0165255 -0.015688 -0.01482 -0.0139505 -0.013089 -0.0122495 -0.0114345 -0.010646 
-0.009885 -0.009152 -0.0084465 -0.0077695 -0.007121 -0.0065005 -0.005909 -0.0053455 -0.004811 
-0.0043055 -0.003828 -0.003379 -0.0029585 -0.0025665 -0.0022025 -0.0018665 -0.001559 -0.0012795 
-0.0010275 -0.0008035 -0.0006075 -0.0004385 -0.0002975 -0.0001835 -9.45e-05 -2.9e-05 1.45e-05 
-0.010819 -0.0209415 -0.0196395 -0.0181755 -0.017021 -0.0160205 -0.015054 -0.0141355 -0.013244 
-0.0123825 -0.011549 -0.010744 -0.009968 -0.009221 -0.0085035 -0.007816 -0.0071575 -0.006529 
-0.0059305 -0.005361 -0.0048215 -0.004311 -0.00383 -0.0033785 -0.0029555 -0.0025615 -0.002196 
-0.0018595 -0.001551 -0.001271 -0.0010185 -0.0007945 -0.0005985 -0.00043 -0.000289 -0.000176 
-8.9e-05 -2.6e-05 1.4e-05 -0.0109715 -0.021028 -0.0194835 -0.018065 -0.0169455 -0.015972 
-0.0150185 -0.0141085 -0.013221 -0.012363 -0.011532 -0.0107295 -0.009956 -0.009211 -0.008495 
-0.007809 -0.007152 -0.006525 -0.005927 -0.0053585 -0.00482 -0.00431 -0.0038295 -0.0033785 
-0.002956 -0.002562 -0.002197 -0.0018605 -0.001552 -0.001272 -0.00102 -0.000796 -0.0005995 
-0.000431 -0.00029 -0.0001765 -9e-05 -2.65e-05 1.35e-05 -0.0140395 -0.0200025 -0.01769 
-0.0171235 -0.016323 -0.015572 -0.014732 -0.013878 -0.0130265 -0.012195 -0.0113875 -0.010606 
-0.0098515 -0.009124 -0.008424 -0.0077515 -0.0071065 -0.00649 -0.005901 -0.0053405 -0.004808 
-0.004304 -0.003828 -0.0033805 -0.002961 -0.0025695 -0.002206 -0.0018705 -0.0015635 -0.0012835 
-0.001032 -0.000808 -0.000612 -0.000443 -0.000302 -0.0001875 -9.85e-05 -3e-05 1.6e-05 
-0.038198 -0.048321 -0.046795 -0.044223 -0.04212 -0.039795 -0.0375625 -0.035357 -0.0332075 
-0.0311145 -0.029081 -0.02711 -0.025202 -0.023359 -0.0215825 -0.0198735 -0.0182325 -0.01666 
-0.0151575 -0.0137245 -0.012362 -0.01107 -0.009849 -0.008699 -0.00762 -0.0066125 -0.0056765 
-0.0048115 -0.0040185 -0.0032965 -0.002646 -0.0020665 -0.001559 -0.0011225 -0.000757 -0.000463 
-0.0002395 -8.9e-05 -1.35e-05 -0.035947 -0.0504135 -0.047701 -0.0456035 -0.042713 -0.040202 
-0.037805 -0.035541 -0.033356 -0.031241 -0.0291895 -0.0272015 -0.025279 -0.023423 -0.021634 
-0.019914 -0.0182635 -0.0166835 -0.0151735 -0.0137345 -0.012367 -0.0110705 -0.009846 -0.008693 
-0.007612 -0.0066025 -0.005665 -0.004799 -0.004005 -0.0032825 -0.002632 -0.0020525 -0.0015445 
-0.0011085 -0.000744 -0.0004515 -0.000232 -8.6e-05 -1.4e-05 -0.0362225 -0.050516 -0.0475075 
-0.0454475 -0.04261 -0.0401445 -0.0377665 -0.035514 -0.033334 -0.0312225 -0.0291735 -0.027188 
-0.0252675 -0.0234135 -0.0216265 -0.019908 -0.018259 -0.0166795 -0.0151705 -0.0137325 -0.0123655 
-0.01107 -0.009846 -0.0086935 -0.0076125 -0.0066035 -0.0056665 -0.0048005 -0.0040065 -0.0032845 
-0.0026335 -0.002054 -0.0015465 -0.00111 -0.0007455 -0.0004525 -0.0002325 -8.6e-05 -1.4e-05 
-0.041333 -0.0486665 -0.044875 -0.044173 -0.0417695 -0.0397125 -0.037467 -0.035293 -0.0331495 
-0.0310655 -0.0290395 -0.027075 -0.0251735 -0.0233365 -0.021565 -0.01986 -0.018223 -0.016654 
-0.0151545 -0.013724 -0.0123635 -0.0110735 -0.009854 -0.008705 -0.007627 -0.0066205 -0.005685 
-0.0048205 -0.0040275 -0.0033055 -0.002655 -0.002076 -0.0015685 -0.001132 -0.0007665 -0.0004715 
-0.0002475 -9.35e-05 -1.45e-05 
Exy 1 624 float
0.0073315 -8.2e-05 -8.85e-05 -0.0003295 -0.000211 -0.0001705 -0.00014 -0.000127 -0.00012 
-0.0001165 -0.000114 -0.000112 -0.00011 -0.0001075 -0.0001055 -0.0001025 -0.0001 -9.7e-05 
-9.35e-05 -9e-05 -8.65e-05 -8.25e-05 -7.85e-05 -7.45e-05 -7e-05 -6.6e-05 -6.15e-05 
-5.7e-05 -5.25e-05 -4.75e-05 -4.3e-05 -3.8e-05 -3.3e-05 -2.8e-05 -2.3e-05 -1.7e-05 
-1e-05 -2.5e-06 -1.5e-06 0.0018835 0.0003525 4.05e-05 -0.000152 -0.000111 -9.95e-05 
-8.25e-05 -7.65e-05 -7.2e-05 -7e-05 -6.8e-05 -6.65e-05 -6.5e-05 -6.35e-05 -6.2e-05 
-6e-05 -5.85e-05 -5.65e-05 -5.45e-05 -5.25e-05 -5e-05 -4.8e-05 -4.55e-05 -4.3e-05 
-4.05e-05 -3.8e-05 -3.55e-05 -3.3e-05 -3e-05 -2.75e-05 -2.45e-05 -2.2e-05 -1.9e-05 
-1.6e-05 -1.3e-05 -9.5e-06 -5.5e-06 -2.5e-06 -5e-07 -0.0030625 -0.0007875 5.65e-05 
0.0002145 0.000182 0.0001525 0.0001295 0.000119 0.000113 0.000109 0.0001065 0.000104 
0.000102 9.95e-05 9.7e-05 9.45e-05 9.15e-05 8.85e-05 8.55e-05 8.2e-05 7.85e-05 
7.5e-05 7.15e-05 6.75e-05 6.35e-05 5.95e-05 5.55e-05 5.15e-05 4.7e-05 4.3e-05 
3.85e-05 3.4e-05 3e-05 2.5e-05 2.05e-05 1.5e-05 9e-06 3.5e-06 5e-07 
-0.007687 -0.0002755 0.0002365 0.0001965 0.0001585 0.0001095 9.1e-05 8.05e-05 7.6e-05 
7.35e-05 7.2e-05 7.05e-05 6.95e-05 6.8e-05 6.7e-05 6.5e-05 6.35e-05 6.15e-05 
5.95e-05 5.75e-05 5.5e-05 5.3e-05 5e-05 4.75e-05 4.5e-05 4.2e-05 3.95e-05 
3.65e-05 3.35e-05 3.05e-05 2.75e-05 2.45e-05 2.1e-05 1.8e-05 1.45e-05 1.05e-05 
6e-06 1e-06 5e-07 0.00123 -0.000821 -0.0001335 -5.7e-05 1.25e-05 2.5e-05 
3e-05 2.9e-05 2.7e-05 2.4e-05 2.1e-05 1.8e-05 1.5e-05 1.2e-05 9e-06 
6.5e-06 4.5e-06 2.5e-06 5e-07 -1e-06 -2e-06 -3e-06 -4e-06 -4.5e-06 
-5e-06 -5.5e-06 -5.5e-06 -5.5e-06 -5.5e-06 -5.5e-06 -5e-06 -5e-06 -4.5e-06 
-4e-06 -3e-06 -2e-06 -1e-06 5e-07 -1e-06 0.0002745 -0.0002165 -6.9e-05 
-3.8e-05 -1.5e-06 4.5e-06 8.5e-06 8e-06 7.5e-06 7e-06 5.5e-06 4.5e-06 
3.5e-06 2e-06 1e-06 0 -1e-06 -1.5e-06 -2e-06 -3e-06 -3e-06 
-3.5e-06 -4e-06 -4e-06 -4e-06 -4e-06 -4e-06 -4e-06 -4e-06 -3.5e-06 
-3.5e-06 -3e-06 -3e-06 -2.5e-06 -2e-06 -1.5e-06 -5e-07 -0 0 
-0.00039 0.00029 0.0001115 4.95e-05 -0 -1.1e-05 -1.55e-05 -1.5e-05 -1.4e-05 
-1.25e-05 -1.05e-05 -8.5e-06 -6.5e-06 -4.5e-06 -2.5e-06 -1e-06 5e-07 1.5e-06 
3e-06 3.5e-06 4.5e-06 5e-06 5.5e-06 6e-06 6e-06 6e-06 6e-06 
6e-06 6e-06 5.5e-06 5e-06 4.5e-06 4e-06 3.5e-06 3e-06 2e-06 
1e-06 0 -0 -0.0013925 0.0005385 0.0001365 2.8e-05 -5e-06 -2e-05 
-2.25e-05 -2.25e-05 -2.05e-05 -1.85e-05 -1.65e-05 -1.4e-05 -1.2e-05 -1e-05 -8e-06 
-6e-06 -4.5e-06 -3e-06 -1.5e-06 -5e-07 5e-07 1e-06 2e-06 2.5e-06 
3e-06 3e-06 3.5e-06 3.5e-06 3.5e-06 3.5e-06 3e-06 3e-06 2.5e-06 
2.5e-06 2e-06 1.5e-06 5e-07 -5e-07 1e-06 -0.0068345 0.0004265 0.0002635 
0.0003785 0.000237 0.0001615 0.0001155 9.4e-05 8.35e-05 7.8e-05 7.3e-05 6.9e-05 
6.45e-05 6.05e-05 5.65e-05 5.25e-05 4.9e-05 4.5e-05 4.2e-05 3.85e-05 3.55e-05 
3.25e-05 3e-05 2.75e-05 2.5e-05 2.25e-05 2.05e-05 1.85e-05 1.65e-05 1.45e-05 
1.25e-05 1.1e-05 9.5e-06 8e-06 6e-06 4e-06 2e-06 -5e-07 1.5e-06 
-0.0017025 -0.0003665 7.55e-05 0.00017 0.0001165 8.85e-05 6.2e-05 5.1e-05 4.5e-05 
4.2e-05 3.95e-05 3.75e-05 3.55e-05 3.3e-05 3.1e-05 2.9e-05 2.7e-05 2.55e-05 
2.35e-05 2.2e-05 2e-05 1.85e-05 1.7e-05 1.6e-05 1.45e-05 1.3e-05 1.2e-05 
1.1e-05 9.5e-06 8.5e-06 7.5e-06 6.5e-06 5.5e-06 5e-06 3.5e-06 2.5e-06 
1.5e-06 5e-07 -5e-07 0.0028665 0.0005115 -0.0001485 -0.000269 -0.000187 -0.000137 
-9.75e-05 -8e-05 -7.1e-05 -6.6e-05 -6.2e-05 -5.85e-05 -5.55e-05 -5.2e-05 -4.85e-05 
-4.55e-05 -4.25e-05 -3.95e-05 -3.65e-05 -3.4e-05 -3.15e-05 -2.9e-05 -2.65e-05 -2.45e-05 
-2.25e-05 -2.05e-05 -1.85e-05 -1.65e-05 -1.5e-05 -1.35e-05 -1.15e-05 -1e-05 -8.5e-06 
-7.5e-06 -5.5e-06 -4e-06 -2e-06 -5e-07 5e-07 0.007003 -0.00023 -0.0002905 
-0.000246 -0.0001785 -0.000111 -8.1e-05 -6.45e-05 -5.8e-05 -5.4e-05 -5.05e-05 -4.75e-05 
-4.5e-05 -4.2e-05 -3.9e-05 -3.65e-05 -3.35e-05 -3.1e-05 -2.9e-05 -2.65e-05 -2.45e-05 
-2.25e-05 -2.05e-05 -1.85e-05 -1.7e-05 -1.55e-05 -1.4e-05 -1.25e-05 -1.1e-05 -1e-05 
-8.5e-06 -7.5e-06 -6.5e-06 -5.5e-06 -4e-06 -3e-06 -1e-06 5e-07 -1.5e-06 
-0.013431 -0.0006825 0.00036 0.0009145 0.000518 0.000417 0.000318 0.0002875 0.0002695 
0.00026 0.0002515 0.000243 0.000234 0.0002245 0.0002155 0.000206 0.0001965 0.000187 
0.000178 0.000169 0.0001595 0.0001505 0.0001415 0.0001325 0.0001235 0.000115 0.000106 
9.75e-05 8.9e-05 8.05e-05 7.2e-05 6.35e-05 5.5e-05 4.65e-05 3.8e-05 2.8e-05 
1.75e-05 6e-06 1e-06 -0.003586 -0.0008915 3.8e-05 0.0003905 0.0002655 0.000215 
0.000165 0.0001465 0.000136 0.0001305 0.000126 0.000122 0.000117 0.0001125 0.000108 
0.000103 9.85e-05 9.35e-05 8.9e-05 8.45e-05 7.95e-05 7.5e-05 7.05e-05 6.6e-05 
6.15e-05 5.7e-05 5.3e-05 4.85e-05 4.4e-05 4e-05 3.6e-05 3.15e-05 2.75e-05 
2.3e-05 1.85e-05 1.4e-05 8.5e-06 4e-06 1e-06 0.005849 0.0016495 -0.000242 
-0.0005845 -0.000425 -0.000332 -0.000259 -0.00023 -0.0002145 -0.0002065 -0.000199 -0.000192 
-0.000185 -0.0001775 -0.00017 -0.000163 -0.0001555 -0.000148 -0.0001405 -0.000133 -0.000126 
-0.0001185 -0.0001115 -0.0001045 -9.75e-05 -9.05e-05 -8.35e-05 -7.65e-05 -7e-05 -6.3e-05 
-5.65e-05 -5e-05 -4.3e-05 -3.65e-05 -2.95e-05 -2.2e-05 -1.35e-05 -5.5e-06 -1e-06 
0.0132545 0.0008305 -0.0005695 -0.0005755 -0.0004135 -0.000289 -0.0002325 -0.000206 -0.0001945 
-0.0001875 -0.0001815 -0.000175 -0.0001685 -0.000162 -0.0001555 -0.0001485 -0.0001415 -0.000135 
-0.0001285 -0.0001215 -0.000115 -0.0001085 -0.000102 -9.55e-05 -8.9e-05 -8.3e-05 -7.65e-05 
-7e-05 -6.4e-05 -5.8e-05 -5.15e-05 -4.55e-05 -3.95e-05 -3.35e-05 -2.7e-05 -2e-05 
-1.25e-05 -4e-06 -0 
Exz 1 624 float
0.0066055 0.002069 0.003262 0.0031035 0.0032995 0.003285 0.0032475 0.0031715 0.0030835 
0.002988 0.0028895 0.00279 0.00269 0.002589 0.002488 0.0023865 0.0022845 0.002183 
0.002081 0.001979 0.001877 0.001775 0.0016735 0.001572 0.0014705 0.001369 0.001268 
0.001167 0.001066 0.0009655 0.000865 0.000764 0.000664 0.0005635 0.000463 0.0003625 
0.000261 0.000157 4.95e-05 0.0094475 0.0032595 0.004078 0.0033635 0.003258 0.0030955 
0.003001 0.0029065 0.0028165 0.0027255 0.002634 0.002542 0.0024495 0.0023565 0.0022635 
0.00217 0.002077 0.0019835 0.00189 0.001797 0.001704 0.001611 0.0015185 0.001426 
0.0013335 0.0012415 0.0011495 0.001058 0.0009665 0.000875 0.0007835 0.0006925 0.0006015 
0.0005105 0.0004195 0.000328 0.0002355 0.00014 3.95e-05 0.009021 0.0031085 0.0039725 
0.003318 0.003257 0.003117 0.0030315 0.002941 0.0028515 0.00276 0.0026675 0.0025745 
0.002481 0.002387 0.002293 0.0021985 0.0021045 0.00201 0.0019155 0.001821 0.001727 
0.001633 0.001539 0.0014455 0.001352 0.0012585 0.0011655 0.0010725 0.0009795 0.000887 
0.0007945 0.000702 0.0006095 0.0005175 0.000425 0.0003325 0.000239 0.000142 4.05e-05 
0.0045105 0.001312 0.0029535 0.003096 0.0034155 0.003447 0.003424 0.0033495 0.003258 
0.0031575 0.003054 0.002949 0.0028435 0.002737 0.00263 0.0025225 0.002415 0.0023075 
0.0022 0.002092 0.0019845 0.001877 0.0017695 0.001662 0.0015545 0.0014475 0.0013405 
0.001234 0.001127 0.0010205 0.0009145 0.000808 0.000702 0.0005955 0.0004895 0.0003835 
0.000276 0.0001655 5.25e-05 -3.1e-05 0.005971 0.006206 0.0060255 0.006137 0.006094 
0.006 0.005857 0.0056945 0.005522 0.005345 0.005165 0.004983 0.0047995 0.0046145 
0.004429 0.0042425 0.004055 0.0038675 0.00368 0.003492 0.003304 0.0031155 0.0029275 
0.0027395 0.0025515 0.002364 0.002176 0.0019885 0.001801 0.0016135 0.001426 0.001239 
0.001052 0.000865 0.0006785 0.0004945 0.000314 0.0001345 0.0012755 0.0097185 0.007796 
0.0064805 0.006031 0.0057425 0.0055545 0.005384 0.0052215 0.0050585 0.0048945 0.0047285 
0.004561 0.0043925 0.0042225 0.004052 0.003881 0.0037095 0.0035375 0.0033655 0.0031935 
0.003021 0.002849 0.002677 0.0025045 0.002333 0.002161 0.0019895 0.0018175 0.001646 
0.001475 0.0013035 0.0011325 0.0009615 0.0007905 0.0006195 0.0004495 0.0002815 0.000122 
0.001041 0.009261 0.0075565 0.006391 0.006036 0.0057845 0.005613 0.005448 0.005286 
0.005122 0.004956 0.004788 0.0046185 0.004448 0.0042765 0.0041035 0.0039305 0.003757 
0.003583 0.0034085 0.0032345 0.00306 0.0028855 0.002711 0.002537 0.002363 0.002189 
0.002015 0.001841 0.0016675 0.001494 0.0013205 0.001147 0.000974 0.000801 0.000628 
0.000456 0.000286 0.000124 -0.0022415 0.0047865 0.0058035 0.0060115 0.006284 0.0063055 
0.006229 0.006087 0.0059205 0.005742 0.005558 0.005371 0.005182 0.004991 0.004799 
0.004606 0.004412 0.0042175 0.0040225 0.0038275 0.003632 0.0034365 0.0032405 0.003045 
0.0028495 0.002654 0.0024585 0.0022635 0.0020685 0.001873 0.0016785 0.0014835 0.0012885 
0.001094 0.0008995 0.000706 0.000515 0.000329 0.000144 -0.0003535 0.005049 0.005673 
0.0056745 0.005822 0.0057055 0.005584 0.00543 0.005275 0.005115 0.004953 0.004789 
0.0046225 0.004454 0.0042845 0.0041135 0.003942 0.0037695 0.0035965 0.0034235 0.0032495 
0.0030755 0.0029015 0.002727 0.002553 0.0023785 0.002204 0.002029 0.0018545 0.00168 
0.0015055 0.001331 0.0011565 0.000982 0.0008075 0.0006335 0.0004605 0.0002895 0.00012 
0.001706 0.008557 0.0071275 0.00606 0.005667 0.0053445 0.0051415 0.0049695 0.004816 
0.0046665 0.0045175 0.004367 0.004215 0.004061 0.0039065 0.0037505 0.003594 0.003437 
0.003279 0.003121 0.002963 0.0028045 0.0026455 0.0024865 0.0023275 0.0021685 0.0020095 
0.0018505 0.0016915 0.001532 0.001373 0.001214 0.001055 0.0008955 0.0007365 0.000577 
0.000418 0.0002595 0.0001085 0.0013635 0.008117 0.0069115 0.0059805 0.005678 0.005388 
0.0052 0.0050315 0.0048785 0.004728 0.004577 0.0044245 0.0042705 0.004115 0.003958 
0.0038005 0.0036415 0.0034825 0.0033225 0.0031625 0.003002 0.0028415 0.0026805 0.0025195 
0.0023585 0.0021975 0.002036 0.001875 0.0017135 0.0015525 0.001391 0.00123 0.0010685 
0.0009075 0.000746 0.000585 0.000424 0.0002635 0.0001105 -0.0027145 0.0038395 0.005332 
0.0057095 0.0059855 0.005917 0.005804 0.0056495 0.00549 0.0053245 0.005157 0.004986 
0.0048135 0.0046385 0.004462 0.0042845 0.004106 0.0039265 0.0037465 0.003566 0.0033855 
0.003204 0.003023 0.0028415 0.0026595 0.002478 0.002296 0.0021145 0.0019325 0.0017505 
0.0015685 0.001387 0.001205 0.001023 0.0008415 0.00066 0.0004805 0.0003035 0.0001285 
0.0071225 0.000648 0.0019155 0.002117 0.0021285 0.0020755 0.002008 0.0019485 0.0018905 
0.0018335 0.0017755 0.001717 0.0016575 0.0015975 0.001537 0.001476 0.0014145 0.001353 
0.001291 0.001229 0.001167 0.001105 0.0010425 0.00098 0.0009175 0.000855 0.0007925 
0.00073 0.000667 0.0006045 0.000542 0.000479 0.0004165 0.0003535 0.0002905 0.0002275 
0.000164 9.75e-05 2.7e-05 0.010393 0.0012955 0.0024025 0.002252 0.0020745 0.001934 
0.001838 0.001771 0.0017135 0.0016605 0.0016075 0.0015545 0.0015005 0.001446 0.0013915 
0.001336 0.001281 0.001225 0.0011695 0.0011135 0.001057 0.001001 0.0009445 0.000888 
0.0008315 0.000775 0.0007185 0.0006615 0.000605 0.000548 0.0004915 0.0004345 0.0003775 
0.000321 0.000264 0.0002065 0.000148 8.7e-05 2.05e-05 0.0098805 0.001215 0.0023365 
0.0022225 0.00208 0.001951 0.0018615 0.0017955 0.0017385 0.001685 0.0016315 0.0015775 
0.001523 0.0014675 0.001412 0.001356 0.0012995 0.001243 0.0011865 0.0011295 0.0010725 
0.0010155 0.0009585 0.000901 0.0008435 0.000786 0.000729 0.0006715 0.0006135 0.000556 
0.0004985 0.000441 0.000383 0.0003255 0.0002675 0.0002095 0.0001505 8.85e-05 2.1e-05 
0.0046685 0.0002975 0.0017555 0.0021685 0.0022495 0.0021995 0.002137 0.0020745 0.0020145 
0.001954 0.001893 0.001831 0.0017675 0.001704 0.0016395 0.0015745 0.001509 0.0014435 
0.0013775 0.0013115 0.001245 0.001179 0.0011125 0.0010455 0.000979 0.0009125 0.0008455 
0.000779 0.000712 0.000645 0.000578 0.000511 0.000444 0.000377 0.00031 0.000243 
0.0001745 0.0001035 2.95e-05 
Eyy 1 624 float
-0.0119625 -0.0143555 -0.015797 -0.015004 -0.0146335 -0.0139745 -0.0133255 -0.012645 -0.0119635 
-0.0112835 -0.010609 -0.009943 -0.0092875 -0.008644 -0.0080145 -0.0073995 -0.0068005 -0.0062195 
-0.005657 -0.005114 -0.0045925 -0.0040925 -0.0036155 -0.0031625 -0.0027335 -0.00233 -0.001952 
-0.0016005 -0.001276 -0.0009795 -0.0007105 -0.00047 -0.0002585 -7.6e-05 7.7e-05 0.0002 
0.000293 0.0003555 0.0004015 -0.005424 -0.0123 -0.01454 -0.0147225 -0.014311 -0.0137205 
-0.013077 -0.0124215 -0.011763 -0.011107 -0.010455 -0.00981 -0.009174 -0.0085475 -0.007933 
-0.007332 -0.006745 -0.0061745 -0.005621 -0.0050865 -0.0045715 -0.0040775 -0.003605 -0.0031555 
-0.00273 -0.0023285 -0.001953 -0.001603 -0.0012795 -0.0009835 -0.0007155 -0.0004755 -0.000264 
-8.2e-05 7.05e-05 0.0001925 0.0002835 0.000346 0.000391 -0.0067355 -0.012665 -0.014751 
-0.0147435 -0.0143435 -0.013739 -0.013099 -0.0124415 -0.011782 -0.0111235 -0.0104695 -0.0098225 
-0.0091845 -0.0085565 -0.0079405 -0.007338 -0.00675 -0.0061785 -0.005624 -0.0050885 -0.004573 
-0.004078 -0.0036055 -0.0031555 -0.0027295 -0.002328 -0.001952 -0.001602 -0.0012785 -0.0009825 
-0.000714 -0.000474 -0.0002625 -8.05e-05 7.2e-05 0.000194 0.0002855 0.000348 0.000393 
-0.0170955 -0.013511 -0.016305 -0.0150875 -0.0148075 -0.0141295 -0.013472 -0.0127785 -0.0120825 
-0.011388 -0.0107005 -0.0100225 -0.009356 -0.008703 -0.0080645 -0.0074415 -0.0068365 -0.0062495 
-0.005682 -0.005135 -0.0046095 -0.0041065 -0.003627 -0.0031715 -0.002741 -0.002336 -0.001957 
-0.0016045 -0.00128 -0.0009825 -0.0007135 -0.000473 -0.000261 -7.85e-05 7.45e-05 0.000198 
0.000292 0.000355 0.000401 -0.0028065 -0.0016435 -0.001394 -0.001253 -0.001385 -0.0014635 
-0.001542 -0.0015855 -0.0016065 -0.0016055 -0.0015875 -0.001555 -0.0015105 -0.0014555 -0.001391 
-0.0013185 -0.001239 -0.0011545 -0.001065 -0.000973 -0.0008785 -0.0007835 -0.000688 -0.000593 
-0.0005005 -0.00041 -0.000323 -0.0002395 -0.000161 -8.75e-05 -2e-05 4.15e-05 9.6e-05 
0.000144 0.0001845 0.000217 0.000242 0.000259 0.000278 -0.001001 -0.0012725 -0.0010555 
-0.0010335 -0.001108 -0.001212 -0.0013025 -0.00137 -0.001413 -0.0014345 -0.001438 -0.0014255 
-0.0013995 -0.0013605 -0.0013105 -0.001251 -0.001183 -0.001108 -0.001028 -0.000943 -0.000855 
-0.000765 -0.000674 -0.000583 -0.000493 -0.000405 -0.0003195 -0.0002375 -0.00016 -8.75e-05 
-2e-05 4.1e-05 9.55e-05 0.0001435 0.000184 0.0002165 0.000241 0.0002585 0.000273 
-0.0015015 -0.001242 -0.001099 -0.001028 -0.0011275 -0.0012275 -0.0013205 -0.0013865 -0.0014285 
-0.0014485 -0.00145 -0.001436 -0.0014085 -0.001368 -0.001317 -0.001256 -0.0011875 -0.001112 
-0.0010305 -0.000945 -0.0008565 -0.000766 -0.0006745 -0.0005835 -0.000493 -0.000405 -0.0003195 
-0.0002375 -0.00016 -8.7e-05 -2e-05 4.15e-05 9.6e-05 0.000144 0.000184 0.000217 
0.0002415 0.000259 0.000274 -0.0033075 -0.001316 -0.001747 -0.0014955 -0.001667 -0.0017195 
-0.001777 -0.0017955 -0.001792 -0.001768 -0.001729 -0.001678 -0.0016165 -0.001546 -0.001468 
-0.0013835 -0.001294 -0.0012 -0.001103 -0.001004 -0.000904 -0.0008035 -0.000704 -0.0006065 
-0.0005105 -0.000418 -0.000329 -0.0002445 -0.000165 -9.1e-05 -2.3e-05 3.9e-05 9.4e-05 
0.0001415 0.000182 0.000215 0.00024 0.0002565 0.000276 0.009686 0.011523 0.0125385 
0.011852 0.0112685 0.0104825 0.0097425 0.0090345 0.00837 0.007742 0.007148 0.006586 
0.006054 0.0055515 0.0050775 0.004631 0.0042115 0.003818 0.003449 0.0031045 0.0027825 
0.0024835 0.0022055 0.001948 0.001711 0.0014925 0.001293 0.001111 0.000946 0.000798 
0.000666 0.0005495 0.0004485 0.000362 0.0002905 0.0002335 0.000191 0.000162 0.0001315 
0.00474 0.011116 0.0127635 0.012479 0.011716 0.010852 0.0100335 0.009279 0.0085785 
0.007922 0.0073035 0.0067195 0.0061685 0.0056485 0.005159 0.004699 0.004268 0.003864 
0.003486 0.003134 0.002806 0.0025015 0.002219 0.001958 0.001718 0.0014975 0.001296 
0.0011125 0.000947 0.000798 0.0006655 0.000549 0.000448 0.000362 0.0002905 0.000234 
0.000192 0.0001625 0.000139 0.0059105 0.011387 0.0127925 0.0124045 0.011666 0.010803 
0.0099985 0.009249 0.008554 0.007901 0.0072855 0.006704 0.006155 0.005637 0.0051495 
0.0046915 0.004261 0.0038585 0.0034815 0.0031305 0.002803 0.002499 0.002217 0.0019565 
0.0017165 0.0014965 0.001295 0.001112 0.000946 0.0007975 0.000665 0.0005485 0.0004475 
0.0003615 0.00029 0.0002335 0.0001915 0.000162 0.0001375 0.0140955 0.009119 0.012492 
0.0113555 0.010981 0.010237 0.0095355 0.008857 0.008215 0.007607 0.007031 0.006485 
0.0059675 0.0054785 0.005016 0.00458 0.0041695 0.0037835 0.003422 0.003083 0.0027665 
0.0024715 0.002197 0.0019425 0.0017075 0.0014915 0.001293 0.0011125 0.0009485 0.000801 
0.0006695 0.000553 0.000452 0.000366 0.0002945 0.0002375 0.0001945 0.0001655 0.0001335 
0.017655 0.0235895 0.0271785 0.0245555 0.0237235 0.022099 0.020763 0.0194105 0.018132 
0.0168975 0.015713 0.014575 0.013484 0.01244 0.0114425 0.010491 0.0095855 0.0087245 
0.007908 0.0071355 0.0064055 0.0057185 0.0050735 0.00447 0.0039065 0.0033835 0.0029 
0.0024555 0.0020495 0.0016815 0.001351 0.0010575 0.0008015 0.0005815 0.0003985 0.0002515 
0.000141 6.75e-05 2e-05 0.0095475 0.022586 0.026513 0.025707 0.024263 0.0226385 
0.0211355 0.0197275 0.018399 0.0171315 0.015917 0.0147535 0.0136395 0.012574 0.0115575 
0.0105895 0.0096685 0.0087945 0.007967 0.0071845 0.0064465 0.0057525 0.0051015 0.0044925 
0.0039255 0.003399 0.002913 0.0024665 0.0020585 0.0016895 0.0013585 0.001065 0.000808 
0.0005885 0.000406 0.0002605 0.0001525 7.9e-05 2.85e-05 0.010949 0.022943 0.026719 
0.025528 0.0241925 0.022556 0.021086 0.019685 0.018365 0.017101 0.015891 0.0147305 
0.013619 0.0125565 0.0115425 0.010576 0.009657 0.008785 0.0079585 0.007177 0.0064405 
0.005747 0.005097 0.0044885 0.003922 0.003396 0.00291 0.002464 0.0020565 0.0016875 
0.0013565 0.001063 0.0008065 0.0005865 0.000404 0.000258 0.0001495 7.65e-05 2.65e-05 
0.0246245 0.020239 0.0280235 0.0236795 0.023623 0.0218785 0.020641 0.019296 0.018037 
0.0168135 0.01564 0.0145115 0.01343 0.012394 0.011404 0.010459 0.0095585 0.008703 
0.0078905 0.007122 0.0063955 0.005711 0.0050685 0.0044665 0.003905 0.003383 0.0029005 
0.0024565 0.002051 0.0016835 0.0013535 0.00106 0.000804 0.0005845 0.000401 0.0002535 
0.000142 6.8e-05 2.15e-05 
Eyz 1 624 float
0.000142 -0.0005 -0.001326 -0.0007875 -0.000605 -0.000453 -0.0003685 -0.0003095 -0.000265 
-0.000228 -0.0001955 -0.0001675 -0.000142 -0.00012 -0.0001005 -8.3e-05 -6.8e-05 -5.5e-05 
-4.4e-05 -3.45e-05 -2.6e-05 -1.9e-05 -1.35e-05 -8.5e-06 -4.5e-06 -1.5e-06 1e-06 
3e-06 4.5e-06 5.5e-06 6.5e-06 7e-06 7.5e-06 7.5e-06 8e-06 7.5e-06 
7e-06 6.5e-06 5e-06 -0.0005425 -0.0002475 -0.0005535 -0.0003735 -0.000279 -0.0002005 
-0.0001595 -0.0001315 -0.0001115 -9.55e-05 -8.2e-05 -7e-05 -5.95e-05 -5e-05 -4.2e-05 
-3.45e-05 -2.8e-05 -2.25e-05 -1.8e-05 -1.4e-05 -1e-05 -7.5e-06 -5e-06 -2.5e-06 
-1e-06 5e-07 1.5e-06 2.5e-06 3e-06 3.5e-06 4e-06 4e-06 4.5e-06 
4.5e-06 4.5e-06 4e-06 4e-06 3.5e-06 4.5e-06 -3e-05 0.000683 0.000777 
0.000612 0.000426 0.000316 0.0002495 0.0002065 0.0001755 0.000151 0.0001295 0.000111 
9.4e-05 7.95e-05 6.65e-05 5.5e-05 4.5e-05 3.65e-05 2.9e-05 2.25e-05 1.7e-05 
1.25e-05 8.5e-06 5.5e-06 3e-06 5e-07 -1e-06 -2.5e-06 -3.5e-06 -4e-06 
-5e-06 -5e-06 -5.5e-06 -5.5e-06 -5.5e-06 -5.5e-06 -4.5e-06 -4.5e-06 -5.5e-06 
-0.0008885 0.0007325 0.000932 0.0006275 0.000461 0.000357 0.000291 0.0002465 0.0002115 
0.000182 0.0001565 0.0001335 0.0001135 9.6e-05 8.05e-05 6.65e-05 5.45e-05 4.45e-05 
3.55e-05 2.8e-05 2.15e-05 1.6e-05 1.15e-05 7.5e-06 4.5e-06 2e-06 -0 
-1.5e-06 -3e-06 -3.5e-06 -4.5e-06 -5e-06 -5e-06 -5.5e-06 -5.5e-06 -5.5e-06 
-5e-06 -5e-06 -2e-06 -0.003952 -0.0032645 -0.001612 -0.000844 -0.0004665 -0.000254 
-0.000162 -0.000114 -8.9e-05 -7.25e-05 -5.95e-05 -4.85e-05 -3.9e-05 -3.05e-05 -2.25e-05 
-1.6e-05 -1e-05 -4.5e-06 -0 4e-06 7e-06 1e-05 1.25e-05 1.45e-05 
1.65e-05 1.75e-05 1.9e-05 1.95e-05 2.05e-05 2.1e-05 2.15e-05 2.15e-05 2.15e-05 
2.2e-05 2.2e-05 2.15e-05 2e-05 1.8e-05 2.75e-05 -0.0007055 -0.001281 -0.000803 
-0.0004595 -0.0002465 -0.000142 -8.7e-05 -6.15e-05 -4.7e-05 -3.8e-05 -3.1e-05 -2.55e-05 
-2.05e-05 -1.6e-05 -1.2e-05 -8.5e-06 -5.5e-06 -3e-06 -5e-07 1e-06 3e-06 
4.5e-06 5.5e-06 6.5e-06 7e-06 8e-06 8.5e-06 9e-06 9e-06 9.5e-06 
9.5e-06 9.5e-06 9.5e-06 1e-05 9.5e-06 9.5e-06 9e-06 8.5e-06 1.2e-05 
0.0011585 0.0020915 0.001269 0.000716 0.0003855 0.000222 0.000138 9.8e-05 7.55e-05 
6.15e-05 5.05e-05 4.1e-05 3.3e-05 2.6e-05 2e-05 1.45e-05 9.5e-06 5.5e-06 
2e-06 -1.5e-06 -4e-06 -6.5e-06 -8e-06 -9.5e-06 -1.1e-05 -1.2e-05 -1.3e-05 
-1.35e-05 -1.4e-05 -1.45e-05 -1.5e-05 -1.5e-05 -1.5e-05 -1.5e-05 -1.5e-05 -1.45e-05 
-1.4e-05 -1.35e-05 -1.95e-05 0.0034655 0.0024795 0.00118 0.0006065 0.000338 0.0001835 
0.000119 8.45e-05 6.7e-05 5.45e-05 4.5e-05 3.7e-05 3e-05 2.35e-05 1.75e-05 
1.25e-05 8e-06 4e-06 5e-07 -2.5e-06 -5e-06 -7e-06 -9e-06 -1.05e-05 
-1.2e-05 -1.3e-05 -1.4e-05 -1.45e-05 -1.5e-05 -1.55e-05 -1.6e-05 -1.6e-05 -1.6e-05 
-1.6e-05 -1.6e-05 -1.6e-05 -1.5e-05 -1.35e-05 -2e-05 -0.002468 -0.002767 -0.0011525 
-0.0004125 -2.9e-05 0.000136 0.000182 0.000187 0.0001745 0.0001585 0.000142 0.0001265 
0.0001125 9.95e-05 8.85e-05 7.8e-05 6.9e-05 6.1e-05 5.4e-05 4.8e-05 4.3e-05 
3.85e-05 3.5e-05 3.15e-05 2.9e-05 2.7e-05 2.5e-05 2.35e-05 2.25e-05 2.2e-05 
2.1e-05 2.05e-05 2.05e-05 2e-05 2e-05 1.95e-05 1.85e-05 1.65e-05 2.35e-05 
-0.000528 -0.000921 -0.00062 -0.0002525 -5.3e-05 3.7e-05 7.2e-05 7.85e-05 7.6e-05 
6.95e-05 6.3e-05 5.6e-05 5e-05 4.45e-05 3.95e-05 3.5e-05 3.1e-05 2.75e-05 
2.4e-05 2.15e-05 1.9e-05 1.7e-05 1.55e-05 1.4e-05 1.3e-05 1.2e-05 1.1e-05 
1.05e-05 1e-05 9.5e-06 9.5e-06 9e-06 9e-06 9e-06 8.5e-06 8.5e-06 
8e-06 7.5e-06 1.05e-05 0.000988 0.00165 0.000924 0.000391 7.6e-05 -6.1e-05 
-0.000113 -0.000123 -0.0001185 -0.0001085 -9.75e-05 -8.7e-05 -7.75e-05 -6.9e-05 -6.1e-05 
-5.4e-05 -4.8e-05 -4.25e-05 -3.75e-05 -3.35e-05 -3e-05 -2.7e-05 -2.4e-05 -2.2e-05 
-2e-05 -1.85e-05 -1.75e-05 -1.65e-05 -1.6e-05 -1.5e-05 -1.5e-05 -1.45e-05 -1.45e-05 
-1.4e-05 -1.4e-05 -1.35e-05 -1.25e-05 -1.2e-05 -1.7e-05 0.0026795 0.00195 0.0008425 
0.000283 1.05e-05 -0.0001055 -0.000136 -0.0001385 -0.0001285 -0.000116 -0.000104 -9.25e-05 
-8.2e-05 -7.25e-05 -6.45e-05 -5.7e-05 -5.05e-05 -4.45e-05 -3.95e-05 -3.5e-05 -3.15e-05 
-2.8e-05 -2.55e-05 -2.3e-05 -2.1e-05 -1.95e-05 -1.85e-05 -1.75e-05 -1.65e-05 -1.6e-05 
-1.55e-05 -1.5e-05 -1.5e-05 -1.5e-05 -1.45e-05 -1.45e-05 -1.35e-05 -1.15e-05 -1.7e-05 
0.001224 -0.0001795 -0.000363 -2.55e-05 0.0001175 0.0001715 0.000178 0.0001675 0.000152 
0.000136 0.0001205 0.000106 9.3e-05 8.1e-05 7e-05 6.05e-05 5.2e-05 4.4e-05 
3.75e-05 3.15e-05 2.6e-05 2.15e-05 1.8e-05 1.5e-05 1.2e-05 1e-05 8e-06 
7e-06 5.5e-06 5e-06 4.5e-06 4e-06 3.5e-06 3.5e-06 3e-06 3e-06 
2.5e-06 2.5e-06 5e-07 0.0001995 -0.0001755 -0.0001135 -6.9e-05 2.8e-05 6.25e-05 
7.35e-05 7.2e-05 6.6e-05 5.95e-05 5.25e-05 4.6e-05 4.05e-05 3.5e-05 3.05e-05 
2.6e-05 2.25e-05 1.9e-05 1.65e-05 1.35e-05 1.15e-05 9.5e-06 8e-06 6.5e-06 
5.5e-06 4.5e-06 4e-06 3.5e-06 3e-06 2.5e-06 2.5e-06 2e-06 2e-06 
2e-06 2e-06 1.5e-06 1.5e-06 1e-06 1.5e-06 0.000523 -1.45e-05 0.0003235 
8.05e-05 -4.55e-05 -0.000105 -0.000119 -0.0001165 -0.000107 -9.6e-05 -8.5e-05 -7.5e-05 
-6.6e-05 -5.8e-05 -5.05e-05 -4.35e-05 -3.75e-05 -3.25e-05 -2.75e-05 -2.35e-05 -2e-05 
-1.7e-05 -1.45e-05 -1.25e-05 -1.05e-05 -9e-06 -8e-06 -7e-06 -6e-06 -5.5e-06 
-5e-06 -5e-06 -4.5e-06 -4.5e-06 -4.5e-06 -4e-06 -3.5e-06 -3.5e-06 -4e-06 
0.0001985 -0.00074 0.0007185 -0.0001485 -4.2e-05 -0.000142 -0.0001255 -0.000122 -0.0001095 
-9.8e-05 -8.7e-05 -7.65e-05 -6.7e-05 -5.85e-05 -5.1e-05 -4.4e-05 -3.8e-05 -3.2e-05 
-2.75e-05 -2.3e-05 -1.95e-05 -1.6e-05 -1.35e-05 -1.1e-05 -9.5e-06 -7.5e-06 -6.5e-06 
-5.5e-06 -4.5e-06 -4e-06 -3.5e-06 -3.5e-06 -3e-06 -3e-06 -3e-06 -3e-06 
-2.5e-06 -2.5e-06 -5e-07 
Ezz 1 624 float
-0.01909 -0.021965 -0.021679 -0.01987 -0.018939 -0.0178465 -0.016846 -0.0158525 -0.014894 
-0.013964 -0.013065 -0.0121965 -0.011359 -0.0105525 -0.0097775 -0.0090345 -0.0083225 -0.007642 
-0.0069935 -0.006376 -0.00579 -0.005236 -0.0047125 -0.004221 -0.00376 -0.00333 -0.0029315 
-0.002563 -0.002226 -0.001919 -0.001643 -0.0013975 -0.001182 -0.000997 -0.000842 -0.0007165 
-0.00062 -0.0005525 -0.000519 -0.023456 -0.0252095 -0.0231045 -0.020385 -0.01918 -0.0179615 
-0.0169145 -0.0158995 -0.014929 -0.013991 -0.0130855 -0.012212 -0.0113695 -0.0105595 -0.0097805 
-0.009034 -0.008319 -0.007636 -0.006985 -0.006366 -0.0057785 -0.0052225 -0.004698 -0.004205 
-0.003743 -0.0033125 -0.002913 -0.002544 -0.0022065 -0.001899 -0.0016225 -0.0013765 -0.001161 
-0.000976 -0.0008205 -0.0006955 -0.0006 -0.000537 -0.0005075 -0.023066 -0.024757 -0.0228715 
-0.020305 -0.019147 -0.0179465 -0.0169075 -0.015895 -0.014926 -0.013989 -0.013084 -0.012211 
-0.011369 -0.010559 -0.009781 -0.0090345 -0.00832 -0.0076375 -0.0069865 -0.0063675 -0.00578 
-0.0052245 -0.0047 -0.004207 -0.0037455 -0.003315 -0.0029155 -0.002547 -0.002209 -0.001902 
-0.0016255 -0.0013795 -0.001164 -0.0009785 -0.0008235 -0.000698 -0.0006025 -0.000539 -0.000509 
-0.0175045 -0.0211315 -0.02142 -0.019728 -0.018867 -0.0177985 -0.016806 -0.015819 -0.014865 
-0.013939 -0.0130435 -0.0121785 -0.011344 -0.01054 -0.0097675 -0.009026 -0.008316 -0.007637 
-0.00699 -0.006374 -0.005789 -0.0052355 -0.004713 -0.004222 -0.0037615 -0.0033325 -0.002934 
-0.002566 -0.002229 -0.0019225 -0.0016465 -0.001401 -0.0011855 -0.0010005 -0.0008455 -0.0007205 
-0.0006235 -0.0005535 -0.000516 -0.0032455 -0.0089845 -0.0086405 -0.008319 -0.0076725 -0.0071025 
-0.006558 -0.006066 -0.0056115 -0.005189 -0.0047925 -0.00442 -0.0040695 -0.003741 -0.0034325 
-0.003144 -0.0028745 -0.002623 -0.0023885 -0.002171 -0.0019695 -0.0017825 -0.00161 -0.0014515 
-0.0013055 -0.0011725 -0.0010505 -0.0009405 -0.000841 -0.000752 -0.000673 -0.0006035 -0.0005435 
-0.0004925 -0.0004495 -0.000415 -0.0003875 -0.000365 -0.000357 -0.0040815 -0.0093765 -0.0087795 
-0.0082795 -0.007669 -0.0071045 -0.00657 -0.0060795 -0.005625 -0.0052005 -0.004803 -0.004429 
-0.0040775 -0.0037475 -0.003438 -0.003148 -0.0028775 -0.0026255 -0.0023905 -0.002172 -0.0019695 
-0.001782 -0.001609 -0.0014495 -0.0013035 -0.0011695 -0.0010475 -0.000937 -0.0008375 -0.000748 
-0.000669 -0.000599 -0.000539 -0.0004875 -0.000445 -0.0004105 -0.0003835 -0.000363 -0.000353 
-0.0039735 -0.0092645 -0.008774 -0.008293 -0.0076855 -0.007118 -0.0065815 -0.006089 -0.005633 
-0.005208 -0.004809 -0.0044345 -0.004082 -0.0037515 -0.0034415 -0.0031515 -0.0028805 -0.0026275 
-0.0023925 -0.0021735 -0.001971 -0.0017835 -0.0016105 -0.001451 -0.0013045 -0.0011705 -0.0010485 
-0.000938 -0.0008385 -0.000749 -0.00067 -0.0006 -0.00054 -0.0004885 -0.000446 -0.000411 
-0.0003845 -0.0003635 -0.000354 -0.0032205 -0.0088725 -0.00856 -0.008185 -0.007534 -0.0069635 
-0.0064285 -0.0059495 -0.0055085 -0.0050985 -0.004714 -0.004352 -0.004011 -0.00369 -0.0033895 
-0.003107 -0.0028435 -0.002597 -0.0023675 -0.0021535 -0.001955 -0.001771 -0.001601 -0.0014445 
-0.0013 -0.001168 -0.001048 -0.0009385 -0.00084 -0.0007515 -0.000673 -0.000604 -0.000544 
-0.000493 -0.0004505 -0.000416 -0.000388 -0.0003645 -0.0003545 0.0080295 0.0073715 0.007042 
0.005797 0.0058275 0.0056335 0.00549 0.0052715 0.0050365 0.004787 0.0045325 0.0042765 
0.0040205 0.003765 0.003512 0.0032615 0.003015 0.002773 0.0025365 0.0023065 0.002083 
0.001867 0.00166 0.0014615 0.0012725 0.0010935 0.000925 0.000768 0.000622 0.000488 
0.0003665 0.000257 0.0001605 7.75e-05 7e-06 -5.05e-05 -9.7e-05 -0.000133 -0.0001505 
0.010682 0.0101265 0.007772 0.0061885 0.005872 0.0056255 0.005442 0.005224 0.004992 
0.004747 0.004497 0.0042445 0.003991 0.0037385 0.0034875 0.003239 0.002994 0.0027535 
0.0025185 0.002289 0.0020665 0.001852 0.001645 0.0014475 0.001259 0.0010805 0.000913 
0.000756 0.0006105 0.0004765 0.000355 0.000246 0.00015 6.65e-05 -3.5e-06 -6.1e-05 
-0.000106 -0.000138 -0.000159 0.010476 0.009682 0.0076155 0.006121 0.005848 0.005615 
0.005438 0.0052215 0.00499 0.0047455 0.004496 0.0042435 0.0039905 0.003738 0.0034875 
0.0032395 0.002995 0.0027545 0.0025195 0.0022905 0.002068 0.0018535 0.001647 0.001449 
0.001261 0.0010825 0.0009145 0.0007575 0.000612 0.0004785 0.000357 0.000248 0.0001515 
6.85e-05 -2e-06 -5.9e-05 -0.0001045 -0.000137 -0.0001575 0.00773 0.006795 0.006979 
0.0058195 0.0059245 0.0057465 0.005596 0.0053675 0.0051215 0.004862 0.0045985 0.0043345 
0.004071 0.0038095 0.0035505 0.003295 0.003044 0.002798 0.0025575 0.002324 0.002098 
0.00188 0.0016705 0.00147 0.00128 0.0010995 0.0009305 0.0007725 0.000626 0.0004915 
0.000369 0.0002595 0.000163 7.95e-05 9e-06 -4.85e-05 -9.55e-05 -0.000133 -0.000154 
0.0335125 0.020638 0.0260835 0.021875 0.021603 0.0201665 0.019099 0.0179395 0.0168365 
0.015754 0.0147075 0.0136945 0.0127165 0.011774 0.010868 0.0099975 0.009163 0.008365 
0.007604 0.0068785 0.00619 0.005538 0.0049225 0.004343 0.0038005 0.0032935 0.0028235 
0.002389 0.001991 0.001629 0.0013025 0.0010125 0.000758 0.000539 0.000356 0.0002085 
9.5e-05 1.95e-05 -1.5e-05 0.0383555 0.0242675 0.0280915 0.0224315 0.0216055 0.0200895 
0.0189585 0.017814 0.0167165 0.015646 0.014608 0.0136035 0.0126335 0.011698 0.010798 
0.009934 0.009105 0.008312 0.007555 0.006834 0.006149 0.0055 0.004887 0.00431 
0.003769 0.003264 0.002795 0.002362 0.0019645 0.0016035 0.001278 0.000988 0.000734 
0.0005155 0.000332 0.0001845 7.25e-05 1.5e-06 -2.4e-05 0.037639 0.0240415 0.0276795 
0.022382 0.0215775 0.020102 0.018979 0.017834 0.0167355 0.015663 0.0146235 0.0136175 
0.012646 0.0117095 0.0108085 0.009943 0.009113 0.0083195 0.0075615 0.00684 0.0061545 
0.005505 0.0048915 0.004314 0.003773 0.0032675 0.0027985 0.0023655 0.001968 0.0016065 
0.001281 0.000991 0.000737 0.000518 0.000335 0.0001875 7.5e-05 3.5e-06 -2.25e-05 
0.031455 0.018384 0.026391 0.0213765 0.0217235 0.020158 0.0191475 0.0179715 0.0168685 
0.015782 0.014733 0.0137175 0.0127375 0.0117935 0.010885 0.010013 0.0091775 0.0083785 
0.0076155 0.0068895 0.0062 0.005547 0.004931 0.004351 0.0038075 0.0033005 0.0028295 
0.002395 0.001997 0.0016345 0.001308 0.001018 0.0007635 0.0005445 0.0003615 0.0002135 
0.0001 2.25e-05 -1.75e-05 
Eff 1 624 float
0.0302615 0.039686 0.038983 0.036953 0.035241 0.0334025 0.031572 0.029757 0.027976 
0.0262375 0.024546 0.022904 0.021313 0.0197745 0.01829 0.0168605 0.0154865 0.014169 
0.0129085 0.0117055 0.0105605 0.0094745 0.008447 0.007479 0.00657 0.0057205 0.004931 
0.0042015 0.0035315 0.0029215 0.002372 0.0018825 0.001453 0.001084 0.000775 0.0005255 
0.0003355 0.0002045 0.000129 0.0275885 0.040622 0.0393655 0.037169 0.035193 0.03326 
0.03139 0.0295735 0.0278045 0.0260825 0.024408 0.022782 0.0212065 0.019682 0.0182095 
0.016791 0.0154265 0.014117 0.0128635 0.011667 0.0105275 0.0094455 0.008422 0.0074565 
0.00655 0.0057025 0.0049145 0.0041855 0.0035165 0.0029075 0.002358 0.0018685 0.001439 
0.00107 0.0007615 0.0005135 0.0003265 0.0002 0.0001295 0.0278425 0.040752 0.0393035 
0.037151 0.0351935 0.03328 0.0314145 0.0295995 0.0278285 0.026104 0.024427 0.022799 
0.0212215 0.019695 0.018221 0.0168005 0.0154345 0.014124 0.01287 0.0116725 0.010532 
0.0094495 0.008425 0.0074595 0.0065525 0.005705 0.0049165 0.0041875 0.0035185 0.002909 
0.0023595 0.00187 0.001441 0.0010715 0.000763 0.000515 0.0003275 0.0002005 0.0001295 
0.0325175 0.0402215 0.0383565 0.037001 0.035265 0.033489 0.03166 0.0298425 0.028054 
0.0263075 0.024608 0.0229585 0.021361 0.0198165 0.0183265 0.0168925 0.015514 0.014193 
0.0129295 0.011724 0.010577 0.009489 0.00846 0.0074905 0.006581 0.005731 0.0049405 
0.0042105 0.0035405 0.0029305 0.0023805 0.001891 0.0014615 0.0010925 0.0007835 0.000534 
0.000343 0.000209 0.0001295 0.006107 0.010307 0.0103675 0.0097505 0.009246 0.00874 
0.008259 0.007798 0.0073515 0.0069165 0.006491 0.0060765 0.0056725 0.0052795 0.0048985 
0.00453 0.004174 0.0038315 0.0035025 0.003187 0.002886 0.0025995 0.0023275 0.0020705 
0.0018285 0.001602 0.0013905 0.001195 0.001015 0.0008505 0.0007025 0.00057 0.000454 
0.000354 0.00027 0.000202 0.000149 0.0001085 8.05e-05 0.005008 0.0107635 0.0102615 
0.009554 0.0090095 0.0085165 0.0080545 0.007614 0.007187 0.0067705 0.006363 0.0059645 
0.0055755 0.005196 0.0048275 0.0044695 0.0041235 0.003789 0.003467 0.003158 0.002862 
0.00258 0.0023115 0.0020575 0.001818 0.001593 0.001383 0.0011885 0.001009 0.0008455 
0.0006975 0.0005655 0.000449 0.000349 0.0002655 0.0001975 0.0001455 0.000107 8.1e-05 
0.00509 0.010815 0.010244 0.009585 0.0090385 0.008549 0.008083 0.0076405 0.0072105 
0.006791 0.006381 0.0059805 0.0055895 0.005208 0.0048375 0.0044785 0.0041305 0.003795 
0.0034725 0.0031625 0.0028655 0.002583 0.002314 0.0020595 0.0018195 0.001594 0.001384 
0.0011895 0.00101 0.000846 0.000698 0.000566 0.00045 0.00035 0.000266 0.0001985 
0.000146 0.0001075 8.1e-05 0.0065665 0.0105785 0.010366 0.009914 0.0093535 0.008844 
0.008348 0.007878 0.007422 0.006979 0.006546 0.006124 0.0057135 0.0053145 0.0049285 
0.004555 0.0041955 0.0038495 0.0035175 0.0031995 0.0028965 0.002608 0.0023345 0.0020765 
0.0018335 0.001606 0.001394 0.001198 0.0010175 0.000853 0.000705 0.0005725 0.0004565 
0.0003565 0.0002725 0.0002045 0.000151 0.000109 7.95e-05 -0.0124515 -0.0197615 -0.0186135 
-0.0173545 -0.0165255 -0.015688 -0.01482 -0.0139505 -0.013089 -0.0122495 -0.0114345 -0.010646 
-0.009885 -0.009152 -0.0084465 -0.0077695 -0.007121 -0.0065005 -0.005909 -0.0053455 -0.004811 
-0.0043055 -0.003828 -0.003379 -0.0029585 -0.0025665 -0.0022025 -0.0018665 -0.001559 -0.0012795 
-0.0010275 -0.0008035 -0.0006075 -0.0004385 -0.0002975 -0.0001835 -9.45e-05 -2.9e-05 1.45e-05 
-0.010819 -0.0209415 -0.0196395 -0.0181755 -0.017021 -0.0160205 -0.015054 -0.0141355 -0.013244 
-0.0123825 -0.011549 -0.010744 -0.009968 -0.009221 -0.0085035 -0.007816 -0.0071575 -0.006529 
-0.0059305 -0.005361 -0.0048215 -0.004311 -0.00383 -0.0033785 -0.0029555 -0.0025615 -0.002196 
-0.0018595 -0.001551 -0.001271 -0.0010185 -0.0007945 -0.0005985 -0.00043 -0.000289 -0.000176 
-8.9e-05 -2.6e-05 1.4e-05 -0.0109715 -0.021028 -0.0194835 -0.018065 -0.0169455 -0.015972 
-0.0150185 -0.0141085 -0.013221 -0.012363 -0.011532 -0.0107295 -0.009956 -0.009211 -0.008495 
-0.007809 -0.007152 -0.006525 -0.005927 -0.0053585 -0.00482 -0.00431 -0.0038295 -0.0033785 
-0.002956 -0.002562 -0.002197 -0.0018605 -0.001552 -0.001272 -0.00102 -0.000796 -0.0005995 
-0.000431 -0.00029 -0.0001765 -9e-05 -2.65e-05 1.35e-05 -0.0140395 -0.0200025 -0.01769 
-0.0171235 -0.016323 -0.015572 -0.014732 -0.013878 -0.0130265 -0.012195 -0.0113875 -0.010606 
-0.0098515 -0.009124 -0.008424 -0.0077515 -0.0071065 -0.00649 -0.005901 -0.0053405 -0.004808 
-0.004304 -0.003828 -0.0033805 -0.002961 -0.0025695 -0.002206 -0.0018705 -0.0015635 -0.0012835 
-0.001032 -0.000808 -0.000612 -0.000443 -0.000302 -0.0001875 -9.85e-05 -3e-05 1.6e-05 
-0.038198 -0.048321 -0.046795 -0.044223 -0.04212 -0.039795 -0.0375625 -0.035357 -0.0332075 
-0.0311145 -0.029081 -0.02711 -0.025202 -0.023359 -0.0215825 -0.0198735 -0.0182325 -0.01666 
-0.0151575 -0.0137245 -0.012362 -0.01107 -0.009849 -0.008699 -0.00762 -0.0066125 -0.0056765 
-0.0048115 -0.0040185 -0.0032965 -0.002646 -0.0020665 -0.001559 -0.0011225 -0.000757 -0.000463 
-0.0002395 -8.9e-05 -1.35e-05 -0.035947 -0.0504135 -0.047701 -0.0456035 -0.042713 -0.040202 
-0.037805 -0.035541 -0.033356 -0.031241 -0.0291895 -0.0272015 -0.025279 -0.023423 -0.021634 
-0.019914 -0.0182635 -0.0166835 -0.0151735 -0.0137345 -0.012367 -0.0110705 -0.009846 -0.008693 
-0.007612 -0.0066025 -0.005665 -0.004799 -0.004005 -0.0032825 -0.002632 -0.0020525 -0.0015445 
-0.0011085 -0.000744 -0.0004515 -0.000232 -8.6e-05 -1.4e-05 -0.0362225 -0.050516 -0.0475075 
-0.0454475 -0.04261 -0.0401445 -0.0377665 -0.035514 -0.033334 -0.0312225 -0.0291735 -0.027188 
-0.0252675 -0.0234135 -0.0216265 -0.019908 -0.018259 -0.0166795 -0.0151705 -0.0137325 -0.0123655 
-0.01107 -0.009846 -0.0086935 -0.0076125 -0.0066035 -0.0056665 -0.0048005 -0.0040065 -0.0032845 
-0.0026335 -0.002054 -0.0015465 -0.00111 -0.0007455 -0.0004525 -0.0002325 -8.6e-05 -1.4e-05 
-0.041333 -0.0486665 -0.044875 -0.044173 -0.0417695 -0.0397125 -0.037467 -0.035293 -0.0331495 
-0.0310655 -0.0290395 -0.027075 -0.0251735 -0.0233365 -0.021565 -0.01986 -0.018223 -0.016654 
-0.0151545 -0.013724 -0.0123635 -0.0110735 -0.009854 -0.008705 -0.007627 -0.0066205 -0.005685 
-0.0048205 -0.0040275 -0.0033055 -0.002655 -0.002076 -0.0015685 -0.001132 -0.0007665 -0.0004715 
-0.0002475 -9.35e-05 -1.45e-05 
